{"tracks":{"href":"https://api.spotify.com/v1/search?offset=0&limit=2&query=Phoenix%201901&type=track","limit":2,"next":"https://api.spotify.com/v1/search?offset=2&limit=2&query=Phoenix%201901&type=track","offset":0,"previous":null,"total":876,"items":[{"album":{"album_type":"single","artists":[{"external_urls":{"spotify":"https://open.spotify.com/artist/4X76fYx1a6EmEvCqDudesG"},"href":"https://api.spotify.com/v1/artists/4X76fYx1a6EmEvCqDudesG","id":"4X76fYx1a6EmEvCqDudesG","name":"Netrum","type":"artist","uri":"spotify:artist:4X76fYx1a6EmEvCqDudesG"},{"external_urls":{"spotify":"https://open.spotify.com/artist/4jbh1BeqqFVqqH7GACcWdH"},"href":"https://api.spotify.com/v1/artists/4jbh1BeqqFVqqH7GACcWdH","id":"4jbh1BeqqFVqqH7GACcWdH","name":"Halvorsen","type":"artist","uri":"spotify:artist:4jbh1BeqqFVqqH7GACcWdH"}],"available_markets":["AR","AU","AT","BE","BO","BR","BG","CA","CL","CO","CR","CY","CZ","DK","DO","DE","EC","EE","SV","FI","FR","GR","GT","HN","HK","HU","IS","IE","IT","LV","LT","LU","MY","MT","MX","NL","NZ","NI","NO","PA","PY","PE","PH","PL","PT","SG","SK","ES","SE","CH","TW","TR","UY","US","GB","AD","LI","MC","ID","JP","TH","VN","RO","IL","ZA","SA","AE","BH","QA","OM","KW","EG","MA","DZ","TN","LB","JO","PS","IN","BY","KZ","MD","UA","AL","BA","HR","ME","MK","RS","SI","KR","BD","PK","LK","GH","KE","NG","TZ","UG","AG","AM","BS","BB","BZ","BT","BW","BF","CV","CW","DM","FJ","GM","GE","GD","GW","GY","HT","JM","KI","LS","LR","MW","MV","ML","MH","FM","NA","NR","NE","PW","PG","PR","WS","SM","ST","SN","SC","SL","SB","KN","LC","VC","SR","TL","TO","TT","TV","VU","AZ","BN","BI","KH","CM","TD","KM","GQ","SZ","GA","GN","KG","LA","MO","MR","MN","NP","RW","TG","UZ","ZW","BJ","MG","MU","MZ","AO","CI","DJ","ZM","CD","CG","IQ","LY","TJ","VE","ET","XK"],"external_urls":{"spotify":"https://open.spotify.com/album/1k2a61QGgr79cMiKc1mWwh"},"href":"https://api.spotify.com/v1/albums/1k2a61QGgr79cMiKc1mWwh","id":"1k2a61QGgr79cMiKc1mWwh","images":[{"height":640,"width":640,"url":"https://i.scdn.co/image/ab67616d0000b273dae3332426e0db9549075dc2"},{"height":300,"width":300,"url":"https://i.scdn.co/image/ab67616d00001e02dae3332426e0db9549075dc2"},{"height":64,"width":64,"url":"https://i.scdn.co/image/ab67616d00004851dae3332426e0db9549075dc2"}],"is_playable":true,"name":"Phoenix","release_date":"2021-08-20","release_date_precision":"day","total_tracks":1,"type":"album","uri":"spotify:album:1k2a61QGgr79cMiKc1mWwh"},"artists":[{"external_urls":{"spotify":"https://open.spotify.com/artist/4X76fYx1a6EmEvCqDudesG"},"href":"https://api.spotify.com/v1/artists/4X76fYx1a6EmEvCqDudesG","id":"4X76fYx1a6EmEvCqDudesG","name":"Netrum","type":"artist","uri":"spotify:artist:4X76fYx1a6EmEvCqDudesG"},{"external_urls":{"spotify":"https://open.spotify.com/artist/4jbh1BeqqFVqqH7GACcWdH"},"href":"https://api.spotify.com/v1/artists/4jbh1BeqqFVqqH7GACcWdH","id":"4jbh1BeqqFVqqH7GACcWdH","name":"Halvorsen","type":"artist","uri":"spotify:artist:4jbh1BeqqFVqqH7GACcWdH"}],"available_markets":["AR","AU","AT","BE","BO","BR","BG","CA","CL","CO","CR","CY","CZ","DK","DO","DE","EC","EE","SV","FI","FR","GR","GT","HN","HK","HU","IS","IE","IT","LV","LT","LU","MY","MT","MX","NL","NZ","NI","NO","PA","PY","PE","PH","PL","PT","SG","SK","ES","SE","CH","TW","TR","UY","US","GB","AD","LI","MC","ID","JP","TH","VN","RO","IL","ZA","SA","AE","BH","QA","OM","KW","EG","MA","DZ","TN","LB","JO","PS","IN","BY","KZ","MD","UA","AL","BA","HR","ME","MK","RS","SI","KR","BD","PK","LK","GH","KE","NG","TZ","UG","AG","AM","BS","BB","BZ","BT","BW","BF","CV","CW","DM","FJ","GM","GE","GD","GW","GY","HT","JM","KI","LS","LR","MW","MV","ML","MH","FM","NA","NR","NE","PW","PG","PR","WS","SM","ST","SN","SC","SL","SB","KN","LC","VC","SR","TL","TO","TT","TV","VU","AZ","BN","BI","KH","CM","TD","KM","GQ","SZ","GA","GN","KG","LA","MO","MR","MN","NP","RW","TG","UZ","ZW","BJ","MG","MU","MZ","AO","CI","DJ","ZM","CD","CG","IQ","LY","TJ","VE","ET","XK"],"disc_number":1,"duration_ms":238184,"explicit":false,"external_ids":{"isrc":"GB2LD2110224"},"external_urls":{"spotify":"https://open.spotify.com/track/2iEx9DTwwsNtGR4y4XWpH0"},"href":"https://api.spotify.com/v1/tracks/2iEx9DTwwsNtGR4y4XWpH0","id":"2iEx9DTwwsNtGR4y4XWpH0","is_local":false,"is_playable":true,"name":"Phoenix","popularity":53,"preview_url":null,"track_number":1,"type":"track","uri":"spotify:track:2iEx9DTwwsNtGR4y4XWpH0"},{"album":{"album_type":"album","artists":[{"external_urls":{"spotify":"https://open.spotify.com/artist/1xU878Z1QtBldR7ru9owdU"},"href":"https://api.spotify.com/v1/artists/1xU878Z1QtBldR7ru9owdU","id":"1xU878Z1QtBldR7ru9owdU","name":"Phoenix","type":"artist","uri":"spotify:artist:1xU878Z1QtBldR7ru9owdU"}],"available_markets":["AR","AU","AT","BE","BO","BR","BG","CA","CL","CO","CR","CY","CZ","DK","DO","DE","EC","EE","SV","FI","FR","GR","GT","HN","HK","HU","IS","IE","IT","LV","LT","LU","MY","MT","MX","NL","NZ","NI","NO","PA","PY","PE","PH","PL","PT","SG","SK","ES","SE","CH","TW","TR","UY","US","GB","AD","LI","MC","ID","JP","TH","VN","RO","IL","ZA","SA","AE","BH","QA","OM","KW","EG","MA","DZ","TN","LB","JO","PS","IN","BY","KZ","MD","UA","AL","BA","HR","ME","MK","RS","SI","KR","BD","PK","LK","GH","KE","NG","TZ","UG","AG","AM","BS","BB","BZ","BT","BW","BF","CV","CW","DM","FJ","GM","GE","GD","GW","GY","HT","JM","KI","LS","LR","MW","MV","ML","MH","FM","NA","NR","NE","PW","PG","PR","WS","SM","ST","SN","SC","SL","SB","KN","LC","VC","SR","TL","TO","TT","TV","VU","AZ","BN","BI","KH","CM","TD","KM","GQ","SZ","GA","GN","KG","LA","MO","MR","MN","NP","RW","TG","UZ","ZW","BJ","MG","MU","MZ","AO","CI","DJ","ZM","CD","CG","IQ","LY","TJ","VE","ET","XK"],"external_urls":{"spotify":"https://open.spotify.com/album/7g4qoHjkYvfFkXJEZCjtc1"},"href":"https://api.spotify.com/v1/albums/7g4qoHjkYvfFkXJEZCjtc1","id":"7g4qoHjkYvfFkXJEZCjtc1","images":[{"height":640,"width":640,"url":"https://i.scdn.co/image/ab67616d0000b27362cbc442278eefdde1a93efd"},{"height":300,"width":300,"url":"https://i.scdn.co/image/ab67616d00001e0262cbc442278eefdde1a93efd"},{"height":64,"width":64,"url":"https://i.scdn.co/image/ab67616d0000485162cbc442278eefdde1a93efd"}],"is_playable":true,"name":"Wolfgang Amadeus Phoenix","release_date":"2009-05-25","release_date_precision":"day","total_tracks":10,"type":"album","uri":"spotify:album:7g4qoHjkYvfFkXJEZCjtc1"},"artists":[{"external_urls":{"spotify":"https://open.spotify.com/artist/1xU878Z1QtBldR7ru9owdU"},"href":"https://api.spotify.com/v1/artists/1xU878Z1QtBldR7ru9owdU","id":"1xU878Z1QtBldR7ru9owdU","name":"Phoenix","type":"artist","uri":"spotify:artist:1xU878Z1QtBldR7ru9owdU"}],"available_markets":["AR","AU","AT","BE","BO","BR","BG","CA","CL","CO","CR","CY","CZ","DK","DO","DE","EC","EE","SV","FI","FR","GR","GT","HN","HK","HU","IS","IE","IT","LV","LT","LU","MY","MT","MX","NL","NZ","NI","NO","PA","PY","PE","PH","PL","PT","SG","SK","ES","SE","CH","TW","TR","UY","US","GB","AD","LI","MC","ID","JP","TH","VN","RO","IL","ZA","SA","AE","BH","QA","OM","KW","EG","MA","DZ","TN","LB","JO","PS","IN","BY","KZ","MD","UA","AL","BA","HR","ME","MK","RS","SI","KR","BD","PK","LK","GH","KE","NG","TZ","UG","AG","AM","BS","BB","BZ","BT","BW","BF","CV","CW","DM","FJ","GM","GE","GD","GW","GY","HT","JM","KI","LS","LR","MW","MV","ML","MH","FM","NA","NR","NE","PW","PG","PR","WS","SM","ST","SN","SC","SL","SB","KN","LC","VC","SR","TL","TO","TT","TV","VU","AZ","BN","BI","KH","CM","TD","KM","GQ","SZ","GA","GN","KG","LA","MO","MR","MN","NP","RW","TG","UZ","ZW","BJ","MG","MU","MZ","AO","CI","DJ","ZM","CD","CG","IQ","LY","TJ","VE","ET","XK"],"disc_number":1,"duration_ms":193106,"explicit":false,"external_ids":{"isrc":"FR31Q0900002"},"external_urls":{"spotify":"https://open.spotify.com/track/68hYdj3GepWm2R202KhJT7"},"href":"https://api.spotify.com/v1/tracks/68hYdj3GepWm2R202KhJT7","id":"68hYdj3GepWm2R202KhJT7","is_local":false,"is_playable":true,"name":"1901","popularity":73,"preview_url":null,"track_number":2,"type":"track","uri":"spotify:track:68hYdj3GepWm2R202KhJT7"}]}}