{"tracks":{"href":"https://api.spotify.com/v1/search?offset=0&limit=2&query=Bon%20Iver%20Blood%20Bank&type=track","limit":2,"next":"https://api.spotify.com/v1/search?offset=2&limit=2&query=Bon%20Iver%20Blood%20Bank&type=track","offset":0,"previous":null,"total":1000,"items":[{"album":{"album_type":"single","artists":[{"external_urls":{"spotify":"https://open.spotify.com/artist/4LEiUm1SRbFMgfqnQTwUbQ"},"href":"https://api.spotify.com/v1/artists/4LEiUm1SRbFMgfqnQTwUbQ","id":"4LEiUm1SRbFMgfqnQTwUbQ","name":"Bon Iver","type":"artist","uri":"spotify:artist:4LEiUm1SRbFMgfqnQTwUbQ"}],"available_markets":["AR","AU","AT","BE","BO","BR","BG","CA","CL","CO","CR","CY","CZ","DK","DO","DE","EC","EE","SV","FI","FR","GR","GT","HN","HK","HU","IS","IE","IT","LV","LT","LU","MY","MT","MX","NL","NZ","NI","NO","PA","PY","PE","PH","PL","PT","SG","SK","ES","SE","CH","TW","TR","UY","US","GB","AD","LI","MC","ID","JP","TH","VN","RO","IL","ZA","SA","AE","BH","QA","OM","KW","EG","MA","DZ","TN","LB","JO","PS","IN","BY","KZ","MD","UA","AL","BA","HR","ME","MK","RS","SI","KR","BD","PK","LK","GH","KE","NG","TZ","UG","AG","AM","BS","BB","BZ","BT","BW","BF","CV","CW","DM","FJ","GM","GE","GD","GW","GY","HT","JM","KI","LS","LR","MW","MV","ML","MH","FM","NA","NR","NE","PW","PG","PR","WS","SM","ST","SN","SC","SL","SB","KN","LC","VC","SR","TL","TO","TT","TV","VU","AZ","BN","BI","KH","CM","TD","KM","GQ","SZ","GA","GN","KG","LA","MO","MR","MN","NP","RW","TG","UZ","ZW","BJ","MG","MU","MZ","AO","CI","DJ","ZM","CD","CG","IQ","LY","TJ","VE","ET","XK"],"external_urls":{"spotify":"https://open.spotify.com/album/6G2VFrsyr7jAiUYklrdKob"},"href":"https://api.spotify.com/v1/albums/6G2VFrsyr7jAiUYklrdKob","id":"6G2VFrsyr7jAiUYklrdKob","images":[{"height":640,"width":640,"url":"https://i.scdn.co/image/ab67616d0000b27333a839e8b2cf1512f3badabb"},{"height":300,"width":300,"url":"https://i.scdn.co/image/ab67616d00001e0233a839e8b2cf1512f3badabb"},{"height":64,"width":64,"url":"https://i.scdn.co/image/ab67616d0000485133a839e8b2cf1512f3badabb"}],"is_playable":true,"name":"Blood Bank","release_date":"2009-01-20","release_date_precision":"day","total_tracks":4,"type":"album","uri":"spotify:album:6G2VFrsyr7jAiUYklrdKob"},"artists":[{"external_urls":{"spotify":"https://open.spotify.com/artist/4LEiUm1SRbFMgfqnQTwUbQ"},"href":"https://api.spotify.com/v1/artists/4LEiUm1SRbFMgfqnQTwUbQ","id":"4LEiUm1SRbFMgfqnQTwUbQ","name":"Bon Iver","type":"artist","uri":"spotify:artist:4LEiUm1SRbFMgfqnQTwUbQ"}],"available_markets":["AR","AU","AT","BE","BO","BR","BG","CA","CL","CO","CR","CY","CZ","DK","DO","DE","EC","EE","SV","FI","FR","GR","GT","HN","HK","HU","IS","IE","IT","LV","LT","LU","MY","MT","MX","NL","NZ","NI","NO","PA","PY","PE","PH","PL","PT","SG","SK","ES","SE","CH","TW","TR","UY","US","GB","AD","LI","MC","ID","JP","TH","VN","RO","IL","ZA","SA","AE","BH","QA","OM","KW","EG","MA","DZ","TN","LB","JO","PS","IN","BY","KZ","MD","UA","AL","BA","HR","ME","MK","RS","SI","KR","BD","PK","LK","GH","KE","NG","TZ","UG","AG","AM","BS","BB","BZ","BT","BW","BF","CV","CW","DM","FJ","GM","GE","GD","GW","GY","HT","JM","KI","LS","LR","MW","MV","ML","MH","FM","NA","NR","NE","PW","PG","PR","WS","SM","ST","SN","SC","SL","SB","KN","LC","VC","SR","TL","TO","TT","TV","VU","AZ","BN","BI","KH","CM","TD","KM","GQ","SZ","GA","GN","KG","LA","MO","MR","MN","NP","RW","TG","UZ","ZW","BJ","MG","MU","MZ","AO","CI","DJ","ZM","CD","CG","IQ","LY","TJ","VE","ET","XK"],"disc_number":1,"duration_ms":285160,"explicit":false,"external_ids":{"isrc":"US38Y0913401"},"external_urls":{"spotify":"https://open.spotify.com/track/15WbjBy1bzH1UsUldBwwlW"},"href":"https://api.spotify.com/v1/tracks/15WbjBy1bzH1UsUldBwwlW","id":"15WbjBy1bzH1UsUldBwwlW","is_local":false,"is_playable":true,"name":"Blood Bank","popularity":61,"preview_url":null,"track_number":1,"type":"track","uri":"spotify:track:15WbjBy1bzH1UsUldBwwlW"},{"album":{"album_type":"single","artists":[{"external_urls":{"spotify":"https://open.spotify.com/artist/1MqHgTK89UO3pWk33zvz02"},"href":"https://api.spotify.com/v1/artists/1MqHgTK89UO3pWk33zvz02","id":"1MqHgTK89UO3pWk33zvz02","name":"godleecharles.","type":"artist","uri":"spotify:artist:1MqHgTK89UO3pWk33zvz02"}],"available_markets":["AR","AU","AT","BE","BO","BR","BG","CA","CL","CO","CR","CY","CZ","DK","DO","DE","EC","EE","SV","FI","FR","GR","GT","HN","HK","HU","IS","IE","IT","LV","LT","LU","MY","MT","MX","NL","NZ","NI","NO","PA","PY","PE","PH","PL","PT","SG","SK","ES","SE","CH","TW","TR","UY","US","GB","AD","LI","MC","ID","JP","TH","VN","RO","IL","ZA","SA","AE","BH","QA","OM","KW","EG","MA","DZ","TN","LB","JO","PS","IN","BY","KZ","MD","UA","AL","BA","HR","ME","MK","RS","SI","KR","BD","PK","LK","GH","KE","NG","TZ","UG","AG","AM","BS","BB","BZ","BT","BW","BF","CV","CW","DM","FJ","GM","GE","GD","GW","GY","HT","JM","KI","LS","LR","MW","MV","ML","MH","FM","NA","NR","NE","PW","PG","PR","WS","SM","ST","SN","SC","SL","SB","KN","LC","VC","SR","TL","TO","TT","TV","VU","AZ","BN","BI","KH","CM","TD","KM","GQ","SZ","GA","GN","KG","LA","MO","MR","MN","NP","RW","TG","UZ","ZW","BJ","MG","MU","MZ","AO","CI","DJ","ZM","CD","CG","IQ","LY","TJ","VE","ET","XK"],"external_urls":{"spotify":"https://open.spotify.com/album/5RY1FfCwkjSBNMDu2WR87r"},"href":"https://api.spotify.com/v1/albums/5RY1FfCwkjSBNMDu2WR87r","id":"5RY1FfCwkjSBNMDu2WR87r","images":[{"height":640,"width":640,"url":"https://i.scdn.co/image/ab67616d0000b273056fe925b80f1a6b69dc6347"},{"height":300,"width":300,"url":"https://i.scdn.co/image/ab67616d00001e02056fe925b80f1a6b69dc6347"},{"height":64,"width":64,"url":"https://i.scdn.co/image/ab67616d00004851056fe925b80f1a6b69dc6347"}],"is_playable":true,"name":"kemba freestyle.","release_date":"2021-11-07","release_date_precision":"day","total_tracks":1,"type":"album","uri":"spotify:album:5RY1FfCwkjSBNMDu2WR87r"},"artists":[{"external_urls":{"spotify":"https://open.spotify.com/artist/1MqHgTK89UO3pWk33zvz02"},"href":"https://api.spotify.com/v1/artists/1MqHgTK89UO3pWk33zvz02","id":"1MqHgTK89UO3pWk33zvz02","name":"godleecharles.","type":"artist","uri":"spotify:artist:1MqHgTK89UO3pWk33zvz02"}],"available_markets":["AR","AU","AT","BE","BO","BR","BG","CA","CL","CO","CR","CY","CZ","DK","DO","DE","EC","EE","SV","FI","FR","GR","GT","HN","HK","HU","IS","IE","IT","LV","LT","LU","MY","MT","MX","NL","NZ","NI","NO","PA","PY","PE","PH","PL","PT","SG","SK","ES","SE","CH","TW","TR","UY","US","GB","AD","LI","MC","ID","JP","TH","VN","RO","IL","ZA","SA","AE","BH","QA","OM","KW","EG","MA","DZ","TN","LB","JO","PS","IN","BY","KZ","MD","UA","AL","BA","HR","ME","MK","RS","SI","KR","BD","PK","LK","GH","KE","NG","TZ","UG","AG","AM","BS","BB","BZ","BT","BW","BF","CV","CW","DM","FJ","GM","GE","GD","GW","GY","HT","JM","KI","LS","LR","MW","MV","ML","MH","FM","NA","NR","NE","PW","PG","PR","WS","SM","ST","SN","SC","SL","SB","KN","LC","VC","SR","TL","TO","TT","TV","VU","AZ","BN","BI","KH","CM","TD","KM","GQ","SZ","GA","GN","KG","LA","MO","MR","MN","NP","RW","TG","UZ","ZW","BJ","MG","MU","MZ","AO","CI","DJ","ZM","CD","CG","IQ","LY","TJ","VE","ET","XK"],"disc_number":1,"duration_ms":164937,"explicit":false,"external_ids":{"isrc":"QZNWU2107295"},"external_urls":{"spotify":"https://open.spotify.com/track/68dfrjWnBVOBu8Pe0cj8kW"},"href":"https://api.spotify.com/v1/tracks/68dfrjWnBVOBu8Pe0cj8kW","id":"68dfrjWnBVOBu8Pe0cj8kW","is_local":false,"is_playable":true,"name":"kemba freestyle.","popularity":0,"preview_url":null,"track_number":1,"type":"track","uri":"spotify:track:68dfrjWnBVOBu8Pe0cj8kW"}]}}