{"tracks":{"href":"https://api.spotify.com/v1/search?offset=0&limit=2&query=Edward%20Sharpe%20Magnetic%20Zeros%20Home&type=track","limit":2,"next":"https://api.spotify.com/v1/search?offset=2&limit=2&query=Edward%20Sharpe%20Magnetic%20Zeros%20Home&type=track","offset":0,"previous":null,"total":1000,"items":[{"album":{"album_type":"album","artists":[{"external_urls":{"spotify":"https://open.spotify.com/artist/4LLpKhyESsyAXpc4laK94U"},"href":"https://api.spotify.com/v1/artists/4LLpKhyESsyAXpc4laK94U","id":"4LLpKhyESsyAXpc4laK94U","name":"Mac Miller","type":"artist","uri":"spotify:artist:4LLpKhyESsyAXpc4laK94U"}],"available_markets":["AR","AU","AT","BE","BO","BR","BG","CA","CL","CO","CR","CY","CZ","DK","DO","DE","EC","EE","SV","FI","FR","GR","GT","HN","HK","HU","IS","IE","IT","LV","LT","LU","MY","MT","MX","NL","NZ","NI","NO","PA","PY","PE","PH","PL","PT","SG","SK","ES","SE","CH","TW","TR","UY","US","GB","AD","LI","MC","ID","JP","TH","VN","RO","IL","ZA","SA","AE","BH","QA","OM","KW","EG","MA","DZ","TN","LB","JO","PS","IN","BY","KZ","MD","UA","AL","BA","HR","ME","MK","RS","SI","KR","BD","PK","LK","GH","KE","NG","TZ","UG","AG","AM","BS","BB","BZ","BT","BW","BF","CV","CW","DM","FJ","GM","GE","GD","GW","GY","HT","JM","KI","LS","LR","MW","MV","ML","MH","FM","NA","NR","NE","PW","PG","PR","WS","SM","ST","SN","SC","SL","SB","KN","LC","VC","SR","TL","TO","TT","TV","VU","AZ","BN","BI","KH","CM","TD","KM","GQ","SZ","GA","GN","KG","LA","MO","MR","MN","NP","RW","TG","UZ","ZW","BJ","MG","MU","MZ","AO","CI","DJ","ZM","CD","CG","IQ","LY","TJ","VE","ET","XK"],"external_urls":{"spotify":"https://open.spotify.com/album/5SKnXCvB4fcGSZu32o3LRY"},"href":"https://api.spotify.com/v1/albums/5SKnXCvB4fcGSZu32o3LRY","id":"5SKnXCvB4fcGSZu32o3LRY","images":[{"height":640,"width":640,"url":"https://i.scdn.co/image/ab67616d0000b273e4251cf5331ad74eaaeca36e"},{"height":300,"width":300,"url":"https://i.scdn.co/image/ab67616d00001e02e4251cf5331ad74eaaeca36e"},{"height":64,"width":64,"url":"https://i.scdn.co/image/ab67616d00004851e4251cf5331ad74eaaeca36e"}],"is_playable":true,"name":"Faces","release_date":"2021-10-15","release_date_precision":"day","total_tracks":25,"type":"album","uri":"spotify:album:5SKnXCvB4fcGSZu32o3LRY"},"artists":[{"external_urls":{"spotify":"https://open.spotify.com/artist/4LLpKhyESsyAXpc4laK94U"},"href":"https://api.spotify.com/v1/artists/4LLpKhyESsyAXpc4laK94U","id":"4LLpKhyESsyAXpc4laK94U","name":"Mac Miller","type":"artist","uri":"spotify:artist:4LLpKhyESsyAXpc4laK94U"},{"external_urls":{"spotify":"https://open.spotify.com/artist/5IcR3N7QB1j6KBL8eImZ8m"},"href":"https://api.spotify.com/v1/artists/5IcR3N7QB1j6KBL8eImZ8m","id":"5IcR3N7QB1j6KBL8eImZ8m","name":"ScHoolboy Q","type":"artist","uri":"spotify:artist:5IcR3N7QB1j6KBL8eImZ8m"}],"available_markets":["AR","AU","AT","BE","BO","BR","BG","CA","CL","CO","CR","CY","CZ","DK","DO","DE","EC","EE","SV","FI","FR","GR","GT","HN","HK","HU","IS","IE","IT","LV","LT","LU","MY","MT","MX","NL","NZ","NI","NO","PA","PY","PE","PH","PL","PT","SG","SK","ES","SE","CH","TW","TR","UY","US","GB","AD","LI","MC","ID","JP","TH","VN","RO","IL","ZA","SA","AE","BH","QA","OM","KW","EG","MA","DZ","TN","LB","JO","PS","IN","BY","KZ","MD","UA","AL","BA","HR","ME","MK","RS","SI","KR","BD","PK","LK","GH","KE","NG","TZ","UG","AG","AM","BS","BB","BZ","BT","BW","BF","CV","CW","DM","FJ","GM","GE","GD","GW","GY","HT","JM","KI","LS","LR","MW","MV","ML","MH","FM","NA","NR","NE","PW","PG","PR","WS","SM","ST","SN","SC","SL","SB","KN","LC","VC","SR","TL","TO","TT","TV","VU","AZ","BN","BI","KH","CM","TD","KM","GQ","SZ","GA","GN","KG","LA","MO","MR","MN","NP","RW","TG","UZ","ZW","BJ","MG","MU","MZ","AO","CI","DJ","ZM","CD","CG","IQ","LY","TJ","VE","ET","XK"],"disc_number":1,"duration_ms":398454,"explicit":false,"external_ids":{"isrc":"USWB12103312"},"external_urls":{"spotify":"https://open.spotify.com/track/4CLf6A64qIzDHoP5lOonsP"},"href":"https://api.spotify.com/v1/tracks/4CLf6A64qIzDHoP5lOonsP","id":"4CLf6A64qIzDHoP5lOonsP","is_local":false,"is_playable":true,"name":"Friends (feat. ScHoolboy Q)","popularity":49,"preview_url":null,"track_number":3,"type":"track","uri":"spotify:track:4CLf6A64qIzDHoP5lOonsP"},{"album":{"album_type":"album","artists":[{"external_urls":{"spotify":"https://open.spotify.com/artist/7giUHu5pv6YTZgSkxxCcgh"},"href":"https://api.spotify.com/v1/artists/7giUHu5pv6YTZgSkxxCcgh","id":"7giUHu5pv6YTZgSkxxCcgh","name":"Edward Sharpe & The Magnetic Zeros","type":"artist","uri":"spotify:artist:7giUHu5pv6YTZgSkxxCcgh"}],"available_markets":["AR","AU","AT","BE","BO","BR","BG","CA","CL","CO","CR","CY","CZ","DK","DO","DE","EC","EE","SV","FI","FR","GR","GT","HN","HK","HU","IS","IE","IT","LV","LT","LU","MY","MT","MX","NL","NZ","NI","NO","PA","PY","PE","PH","PL","PT","SG","SK","ES","SE","CH","TW","TR","UY","US","GB","AD","LI","MC","ID","JP","TH","VN","RO","IL","ZA","SA","AE","BH","QA","OM","KW","EG","MA","DZ","TN","LB","JO","PS","IN","BY","KZ","MD","UA","AL","BA","HR","ME","MK","RS","SI","KR","BD","PK","LK","GH","KE","NG","TZ","UG","AG","AM","BS","BB","BZ","BT","BW","BF","CV","CW","DM","FJ","GM","GE","GD","GW","GY","HT","JM","KI","LS","LR","MW","MV","ML","MH","FM","NA","NR","NE","PW","PG","PR","WS","SM","ST","SN","SC","SL","SB","KN","LC","VC","SR","TL","TO","TT","TV","VU","AZ","BN","BI","KH","CM","TD","KM","GQ","SZ","GA","GN","KG","LA","MO","MR","MN","NP","RW","TG","UZ","ZW","BJ","MG","MU","MZ","AO","CI","DJ","ZM","CD","CG","IQ","LY","TJ","VE","ET","XK"],"external_urls":{"spotify":"https://open.spotify.com/album/6O1fjOpSZ3TvDgpxIXg9ZV"},"href":"https://api.spotify.com/v1/albums/6O1fjOpSZ3TvDgpxIXg9ZV","id":"6O1fjOpSZ3TvDgpxIXg9ZV","images":[{"height":640,"width":640,"url":"https://i.scdn.co/image/ab67616d0000b273b135a1451936b0d93cd8c988"},{"height":300,"width":300,"url":"https://i.scdn.co/image/ab67616d00001e02b135a1451936b0d93cd8c988"},{"height":64,"width":64,"url":"https://i.scdn.co/image/ab67616d00004851b135a1451936b0d93cd8c988"}],"is_playable":true,"name":"Up From Below - 10th Anniversary Edition","release_date":"2009-07-07","release_date_precision":"day","total_tracks":13,"type":"album","uri":"spotify:album:6O1fjOpSZ3TvDgpxIXg9ZV"},"artists":[{"external_urls":{"spotify":"https://open.spotify.com/artist/7giUHu5pv6YTZgSkxxCcgh"},"href":"https://api.spotify.com/v1/artists/7giUHu5pv6YTZgSkxxCcgh","id":"7giUHu5pv6YTZgSkxxCcgh","name":"Edward Sharpe & The Magnetic Zeros","type":"artist","uri":"spotify:artist:7giUHu5pv6YTZgSkxxCcgh"}],"available_markets":["AR","AU","AT","BE","BO","BR","BG","CA","CL","CO","CR","CY","CZ","DK","DO","DE","EC","EE","SV","FI","FR","GR","GT","HN","HK","HU","IS","IE","IT","LV","LT","LU","MY","MT","MX","NL","NZ","NI","NO","PA","PY","PE","PH","PL","PT","SG","SK","ES","SE","CH","TW","TR","UY","US","GB","AD","LI","MC","ID","JP","TH","VN","RO","IL","ZA","SA","AE","BH","QA","OM","KW","EG","MA","DZ","TN","LB","JO","PS","IN","BY","KZ","MD","UA","AL","BA","HR","ME","MK","RS","SI","KR","BD","PK","LK","GH","KE","NG","TZ","UG","AG","AM","BS","BB","BZ","BT","BW","BF","CV","CW","DM","FJ","GM","GE","GD","GW","GY","HT","JM","KI","LS","LR","MW","MV","ML","MH","FM","NA","NR","NE","PW","PG","PR","WS","SM","ST","SN","SC","SL","SB","KN","LC","VC","SR","TL","TO","TT","TV","VU","AZ","BN","BI","KH","CM","TD","KM","GQ","SZ","GA","GN","KG","LA","MO","MR","MN","NP","RW","TG","UZ","ZW","BJ","MG","MU","MZ","AO","CI","DJ","ZM","CD","CG","IQ","LY","TJ","VE","ET","XK"],"disc_number":1,"duration_ms":306373,"explicit":false,"external_ids":{"isrc":"QMRSZ1901643"},"external_urls":{"spotify":"https://open.spotify.com/track/5m1x4QRgaKmK8cTkZQjGRr"},"href":"https://api.spotify.com/v1/tracks/5m1x4QRgaKmK8cTkZQjGRr","id":"5m1x4QRgaKmK8cTkZQjGRr","is_local":false,"is_playable":true,"name":"Home - 2019 Remaster","popularity":78,"preview_url":null,"track_number":6,"type":"track","uri":"spotify:track:5m1x4QRgaKmK8cTkZQjGRr"}]}}