{"tracks":{"href":"https://api.spotify.com/v1/search?offset=0&limit=2&query=Empire%20of%20the%20Sun%20Walking%20on%20a%20Dream&type=track","limit":2,"next":"https://api.spotify.com/v1/search?offset=2&limit=2&query=Empire%20of%20the%20Sun%20Walking%20on%20a%20Dream&type=track","offset":0,"previous":null,"total":4,"items":[{"album":{"album_type":"album","artists":[{"external_urls":{"spotify":"https://open.spotify.com/artist/67hb7towEyKvt5Z8Bx306c"},"href":"https://api.spotify.com/v1/artists/67hb7towEyKvt5Z8Bx306c","id":"67hb7towEyKvt5Z8Bx306c","name":"Empire Of The Sun","type":"artist","uri":"spotify:artist:67hb7towEyKvt5Z8Bx306c"}],"available_markets":["AR","AU","AT","BE","BO","BR","BG","CA","CL","CO","CR","CY","CZ","DK","DO","DE","EC","EE","SV","FI","FR","GR","GT","HN","HK","HU","IS","IE","IT","LV","LT","LU","MY","MT","MX","NL","NZ","NI","NO","PA","PY","PE","PH","PL","PT","SG","SK","ES","SE","CH","TW","TR","UY","US","GB","AD","LI","MC","ID","JP","TH","VN","RO","IL","ZA","SA","AE","BH","QA","OM","KW","EG","MA","DZ","TN","LB","JO","PS","IN","BY","KZ","MD","UA","AL","BA","HR","ME","MK","RS","SI","KR","BD","PK","LK","GH","KE","NG","TZ","UG","AG","AM","BS","BB","BZ","BT","BW","BF","CV","CW","DM","FJ","GM","GE","GD","GW","GY","HT","JM","KI","LS","LR","MW","MV","ML","MH","FM","NA","NR","NE","PW","PG","WS","SM","ST","SN","SC","SL","SB","KN","LC","VC","SR","TL","TO","TT","TV","VU","AZ","BN","BI","KH","CM","TD","KM","GQ","SZ","GA","GN","KG","LA","MO","MR","MN","NP","RW","TG","UZ","ZW","BJ","MG","MU","MZ","AO","CI","DJ","ZM","CD","CG","IQ","LY","TJ","VE","ET","XK"],"external_urls":{"spotify":"https://open.spotify.com/album/5B6XfyHHYawyLkEvNvhSPh"},"href":"https://api.spotify.com/v1/albums/5B6XfyHHYawyLkEvNvhSPh","id":"5B6XfyHHYawyLkEvNvhSPh","images":[{"height":640,"width":640,"url":"https://i.scdn.co/image/ab67616d0000b273f3aa0e6ca22a382007f61e4d"},{"height":300,"width":300,"url":"https://i.scdn.co/image/ab67616d00001e02f3aa0e6ca22a382007f61e4d"},{"height":64,"width":64,"url":"https://i.scdn.co/image/ab67616d00004851f3aa0e6ca22a382007f61e4d"}],"is_playable":true,"name":"Walking On A Dream (10th Anniversary Edition)","release_date":"2008-10-03","release_date_precision":"day","total_tracks":16,"type":"album","uri":"spotify:album:5B6XfyHHYawyLkEvNvhSPh"},"artists":[{"external_urls":{"spotify":"https://open.spotify.com/artist/67hb7towEyKvt5Z8Bx306c"},"href":"https://api.spotify.com/v1/artists/67hb7towEyKvt5Z8Bx306c","id":"67hb7towEyKvt5Z8Bx306c","name":"Empire Of The Sun","type":"artist","uri":"spotify:artist:67hb7towEyKvt5Z8Bx306c"}],"available_markets":["AR","AU","AT","BE","BO","BR","BG","CA","CL","CO","CR","CY","CZ","DK","DO","DE","EC","EE","SV","FI","FR","GR","GT","HN","HK","HU","IS","IE","IT","LV","LT","LU","MY","MT","MX","NL","NZ","NI","NO","PA","PY","PE","PH","PL","PT","SG","SK","ES","SE","CH","TW","TR","UY","US","GB","AD","LI","MC","ID","JP","TH","VN","RO","IL","ZA","SA","AE","BH","QA","OM","KW","EG","MA","DZ","TN","LB","JO","PS","IN","BY","KZ","MD","UA","AL","BA","HR","ME","MK","RS","SI","KR","BD","PK","LK","GH","KE","NG","TZ","UG","AG","AM","BS","BB","BZ","BT","BW","BF","CV","CW","DM","FJ","GM","GE","GD","GW","GY","HT","JM","KI","LS","LR","MW","MV","ML","MH","FM","NA","NR","NE","PW","PG","WS","SM","ST","SN","SC","SL","SB","KN","LC","VC","SR","TL","TO","TT","TV","VU","AZ","BN","BI","KH","CM","TD","KM","GQ","SZ","GA","GN","KG","LA","MO","MR","MN","NP","RW","TG","UZ","ZW","BJ","MG","MU","MZ","AO","CI","DJ","ZM","CD","CG","IQ","LY","TJ","VE","ET","XK"],"disc_number":1,"duration_ms":198440,"explicit":false,"external_ids":{"isrc":"AUEI10800039"},"external_urls":{"spotify":"https://open.spotify.com/track/5r5cp9IpziiIsR6b93vcnQ"},"href":"https://api.spotify.com/v1/tracks/5r5cp9IpziiIsR6b93vcnQ","id":"5r5cp9IpziiIsR6b93vcnQ","is_local":false,"is_playable":true,"name":"Walking On A Dream","popularity":86,"preview_url":null,"track_number":2,"type":"track","uri":"spotify:track:5r5cp9IpziiIsR6b93vcnQ"},{"album":{"album_type":"compilation","artists":[{"external_urls":{"spotify":"https://open.spotify.com/artist/0LyfQWJT6nXafLPZqxe9Of"},"href":"https://api.spotify.com/v1/artists/0LyfQWJT6nXafLPZqxe9Of","id":"0LyfQWJT6nXafLPZqxe9Of","name":"Various Artists","type":"artist","uri":"spotify:artist:0LyfQWJT6nXafLPZqxe9Of"}],"available_markets":["AR","AU","AT","BO","BR","BG","CA","CL","CO","CR","CY","CZ","DK","DO","DE","EC","EE","SV","FI","FR","GR","GT","HN","HK","HU","IS","IE","IT","LV","LT","MY","MT","MX","NZ","NI","NO","PA","PY","PE","PH","PL","PT","SG","SK","ES","SE","CH","TW","TR","UY","US","GB","AD","LI","MC","ID","TH","VN","RO","IL","ZA","IN","KZ","MD","UA","AL","BA","HR","ME","MK","RS","SI","KR","BD","PK","LK","GH","KE","NG","TZ","UG","AM","BZ","BT","BW","CV","DM","GM","GW","GY","HT","KI","LS","LR","MW","MV","ML","MH","FM","NA","NR","NE","PW","WS","ST","SN","SC","SL","SB","SR","TL","TO","TV","BN","BI","KH","CM","TD","KM","GQ","SZ","GA","GN","KG","LA","MO","MR","MN","NP","RW","TG","UZ","ZW","BJ","MG","MU","MZ","AO","CI","DJ","ZM","CD","CG","TJ","VE","XK"],"external_urls":{"spotify":"https://open.spotify.com/album/70HJwQd3Z1pZ1DdrfPJ1rE"},"href":"https://api.spotify.com/v1/albums/70HJwQd3Z1pZ1DdrfPJ1rE","id":"70HJwQd3Z1pZ1DdrfPJ1rE","images":[{"height":640,"width":640,"url":"https://i.scdn.co/image/ab67616d0000b2735c8584b9994c5fd060c74ce6"},{"height":300,"width":300,"url":"https://i.scdn.co/image/ab67616d00001e025c8584b9994c5fd060c74ce6"},{"height":64,"width":64,"url":"https://i.scdn.co/image/ab67616d000048515c8584b9994c5fd060c74ce6"}],"is_playable":true,"name":"Ski Season 2026","release_date":"2026-02-06","release_date_precision":"day","total_tracks":39,"type":"album","uri":"spotify:album:70HJwQd3Z1pZ1DdrfPJ1rE"},"artists":[{"external_urls":{"spotify":"https://open.spotify.com/artist/67hb7towEyKvt5Z8Bx306c"},"href":"https://api.spotify.com/v1/artists/67hb7towEyKvt5Z8Bx306c","id":"67hb7towEyKvt5Z8Bx306c","name":"Empire Of The Sun","type":"artist","uri":"spotify:artist:67hb7towEyKvt5Z8Bx306c"}],"available_markets":["AR","AU","AT","BO","BR","BG","CA","CL","CO","CR","CY","CZ","DK","DO","DE","EC","EE","SV","FI","FR","GR","GT","HN","HK","HU","IS","IE","IT","LV","LT","MY","MT","MX","NZ","NI","NO","PA","PY","PE","PH","PL","PT","SG","SK","ES","SE","CH","TW","TR","UY","US","GB","AD","LI","MC","ID","TH","VN","RO","IL","ZA","IN","KZ","MD","UA","AL","BA","HR","ME","MK","RS","SI","KR","BD","PK","LK","GH","KE","NG","TZ","UG","AM","BZ","BT","BW","CV","DM","GM","GW","GY","HT","KI","LS","LR","MW","MV","ML","MH","FM","NA","NR","NE","PW","WS","ST","SN","SC","SL","SB","SR","TL","TO","TV","BN","BI","KH","CM","TD","KM","GQ","SZ","GA","GN","KG","LA","MO","MR","MN","NP","RW","TG","UZ","ZW","BJ","MG","MU","MZ","AO","CI","DJ","ZM","CD","CG","TJ","VE","XK"],"disc_number":1,"duration_ms":198440,"explicit":false,"external_ids":{"isrc":"AUEI10800039"},"external_urls":{"spotify":"https://open.spotify.com/track/6oXjgGjfqyqGDNVQO9sb4G"},"href":"https://api.spotify.com/v1/tracks/6oXjgGjfqyqGDNVQO9sb4G","id":"6oXjgGjfqyqGDNVQO9sb4G","is_local":false,"is_playable":true,"name":"Walking On A Dream","popularity":0,"preview_url":null,"track_number":37,"type":"track","uri":"spotify:track:6oXjgGjfqyqGDNVQO9sb4G"}]}}