{"tracks":{"href":"https://api.spotify.com/v1/search?offset=0&limit=2&query=Florence%20Machine%20Kiss%20with%20a%20Fist&type=track","limit":2,"next":"https://api.spotify.com/v1/search?offset=2&limit=2&query=Florence%20Machine%20Kiss%20with%20a%20Fist&type=track","offset":0,"previous":null,"total":5,"items":[{"album":{"album_type":"album","artists":[{"external_urls":{"spotify":"https://open.spotify.com/artist/1moxjboGR7GNWYIMWsRjgG"},"href":"https://api.spotify.com/v1/artists/1moxjboGR7GNWYIMWsRjgG","id":"1moxjboGR7GNWYIMWsRjgG","name":"Florence + The Machine","type":"artist","uri":"spotify:artist:1moxjboGR7GNWYIMWsRjgG"}],"available_markets":["AR","AU","AT","BE","BO","BR","BG","CA","CL","CO","CR","CY","CZ","DK","DO","DE","EC","EE","SV","FI","GR","GT","HN","HK","HU","IS","IE","IT","LV","LT","LU","MY","MT","MX","NL","NZ","NI","NO","PA","PY","PE","PH","PL","PT","SG","SK","ES","SE","CH","TW","TR","UY","GB","AD","LI","MC","ID","JP","TH","VN","RO","IL","ZA","SA","AE","BH","QA","OM","KW","EG","MA","DZ","TN","LB","JO","PS","IN","BY","KZ","MD","UA","AL","BA","HR","ME","MK","RS","SI","KR","BD","PK","LK","GH","KE","NG","TZ","UG","AG","AM","BS","BB","BZ","BT","BW","BF","CV","CW","DM","FJ","GM","GE","GD","GW","GY","HT","JM","KI","LS","LR","MW","MV","ML","MH","FM","NA","NR","NE","PW","PG","WS","SM","ST","SN","SC","SL","SB","KN","LC","VC","SR","TL","TO","TT","TV","VU","AZ","BN","BI","KH","CM","TD","KM","GQ","SZ","GA","GN","KG","LA","MO","MR","MN","NP","RW","TG","UZ","ZW","BJ","MG","MU","MZ","AO","CI","DJ","ZM","CD","CG","IQ","LY","TJ","VE","ET","XK"],"external_urls":{"spotify":"https://open.spotify.com/album/3nr57SI49M8brif4qnXgD6"},"href":"https://api.spotify.com/v1/albums/3nr57SI49M8brif4qnXgD6","id":"3nr57SI49M8brif4qnXgD6","images":[{"height":640,"width":640,"url":"https://i.scdn.co/image/ab67616d0000b2730adf28d5d4441574162b2772"},{"height":300,"width":300,"url":"https://i.scdn.co/image/ab67616d00001e020adf28d5d4441574162b2772"},{"height":64,"width":64,"url":"https://i.scdn.co/image/ab67616d000048510adf28d5d4441574162b2772"}],"is_playable":true,"name":"Lungs (International Version)","release_date":"2009-01-01","release_date_precision":"day","total_tracks":14,"type":"album","uri":"spotify:album:3nr57SI49M8brif4qnXgD6"},"artists":[{"external_urls":{"spotify":"https://open.spotify.com/artist/1moxjboGR7GNWYIMWsRjgG"},"href":"https://api.spotify.com/v1/artists/1moxjboGR7GNWYIMWsRjgG","id":"1moxjboGR7GNWYIMWsRjgG","name":"Florence + The Machine","type":"artist","uri":"spotify:artist:1moxjboGR7GNWYIMWsRjgG"}],"available_markets":["AR","AU","BE","BO","BR","BG","CA","CL","CO","CR","CY","CZ","DO","DE","EC","EE","SV","FI","GR","GT","HN","HK","HU","IS","IT","LV","LT","LU","MY","MT","MX","NL","NI","PA","PY","PE","PH","PL","PT","SG","SK","ES","SE","CH","TW","TR","UY","GB","AD","LI","MC","JP","TH","VN","RO","IL","ZA","SA","AE","BH","QA","OM","KW","EG","MA","DZ","TN","LB","JO","PS","IN","BY","KZ","MD","UA","AL","BA","HR","ME","MK","RS","SI","KR","BD","PK","LK","GH","KE","NG","TZ","UG","AG","AM","BS","BB","BZ","BT","BW","BF","CV","CW","DM","FJ","GM","GE","GD","GW","GY","HT","JM","KI","LS","LR","MW","MV","ML","MH","FM","NA","NR","NE","PW","PG","WS","SM","ST","SN","SC","SL","SB","KN","LC","VC","SR","TL","TO","TT","TV","VU","AZ","BN","BI","KH","CM","TD","KM","GQ","SZ","GA","GN","KG","LA","MO","MR","MN","NP","RW","TG","UZ","ZW","BJ","MG","MU","MZ","AO","CI","DJ","ZM","CD","CG","IQ","LY","TJ","VE","ET","XK"],"disc_number":1,"duration_ms":124240,"explicit":false,"external_ids":{"isrc":"GBGEY0800062"},"external_urls":{"spotify":"https://open.spotify.com/track/0K5I39R4ehtSCBDLktWyNY"},"href":"https://api.spotify.com/v1/tracks/0K5I39R4ehtSCBDLktWyNY","id":"0K5I39R4ehtSCBDLktWyNY","is_local":false,"is_playable":true,"name":"Kiss With A Fist","popularity":31,"preview_url":null,"track_number":5,"type":"track","uri":"spotify:track:0K5I39R4ehtSCBDLktWyNY"},{"album":{"album_type":"album","artists":[{"external_urls":{"spotify":"https://open.spotify.com/artist/1moxjboGR7GNWYIMWsRjgG"},"href":"https://api.spotify.com/v1/artists/1moxjboGR7GNWYIMWsRjgG","id":"1moxjboGR7GNWYIMWsRjgG","name":"Florence + The Machine","type":"artist","uri":"spotify:artist:1moxjboGR7GNWYIMWsRjgG"}],"available_markets":["AR","AU","AT","BE","BO","BR","BG","CA","CL","CO","CR","CY","CZ","DK","DO","DE","EC","EE","SV","FI","FR","GR","GT","HN","HK","HU","IS","IE","IT","LV","LT","LU","MY","MT","MX","NL","NZ","NI","NO","PA","PY","PE","PH","PL","PT","SG","SK","ES","SE","CH","TW","TR","UY","US","GB","AD","LI","MC","ID","JP","TH","VN","RO","IL","ZA","SA","AE","BH","QA","OM","KW","EG","MA","DZ","TN","LB","JO","PS","IN","BY","KZ","MD","UA","AL","BA","HR","ME","MK","RS","SI","KR","BD","PK","LK","GH","KE","NG","TZ","UG","AG","AM","BS","BB","BZ","BT","BW","BF","CV","CW","DM","FJ","GM","GE","GD","GW","GY","HT","JM","KI","LS","LR","MW","MV","ML","MH","FM","NA","NR","NE","PW","PG","WS","SM","ST","SN","SC","SL","SB","KN","LC","VC","SR","TL","TO","TT","TV","VU","AZ","BN","BI","KH","CM","TD","KM","GQ","SZ","GA","GN","KG","LA","MO","MR","MN","NP","RW","TG","UZ","ZW","BJ","MG","MU","MZ","AO","CI","DJ","ZM","CD","CG","IQ","LY","TJ","VE","ET","XK"],"external_urls":{"spotify":"https://open.spotify.com/album/58nHLzYWPr0YhsECvy7Ihw"},"href":"https://api.spotify.com/v1/albums/58nHLzYWPr0YhsECvy7Ihw","id":"58nHLzYWPr0YhsECvy7Ihw","images":[{"height":640,"width":640,"url":"https://i.scdn.co/image/ab67616d0000b27399daa3b1fc7539c7caade270"},{"height":300,"width":300,"url":"https://i.scdn.co/image/ab67616d00001e0299daa3b1fc7539c7caade270"},{"height":64,"width":64,"url":"https://i.scdn.co/image/ab67616d0000485199daa3b1fc7539c7caade270"}],"is_playable":true,"name":"Lungs (10th Anniversary Edition)","release_date":"2009-07-03","release_date_precision":"day","total_tracks":24,"type":"album","uri":"spotify:album:58nHLzYWPr0YhsECvy7Ihw"},"artists":[{"external_urls":{"spotify":"https://open.spotify.com/artist/1moxjboGR7GNWYIMWsRjgG"},"href":"https://api.spotify.com/v1/artists/1moxjboGR7GNWYIMWsRjgG","id":"1moxjboGR7GNWYIMWsRjgG","name":"Florence + The Machine","type":"artist","uri":"spotify:artist:1moxjboGR7GNWYIMWsRjgG"}],"available_markets":["AR","AU","AT","BE","BO","BR","BG","CA","CL","CO","CR","CY","CZ","DK","DO","DE","EC","EE","SV","FI","FR","GR","GT","HN","HK","HU","IS","IE","IT","LV","LT","LU","MY","MT","MX","NL","NZ","NI","NO","PA","PY","PE","PH","PL","PT","SG","SK","ES","SE","CH","TW","TR","UY","US","GB","AD","LI","MC","ID","JP","TH","VN","RO","IL","ZA","SA","AE","BH","QA","OM","KW","EG","MA","DZ","TN","LB","JO","PS","IN","BY","KZ","MD","UA","AL","BA","HR","ME","MK","RS","SI","KR","BD","PK","LK","GH","KE","NG","TZ","UG","AG","AM","BS","BB","BZ","BT","BW","BF","CV","CW","DM","FJ","GM","GE","GD","GW","GY","HT","JM","KI","LS","LR","MW","MV","ML","MH","FM","NA","NR","NE","PW","PG","WS","SM","ST","SN","SC","SL","SB","KN","LC","VC","SR","TL","TO","TT","TV","VU","AZ","BN","BI","KH","CM","TD","KM","GQ","SZ","GA","GN","KG","LA","MO","MR","MN","NP","RW","TG","UZ","ZW","BJ","MG","MU","MZ","AO","CI","DJ","ZM","CD","CG","IQ","LY","TJ","VE","ET","XK"],"disc_number":1,"duration_ms":123186,"explicit":false,"external_ids":{"isrc":"GBGEY0800062"},"external_urls":{"spotify":"https://open.spotify.com/track/7nMIRoqcYE4Uc0AurRdolx"},"href":"https://api.spotify.com/v1/tracks/7nMIRoqcYE4Uc0AurRdolx","id":"7nMIRoqcYE4Uc0AurRdolx","is_local":false,"is_playable":true,"name":"Kiss With A Fist","popularity":41,"preview_url":null,"track_number":5,"type":"track","uri":"spotify:track:7nMIRoqcYE4Uc0AurRdolx"}]}}