{"tracks":{"href":"https://api.spotify.com/v1/search?offset=0&limit=2&query=Jenny%20Lewis%20Acid%20Tongue&type=track","limit":2,"next":"https://api.spotify.com/v1/search?offset=2&limit=2&query=Jenny%20Lewis%20Acid%20Tongue&type=track","offset":0,"previous":null,"total":1000,"items":[{"album":{"album_type":"single","artists":[{"external_urls":{"spotify":"https://open.spotify.com/artist/0IS7u7kwgWE1qf4iCvV8hf"},"href":"https://api.spotify.com/v1/artists/0IS7u7kwgWE1qf4iCvV8hf","id":"0IS7u7kwgWE1qf4iCvV8hf","name":"Adam Kane","type":"artist","uri":"spotify:artist:0IS7u7kwgWE1qf4iCvV8hf"}],"available_markets":["AR","AU","AT","BE","BO","BR","BG","CA","CL","CO","CR","CY","CZ","DK","DO","DE","EC","EE","SV","FI","FR","GR","GT","HN","HK","HU","IS","IE","IT","LV","LT","LU","MY","MT","MX","NL","NZ","NI","NO","PA","PY","PE","PH","PL","PT","SG","SK","ES","SE","CH","TW","TR","UY","US","GB","AD","LI","MC","ID","JP","TH","VN","RO","IL","ZA","SA","AE","BH","QA","OM","KW","EG","MA","DZ","TN","LB","JO","PS","IN","BY","KZ","MD","UA","AL","BA","HR","ME","MK","RS","SI","KR","BD","PK","LK","GH","KE","NG","TZ","UG","AG","AM","BS","BB","BZ","BT","BW","BF","CV","CW","DM","FJ","GM","GE","GD","GW","GY","HT","JM","KI","LS","LR","MW","MV","ML","MH","FM","NA","NR","NE","PW","PG","PR","WS","SM","ST","SN","SC","SL","SB","KN","LC","VC","SR","TL","TO","TT","TV","VU","AZ","BN","BI","KH","CM","TD","KM","GQ","SZ","GA","GN","KG","LA","MO","MR","MN","NP","RW","TG","UZ","ZW","BJ","MG","MU","MZ","AO","CI","DJ","ZM","CD","CG","IQ","LY","TJ","VE","ET","XK"],"external_urls":{"spotify":"https://open.spotify.com/album/6X7vLj2mAA2zTkAyBo0ZCF"},"href":"https://api.spotify.com/v1/albums/6X7vLj2mAA2zTkAyBo0ZCF","id":"6X7vLj2mAA2zTkAyBo0ZCF","images":[{"height":640,"width":640,"url":"https://i.scdn.co/image/ab67616d0000b273460b9306adbfaa8b8353d511"},{"height":300,"width":300,"url":"https://i.scdn.co/image/ab67616d00001e02460b9306adbfaa8b8353d511"},{"height":64,"width":64,"url":"https://i.scdn.co/image/ab67616d00004851460b9306adbfaa8b8353d511"}],"is_playable":true,"name":"Amelia Bedelia","release_date":"2020-02-07","release_date_precision":"day","total_tracks":1,"type":"album","uri":"spotify:album:6X7vLj2mAA2zTkAyBo0ZCF"},"artists":[{"external_urls":{"spotify":"https://open.spotify.com/artist/0IS7u7kwgWE1qf4iCvV8hf"},"href":"https://api.spotify.com/v1/artists/0IS7u7kwgWE1qf4iCvV8hf","id":"0IS7u7kwgWE1qf4iCvV8hf","name":"Adam Kane","type":"artist","uri":"spotify:artist:0IS7u7kwgWE1qf4iCvV8hf"}],"available_markets":["AR","AU","AT","BE","BO","BR","BG","CA","CL","CO","CR","CY","CZ","DK","DO","DE","EC","EE","SV","FI","FR","GR","GT","HN","HK","HU","IS","IE","IT","LV","LT","LU","MY","MT","MX","NL","NZ","NI","NO","PA","PY","PE","PH","PL","PT","SG","SK","ES","SE","CH","TW","TR","UY","US","GB","AD","LI","MC","ID","JP","TH","VN","RO","IL","ZA","SA","AE","BH","QA","OM","KW","EG","MA","DZ","TN","LB","JO","PS","IN","BY","KZ","MD","UA","AL","BA","HR","ME","MK","RS","SI","KR","BD","PK","LK","GH","KE","NG","TZ","UG","AG","AM","BS","BB","BZ","BT","BW","BF","CV","CW","DM","FJ","GM","GE","GD","GW","GY","HT","JM","KI","LS","LR","MW","MV","ML","MH","FM","NA","NR","NE","PW","PG","PR","WS","SM","ST","SN","SC","SL","SB","KN","LC","VC","SR","TL","TO","TT","TV","VU","AZ","BN","BI","KH","CM","TD","KM","GQ","SZ","GA","GN","KG","LA","MO","MR","MN","NP","RW","TG","UZ","ZW","BJ","MG","MU","MZ","AO","CI","DJ","ZM","CD","CG","IQ","LY","TJ","VE","ET","XK"],"disc_number":1,"duration_ms":138206,"explicit":false,"external_ids":{"isrc":"QZFYZ2051362"},"external_urls":{"spotify":"https://open.spotify.com/track/0jUH5nQnCHDwKxxFGgFEcA"},"href":"https://api.spotify.com/v1/tracks/0jUH5nQnCHDwKxxFGgFEcA","id":"0jUH5nQnCHDwKxxFGgFEcA","is_local":false,"is_playable":true,"name":"Amelia Bedelia","popularity":0,"preview_url":null,"track_number":1,"type":"track","uri":"spotify:track:0jUH5nQnCHDwKxxFGgFEcA"},{"album":{"album_type":"album","artists":[{"external_urls":{"spotify":"https://open.spotify.com/artist/5cMVRrisBpDkXCVG48epED"},"href":"https://api.spotify.com/v1/artists/5cMVRrisBpDkXCVG48epED","id":"5cMVRrisBpDkXCVG48epED","name":"Jenny Lewis","type":"artist","uri":"spotify:artist:5cMVRrisBpDkXCVG48epED"}],"available_markets":["AR","AU","AT","BE","BO","BR","BG","CL","CO","CR","CY","CZ","DK","DO","DE","EC","EE","SV","FI","FR","GR","GT","HN","HK","HU","IS","IE","IT","LV","LT","LU","MY","MT","MX","NL","NZ","NI","NO","PA","PY","PE","PH","PL","PT","SG","SK","ES","SE","CH","TW","TR","UY","GB","AD","LI","MC","ID","JP","TH","VN","RO","IL","ZA","SA","AE","BH","QA","OM","KW","EG","MA","DZ","TN","LB","JO","PS","IN","BY","KZ","MD","UA","AL","BA","HR","ME","MK","RS","SI","KR","BD","PK","LK","GH","KE","NG","TZ","UG","AG","AM","BS","BB","BZ","BT","BW","BF","CV","CW","DM","FJ","GM","GE","GD","GW","GY","HT","JM","KI","LS","LR","MW","MV","ML","MH","FM","NA","NR","NE","PW","PG","WS","SM","ST","SN","SC","SL","SB","KN","LC","VC","SR","TL","TO","TT","TV","VU","AZ","BN","BI","KH","CM","TD","KM","GQ","SZ","GA","GN","KG","LA","MO","MR","MN","NP","RW","TG","UZ","ZW","BJ","MG","MU","MZ","AO","CI","DJ","ZM","CD","CG","IQ","LY","TJ","VE","ET","XK"],"external_urls":{"spotify":"https://open.spotify.com/album/0Fa2CKVyG2LO4LYVduNjCq"},"href":"https://api.spotify.com/v1/albums/0Fa2CKVyG2LO4LYVduNjCq","id":"0Fa2CKVyG2LO4LYVduNjCq","images":[{"height":640,"width":640,"url":"https://i.scdn.co/image/ab67616d0000b2736137160932910b3dc5880310"},{"height":300,"width":300,"url":"https://i.scdn.co/image/ab67616d00001e026137160932910b3dc5880310"},{"height":64,"width":64,"url":"https://i.scdn.co/image/ab67616d000048516137160932910b3dc5880310"}],"is_playable":true,"name":"Acid Tongue","release_date":"2008-09-22","release_date_precision":"day","total_tracks":11,"type":"album","uri":"spotify:album:0Fa2CKVyG2LO4LYVduNjCq"},"artists":[{"external_urls":{"spotify":"https://open.spotify.com/artist/5cMVRrisBpDkXCVG48epED"},"href":"https://api.spotify.com/v1/artists/5cMVRrisBpDkXCVG48epED","id":"5cMVRrisBpDkXCVG48epED","name":"Jenny Lewis","type":"artist","uri":"spotify:artist:5cMVRrisBpDkXCVG48epED"}],"available_markets":["AR","AU","AT","BE","BO","BR","BG","CL","CO","CR","CY","CZ","DK","DO","DE","EC","EE","SV","FI","FR","GR","GT","HN","HK","HU","IS","IE","IT","LV","LT","LU","MY","MT","MX","NL","NZ","NI","NO","PA","PY","PE","PH","PL","PT","SG","SK","ES","SE","CH","TW","TR","UY","GB","AD","LI","MC","ID","JP","TH","VN","RO","IL","ZA","SA","AE","BH","QA","OM","KW","EG","MA","DZ","TN","LB","JO","PS","IN","BY","KZ","MD","UA","AL","BA","HR","ME","MK","RS","SI","KR","BD","PK","LK","GH","KE","NG","TZ","UG","AG","AM","BS","BB","BZ","BT","BW","BF","CV","CW","DM","FJ","GM","GE","GD","GW","GY","HT","JM","KI","LS","LR","MW","MV","ML","MH","FM","NA","NR","NE","PW","PG","WS","SM","ST","SN","SC","SL","SB","KN","LC","VC","SR","TL","TO","TT","TV","VU","AZ","BN","BI","KH","CM","TD","KM","GQ","SZ","GA","GN","KG","LA","MO","MR","MN","NP","RW","TG","UZ","ZW","BJ","MG","MU","MZ","AO","CI","DJ","ZM","CD","CG","IQ","LY","TJ","VE","ET","XK"],"disc_number":1,"duration_ms":230106,"explicit":false,"external_ids":{"isrc":"USWB10805445"},"external_urls":{"spotify":"https://open.spotify.com/track/7xsCPNPm5RIJHMQHmIDrWs"},"href":"https://api.spotify.com/v1/tracks/7xsCPNPm5RIJHMQHmIDrWs","id":"7xsCPNPm5RIJHMQHmIDrWs","is_local":false,"is_playable":true,"name":"Acid Tongue","popularity":24,"preview_url":null,"track_number":5,"type":"track","uri":"spotify:track:7xsCPNPm5RIJHMQHmIDrWs"}]}}