{"tracks":{"href":"https://api.spotify.com/v1/search?offset=0&limit=2&query=Neutral%20Milk%20Hotel%20Everything%20Is&type=track","limit":2,"next":"https://api.spotify.com/v1/search?offset=2&limit=2&query=Neutral%20Milk%20Hotel%20Everything%20Is&type=track","offset":0,"previous":null,"total":1000,"items":[{"album":{"album_type":"single","artists":[{"external_urls":{"spotify":"https://open.spotify.com/artist/2ooIqOf4X2uz4mMptXCtie"},"href":"https://api.spotify.com/v1/artists/2ooIqOf4X2uz4mMptXCtie","id":"2ooIqOf4X2uz4mMptXCtie","name":"Neutral Milk Hotel","type":"artist","uri":"spotify:artist:2ooIqOf4X2uz4mMptXCtie"}],"available_markets":["AR","AU","AT","BE","BO","BR","BG","CA","CL","CO","CR","CY","CZ","DK","DO","DE","EC","EE","SV","FI","FR","GR","GT","HN","HK","HU","IS","IE","IT","LV","LT","LU","MY","MT","MX","NL","NZ","NI","NO","PA","PY","PE","PH","PL","PT","SG","SK","ES","SE","CH","TW","TR","UY","US","GB","AD","LI","MC","ID","JP","TH","VN","RO","IL","ZA","SA","AE","BH","QA","OM","KW","EG","MA","DZ","TN","LB","JO","PS","IN","BY","KZ","MD","UA","AL","BA","HR","ME","MK","RS","SI","KR","BD","PK","LK","GH","KE","NG","TZ","UG","AG","AM","BS","BB","BZ","BT","BW","BF","CV","CW","DM","FJ","GM","GE","GD","GW","GY","HT","JM","KI","LS","LR","MW","MV","ML","MH","FM","NA","NR","NE","PW","PG","PR","WS","SM","ST","SN","SC","SL","SB","KN","LC","VC","SR","TL","TO","TT","TV","VU","AZ","BN","BI","KH","CM","TD","KM","GQ","SZ","GA","GN","KG","LA","MO","MR","MN","NP","RW","TG","UZ","ZW","BJ","MG","MU","MZ","AO","CI","DJ","ZM","CD","CG","IQ","LY","TJ","VE","ET","XK"],"external_urls":{"spotify":"https://open.spotify.com/album/2xRTWeHNxSa2xa3MkkOCj8"},"href":"https://api.spotify.com/v1/albums/2xRTWeHNxSa2xa3MkkOCj8","id":"2xRTWeHNxSa2xa3MkkOCj8","images":[{"height":640,"width":640,"url":"https://i.scdn.co/image/ab67616d0000b273e4d87972b9d60b0ab0a50d5d"},{"height":300,"width":300,"url":"https://i.scdn.co/image/ab67616d00001e02e4d87972b9d60b0ab0a50d5d"},{"height":64,"width":64,"url":"https://i.scdn.co/image/ab67616d00004851e4d87972b9d60b0ab0a50d5d"}],"is_playable":true,"name":"Everything Is","release_date":"2023-02-01","release_date_precision":"day","total_tracks":7,"type":"album","uri":"spotify:album:2xRTWeHNxSa2xa3MkkOCj8"},"artists":[{"external_urls":{"spotify":"https://open.spotify.com/artist/2ooIqOf4X2uz4mMptXCtie"},"href":"https://api.spotify.com/v1/artists/2ooIqOf4X2uz4mMptXCtie","id":"2ooIqOf4X2uz4mMptXCtie","name":"Neutral Milk Hotel","type":"artist","uri":"spotify:artist:2ooIqOf4X2uz4mMptXCtie"}],"available_markets":["AR","AU","AT","BE","BO","BR","BG","CA","CL","CO","CR","CY","CZ","DK","DO","DE","EC","EE","SV","FI","FR","GR","GT","HN","HK","HU","IS","IE","IT","LV","LT","LU","MY","MT","MX","NL","NZ","NI","NO","PA","PY","PE","PH","PL","PT","SG","SK","ES","SE","CH","TW","TR","UY","US","GB","AD","LI","MC","ID","JP","TH","VN","RO","IL","ZA","SA","AE","BH","QA","OM","KW","EG","MA","DZ","TN","LB","JO","PS","IN","BY","KZ","MD","UA","AL","BA","HR","ME","MK","RS","SI","KR","BD","PK","LK","GH","KE","NG","TZ","UG","AG","AM","BS","BB","BZ","BT","BW","BF","CV","CW","DM","FJ","GM","GE","GD","GW","GY","HT","JM","KI","LS","LR","MW","MV","ML","MH","FM","NA","NR","NE","PW","PG","PR","WS","SM","ST","SN","SC","SL","SB","KN","LC","VC","SR","TL","TO","TT","TV","VU","AZ","BN","BI","KH","CM","TD","KM","GQ","SZ","GA","GN","KG","LA","MO","MR","MN","NP","RW","TG","UZ","ZW","BJ","MG","MU","MZ","AO","CI","DJ","ZM","CD","CG","IQ","LY","TJ","VE","ET","XK"],"disc_number":1,"duration_ms":212933,"explicit":false,"external_ids":{"isrc":"USMRG2377613"},"external_urls":{"spotify":"https://open.spotify.com/track/1ABWpWAnRWUepiWgZftn6p"},"href":"https://api.spotify.com/v1/tracks/1ABWpWAnRWUepiWgZftn6p","id":"1ABWpWAnRWUepiWgZftn6p","is_local":false,"is_playable":true,"name":"Everything Is","popularity":33,"preview_url":null,"track_number":1,"type":"track","uri":"spotify:track:1ABWpWAnRWUepiWgZftn6p"},{"album":{"album_type":"album","artists":[{"external_urls":{"spotify":"https://open.spotify.com/artist/3KtOvpYuKClAuYxJqdITm6"},"href":"https://api.spotify.com/v1/artists/3KtOvpYuKClAuYxJqdITm6","id":"3KtOvpYuKClAuYxJqdITm6","name":"Tullycraft","type":"artist","uri":"spotify:artist:3KtOvpYuKClAuYxJqdITm6"}],"available_markets":["AR","AU","AT","BE","BO","BR","BG","CA","CL","CO","CR","CY","CZ","DK","DO","DE","EC","EE","SV","FI","FR","GR","GT","HN","HK","HU","IS","IE","IT","LV","LT","LU","MY","MT","MX","NL","NZ","NI","NO","PA","PY","PE","PH","PL","PT","SG","SK","ES","SE","CH","TW","TR","UY","US","GB","AD","LI","MC","ID","TH","VN","RO","IL","ZA","SA","AE","BH","QA","OM","KW","EG","MA","DZ","TN","LB","JO","PS","IN","BY","KZ","MD","UA","AL","BA","HR","MK","SI","KR","BD","PK","LK","GH","KE","NG","TZ","UG","AG","AM","BS","BB","BZ","BT","BW","BF","CV","CW","DM","FJ","GM","GE","GD","GW","GY","HT","JM","KI","LS","LR","MW","MV","ML","MH","FM","NA","NR","NE","PW","PG","PR","WS","SM","ST","SN","SC","SL","SB","KN","LC","VC","SR","TL","TO","TT","TV","VU","AZ","BN","BI","KH","CM","TD","KM","GQ","SZ","GA","GN","KG","LA","MO","MR","MN","NP","RW","TG","UZ","ZW","BJ","MG","MU","MZ","AO","CI","DJ","ZM","CD","CG","IQ","LY","TJ","VE","ET"],"external_urls":{"spotify":"https://open.spotify.com/album/5yOy93j2Ff4HBVVPbjXrwC"},"href":"https://api.spotify.com/v1/albums/5yOy93j2Ff4HBVVPbjXrwC","id":"5yOy93j2Ff4HBVVPbjXrwC","images":[{"height":640,"width":640,"url":"https://i.scdn.co/image/ab67616d0000b273e1509ab19dc2d385c13b55ee"},{"height":300,"width":300,"url":"https://i.scdn.co/image/ab67616d00001e02e1509ab19dc2d385c13b55ee"},{"height":64,"width":64,"url":"https://i.scdn.co/image/ab67616d00004851e1509ab19dc2d385c13b55ee"}],"is_playable":true,"name":"Old Traditions, New Standards","release_date":"2000","release_date_precision":"year","total_tracks":12,"type":"album","uri":"spotify:album:5yOy93j2Ff4HBVVPbjXrwC"},"artists":[{"external_urls":{"spotify":"https://open.spotify.com/artist/3KtOvpYuKClAuYxJqdITm6"},"href":"https://api.spotify.com/v1/artists/3KtOvpYuKClAuYxJqdITm6","id":"3KtOvpYuKClAuYxJqdITm6","name":"Tullycraft","type":"artist","uri":"spotify:artist:3KtOvpYuKClAuYxJqdITm6"}],"available_markets":["AR","AU","AT","BE","BO","BR","BG","CA","CL","CO","CR","CY","CZ","DK","DO","DE","EC","EE","SV","FI","FR","GR","GT","HN","HK","HU","IS","IE","IT","LV","LT","LU","MY","MT","MX","NL","NZ","NI","NO","PA","PY","PE","PH","PL","PT","SG","SK","ES","SE","CH","TW","TR","UY","US","GB","AD","LI","MC","ID","TH","VN","RO","IL","ZA","SA","AE","BH","QA","OM","KW","EG","MA","DZ","TN","LB","JO","PS","IN","BY","KZ","MD","UA","AL","BA","HR","MK","SI","KR","BD","PK","LK","GH","KE","NG","TZ","UG","AG","AM","BS","BB","BZ","BT","BW","BF","CV","CW","DM","FJ","GM","GE","GD","GW","GY","HT","JM","KI","LS","LR","MW","MV","ML","MH","FM","NA","NR","NE","PW","PG","PR","WS","SM","ST","SN","SC","SL","SB","KN","LC","VC","SR","TL","TO","TT","TV","VU","AZ","BN","BI","KH","CM","TD","KM","GQ","SZ","GA","GN","KG","LA","MO","MR","MN","NP","RW","TG","UZ","ZW","BJ","MG","MU","MZ","AO","CI","DJ","ZM","CD","CG","IQ","LY","TJ","VE","ET"],"disc_number":1,"duration_ms":163266,"explicit":false,"external_ids":{"isrc":"USA4D0010108"},"external_urls":{"spotify":"https://open.spotify.com/track/1Z2lQY2YpcqpyoHmLHvKIA"},"href":"https://api.spotify.com/v1/tracks/1Z2lQY2YpcqpyoHmLHvKIA","id":"1Z2lQY2YpcqpyoHmLHvKIA","is_local":false,"is_playable":true,"name":"Pop Songs Your New Boyfriends's Too Stupid To Know About","popularity":13,"preview_url":null,"track_number":8,"type":"track","uri":"spotify:track:1Z2lQY2YpcqpyoHmLHvKIA"}]}}