{"tracks":{"href":"https://api.spotify.com/v1/search?offset=0&limit=2&query=of%20Montreal%20Suffer%20for%20Fashion&type=track","limit":2,"next":"https://api.spotify.com/v1/search?offset=2&limit=2&query=of%20Montreal%20Suffer%20for%20Fashion&type=track","offset":0,"previous":null,"total":1000,"items":[{"album":{"album_type":"album","artists":[{"external_urls":{"spotify":"https://open.spotify.com/artist/2p1fiYHYiXz9qi0JJyxBzN"},"href":"https://api.spotify.com/v1/artists/2p1fiYHYiXz9qi0JJyxBzN","id":"2p1fiYHYiXz9qi0JJyxBzN","name":"Skepta","type":"artist","uri":"spotify:artist:2p1fiYHYiXz9qi0JJyxBzN"}],"available_markets":["AR","AU","AT","BE","BO","BR","BG","CA","CL","CO","CR","CY","CZ","DK","DO","DE","EC","EE","SV","FI","FR","GR","GT","HN","HK","HU","IS","IE","IT","LV","LT","LU","MY","MT","MX","NL","NZ","NI","NO","PA","PY","PE","PH","PL","PT","SG","SK","ES","SE","CH","TW","TR","UY","US","GB","AD","LI","MC","ID","JP","TH","VN","RO","IL","ZA","SA","AE","BH","QA","OM","KW","EG","MA","DZ","TN","LB","JO","PS","IN","BY","KZ","MD","UA","AL","BA","HR","ME","MK","RS","SI","KR","BD","PK","LK","GH","KE","NG","TZ","UG","AG","AM","BS","BB","BZ","BT","BW","BF","CV","CW","DM","FJ","GM","GE","GD","GW","GY","HT","JM","KI","LS","LR","MW","MV","ML","MH","FM","NA","NR","NE","PW","PG","PR","WS","SM","ST","SN","SC","SL","SB","KN","LC","VC","SR","TL","TO","TT","TV","VU","AZ","BN","BI","KH","CM","TD","KM","GQ","SZ","GA","GN","KG","LA","MO","MR","MN","NP","RW","TG","UZ","ZW","BJ","MG","MU","MZ","AO","CI","DJ","ZM","CD","CG","IQ","LY","TJ","VE","ET","XK"],"external_urls":{"spotify":"https://open.spotify.com/album/6s4vWWWxNrGcKhrOFYRZzk"},"href":"https://api.spotify.com/v1/albums/6s4vWWWxNrGcKhrOFYRZzk","id":"6s4vWWWxNrGcKhrOFYRZzk","images":[{"height":640,"width":640,"url":"https://i.scdn.co/image/ab67616d0000b273969de80dfcad2d496da82410"},{"height":300,"width":300,"url":"https://i.scdn.co/image/ab67616d00001e02969de80dfcad2d496da82410"},{"height":64,"width":64,"url":"https://i.scdn.co/image/ab67616d00004851969de80dfcad2d496da82410"}],"is_playable":true,"name":"Konnichiwa","release_date":"2016-05-06","release_date_precision":"day","total_tracks":12,"type":"album","uri":"spotify:album:6s4vWWWxNrGcKhrOFYRZzk"},"artists":[{"external_urls":{"spotify":"https://open.spotify.com/artist/2p1fiYHYiXz9qi0JJyxBzN"},"href":"https://api.spotify.com/v1/artists/2p1fiYHYiXz9qi0JJyxBzN","id":"2p1fiYHYiXz9qi0JJyxBzN","name":"Skepta","type":"artist","uri":"spotify:artist:2p1fiYHYiXz9qi0JJyxBzN"},{"external_urls":{"spotify":"https://open.spotify.com/artist/7G9Go5hPwIt35X3imxJrVn"},"href":"https://api.spotify.com/v1/artists/7G9Go5hPwIt35X3imxJrVn","id":"7G9Go5hPwIt35X3imxJrVn","name":"Young Lord","type":"artist","uri":"spotify:artist:7G9Go5hPwIt35X3imxJrVn"}],"available_markets":["AR","AU","AT","BE","BO","BR","BG","CA","CL","CO","CR","CY","CZ","DK","DO","DE","EC","EE","SV","FI","FR","GR","GT","HN","HK","HU","IS","IE","IT","LV","LT","LU","MY","MT","MX","NL","NZ","NI","NO","PA","PY","PE","PH","PL","PT","SG","SK","ES","SE","CH","TW","TR","UY","US","GB","AD","LI","MC","ID","JP","TH","VN","RO","IL","ZA","SA","AE","BH","QA","OM","KW","EG","MA","DZ","TN","LB","JO","PS","IN","BY","KZ","MD","UA","AL","BA","HR","ME","MK","RS","SI","KR","BD","PK","LK","GH","KE","NG","TZ","UG","AG","AM","BS","BB","BZ","BT","BW","BF","CV","CW","DM","FJ","GM","GE","GD","GW","GY","HT","JM","KI","LS","LR","MW","MV","ML","MH","FM","NA","NR","NE","PW","PG","PR","WS","SM","ST","SN","SC","SL","SB","KN","LC","VC","SR","TL","TO","TT","TV","VU","AZ","BN","BI","KH","CM","TD","KM","GQ","SZ","GA","GN","KG","LA","MO","MR","MN","NP","RW","TG","UZ","ZW","BJ","MG","MU","MZ","AO","CI","DJ","ZM","CD","CG","IQ","LY","TJ","VE","ET","XK"],"disc_number":1,"duration_ms":223411,"explicit":false,"external_ids":{"isrc":"GBSYA1400010"},"external_urls":{"spotify":"https://open.spotify.com/track/26DdCbuwHRX1BgWeHQIn1C"},"href":"https://api.spotify.com/v1/tracks/26DdCbuwHRX1BgWeHQIn1C","id":"26DdCbuwHRX1BgWeHQIn1C","is_local":false,"is_playable":true,"name":"It Ain't Safe","popularity":58,"preview_url":null,"track_number":5,"type":"track","uri":"spotify:track:26DdCbuwHRX1BgWeHQIn1C"},{"album":{"album_type":"album","artists":[{"external_urls":{"spotify":"https://open.spotify.com/artist/5xeBMeW0YzWIXSVzAxhM8O"},"href":"https://api.spotify.com/v1/artists/5xeBMeW0YzWIXSVzAxhM8O","id":"5xeBMeW0YzWIXSVzAxhM8O","name":"of Montreal","type":"artist","uri":"spotify:artist:5xeBMeW0YzWIXSVzAxhM8O"}],"available_markets":["AR","AU","AT","BE","BO","BR","BG","CA","CL","CO","CR","CY","CZ","DK","DO","DE","EC","EE","SV","FI","FR","GR","GT","HN","HK","HU","IS","IE","IT","LV","LT","LU","MY","MT","MX","NL","NZ","NI","NO","PA","PY","PE","PH","PL","PT","SG","SK","ES","SE","CH","TW","TR","UY","US","GB","AD","LI","MC","ID","JP","TH","VN","RO","ZA","SA","AE","BH","QA","OM","KW","EG","MA","DZ","TN","LB","JO","PS","IN","BY","KZ","MD","UA","AL","BA","HR","ME","MK","RS","SI","KR","BD","PK","LK","GH","KE","NG","TZ","UG","AG","AM","BS","BB","BZ","BT","BW","BF","CV","CW","DM","FJ","GM","GE","GD","GW","GY","HT","JM","KI","LS","LR","MW","MV","ML","MH","FM","NA","NR","NE","PW","PG","PR","WS","SM","ST","SN","SC","SL","SB","KN","LC","VC","SR","TL","TO","TT","TV","VU","AZ","BN","BI","KH","CM","TD","KM","GQ","SZ","GA","GN","KG","LA","MO","MR","MN","NP","RW","TG","UZ","ZW","BJ","MG","MU","MZ","AO","CI","DJ","ZM","CD","CG","IQ","LY","TJ","VE","ET","XK"],"external_urls":{"spotify":"https://open.spotify.com/album/15Fb7HPHdy42No0l9KnXAZ"},"href":"https://api.spotify.com/v1/albums/15Fb7HPHdy42No0l9KnXAZ","id":"15Fb7HPHdy42No0l9KnXAZ","images":[{"height":640,"width":640,"url":"https://i.scdn.co/image/ab67616d0000b27310db585b33a33ed4a7b81840"},{"height":300,"width":300,"url":"https://i.scdn.co/image/ab67616d00001e0210db585b33a33ed4a7b81840"},{"height":64,"width":64,"url":"https://i.scdn.co/image/ab67616d0000485110db585b33a33ed4a7b81840"}],"is_playable":true,"name":"Hissing Fauna, Are You The Destroyer?","release_date":"2007-01-23","release_date_precision":"day","total_tracks":12,"type":"album","uri":"spotify:album:15Fb7HPHdy42No0l9KnXAZ"},"artists":[{"external_urls":{"spotify":"https://open.spotify.com/artist/5xeBMeW0YzWIXSVzAxhM8O"},"href":"https://api.spotify.com/v1/artists/5xeBMeW0YzWIXSVzAxhM8O","id":"5xeBMeW0YzWIXSVzAxhM8O","name":"of Montreal","type":"artist","uri":"spotify:artist:5xeBMeW0YzWIXSVzAxhM8O"}],"available_markets":["AR","AU","AT","BE","BO","BR","BG","CA","CL","CO","CR","CY","CZ","DK","DO","DE","EC","EE","SV","FI","FR","GR","GT","HN","HK","HU","IS","IE","IT","LV","LT","LU","MY","MT","MX","NL","NZ","NI","NO","PA","PY","PE","PH","PL","PT","SG","SK","ES","SE","CH","TW","TR","UY","US","GB","AD","LI","MC","ID","JP","TH","VN","RO","ZA","SA","AE","BH","QA","OM","KW","EG","MA","DZ","TN","LB","JO","PS","IN","BY","KZ","MD","UA","AL","BA","HR","ME","MK","RS","SI","KR","BD","PK","LK","GH","KE","NG","TZ","UG","AG","AM","BS","BB","BZ","BT","BW","BF","CV","CW","DM","FJ","GM","GE","GD","GW","GY","HT","JM","KI","LS","LR","MW","MV","ML","MH","FM","NA","NR","NE","PW","PG","PR","WS","SM","ST","SN","SC","SL","SB","KN","LC","VC","SR","TL","TO","TT","TV","VU","AZ","BN","BI","KH","CM","TD","KM","GQ","SZ","GA","GN","KG","LA","MO","MR","MN","NP","RW","TG","UZ","ZW","BJ","MG","MU","MZ","AO","CI","DJ","ZM","CD","CG","IQ","LY","TJ","VE","ET","XK"],"disc_number":1,"duration_ms":178466,"explicit":false,"external_ids":{"isrc":"US3R40612401"},"external_urls":{"spotify":"https://open.spotify.com/track/3f823Hy3XDbylXOpmbiz7i"},"href":"https://api.spotify.com/v1/tracks/3f823Hy3XDbylXOpmbiz7i","id":"3f823Hy3XDbylXOpmbiz7i","is_local":false,"is_playable":true,"name":"Suffer For Fashion","popularity":35,"preview_url":null,"track_number":1,"type":"track","uri":"spotify:track:3f823Hy3XDbylXOpmbiz7i"}]}}