{"albums":{"href":"https://api.spotify.com/v1/search?offset=0&limit=5&query=First%20and%20Last%20and%20Always%20Sisters%20of%20Mercy&type=album","limit":5,"next":"https://api.spotify.com/v1/search?offset=5&limit=5&query=First%20and%20Last%20and%20Always%20Sisters%20of%20Mercy&type=album","offset":0,"previous":null,"total":802,"items":[{"album_type":"album","total_tracks":18,"available_markets":["AR","AU","AT","BE","BO","BR","BG","CA","CL","CO","CR","CY","CZ","DK","DO","DE","EC","EE","SV","FI","FR","GR","GT","HN","HK","HU","IS","IE","IT","LV","LT","LU","MY","MT","MX","NL","NZ","NI","NO","PA","PY","PE","PH","PL","PT","SG","SK","ES","SE","CH","TW","TR","UY","US","GB","AD","LI","MC","ID","JP","TH","VN","RO","IL","ZA","SA","AE","BH","QA","OM","KW","EG","MA","DZ","TN","LB","JO","PS","IN","BY","KZ","MD","UA","AL","BA","HR","ME","MK","RS","SI","KR","BD","PK","LK","GH","KE","NG","TZ","UG","AG","AM","BS","BB","BZ","BT","BW","BF","CV","CW","DM","FJ","GM","GE","GD","GW","GY","HT","JM","KI","LS","LR","MW","MV","ML","MH","FM","NA","NR","NE","PW","PG","WS","SM","ST","SN","SC","SL","SB","KN","LC","VC","SR","TL","TO","TT","TV","VU","AZ","BN","BI","KH","CM","TD","KM","GQ","SZ","GA","GN","KG","LA","MO","MR","MN","NP","RW","TG","UZ","ZW","BJ","MG","MU","MZ","AO","CI","DJ","ZM","CD","CG","IQ","LY","TJ","VE","ET","XK"],"external_urls":{"spotify":"https://open.spotify.com/album/0m2z3FmoowUGY4Gwu9y7nh"},"href":"https://api.spotify.com/v1/albums/0m2z3FmoowUGY4Gwu9y7nh","id":"0m2z3FmoowUGY4Gwu9y7nh","images":[{"height":640,"url":"https://i.scdn.co/image/ab67616d0000b27364c2b18bd4c21cb4a21e4f46","width":640},{"height":300,"url":"https://i.scdn.co/image/ab67616d00001e0264c2b18bd4c21cb4a21e4f46","width":300},{"height":64,"url":"https://i.scdn.co/image/ab67616d0000485164c2b18bd4c21cb4a21e4f46","width":64}],"name":"First and Last and Always Collection","release_date":"1985-01-01","release_date_precision":"day","type":"album","uri":"spotify:album:0m2z3FmoowUGY4Gwu9y7nh","artists":[{"external_urls":{"spotify":"https://open.spotify.com/artist/4HxBVyHaUa60eCSsJWxwWR"},"href":"https://api.spotify.com/v1/artists/4HxBVyHaUa60eCSsJWxwWR","id":"4HxBVyHaUa60eCSsJWxwWR","name":"Sisters of Mercy","type":"artist","uri":"spotify:artist:4HxBVyHaUa60eCSsJWxwWR"}]},{"album_type":"album","total_tracks":10,"available_markets":["AR","AU","AT","BE","BO","BR","BG","CA","CL","CO","CR","CY","CZ","DK","DO","DE","EC","EE","SV","FI","FR","GR","GT","HN","HK","HU","IS","IE","IT","LV","LT","LU","MY","MT","MX","NL","NZ","NI","NO","PA","PY","PE","PH","PL","PT","SG","SK","ES","SE","CH","TW","TR","UY","US","GB","AD","LI","MC","ID","JP","TH","VN","RO","IL","ZA","SA","AE","BH","QA","OM","KW","EG","MA","DZ","TN","LB","JO","PS","IN","BY","KZ","MD","UA","AL","BA","HR","ME","MK","RS","SI","KR","BD","PK","LK","GH","KE","NG","TZ","UG","AG","AM","BS","BB","BZ","BT","BW","BF","CV","CW","DM","FJ","GM","GE","GD","GW","GY","HT","JM","KI","LS","LR","MW","MV","ML","MH","FM","NA","NR","NE","PW","PG","WS","SM","ST","SN","SC","SL","SB","KN","LC","VC","SR","TL","TO","TT","TV","VU","AZ","BN","BI","KH","CM","TD","KM","GQ","SZ","GA","GN","KG","LA","MO","MR","MN","NP","RW","TG","UZ","ZW","BJ","MG","MU","MZ","AO","CI","DJ","ZM","CD","CG","IQ","LY","TJ","VE","ET","XK"],"external_urls":{"spotify":"https://open.spotify.com/album/2wOuYERNvxVipFb2JlwvwA"},"href":"https://api.spotify.com/v1/albums/2wOuYERNvxVipFb2JlwvwA","id":"2wOuYERNvxVipFb2JlwvwA","images":[{"height":640,"url":"https://i.scdn.co/image/ab67616d0000b27337c60f6a28601243d27d95ac","width":640},{"height":300,"url":"https://i.scdn.co/image/ab67616d00001e0237c60f6a28601243d27d95ac","width":300},{"height":64,"url":"https://i.scdn.co/image/ab67616d0000485137c60f6a28601243d27d95ac","width":64}],"name":"First and Last and Always","release_date":"1985-01-01","release_date_precision":"day","type":"album","uri":"spotify:album:2wOuYERNvxVipFb2JlwvwA","artists":[{"external_urls":{"spotify":"https://open.spotify.com/artist/4HxBVyHaUa60eCSsJWxwWR"},"href":"https://api.spotify.com/v1/artists/4HxBVyHaUa60eCSsJWxwWR","id":"4HxBVyHaUa60eCSsJWxwWR","name":"Sisters of Mercy","type":"artist","uri":"spotify:artist:4HxBVyHaUa60eCSsJWxwWR"}]},{"album_type":"album","total_tracks":11,"available_markets":["AR","AU","AT","BE","BO","BR","BG","CA","CL","CO","CR","CY","CZ","DK","DO","DE","EC","EE","SV","FI","FR","GR","GT","HN","HK","HU","IS","IE","IT","LV","LT","LU","MY","MT","MX","NL","NZ","NI","NO","PA","PY","PE","PH","PL","PT","SG","SK","ES","SE","CH","TW","TR","UY","US","GB","AD","LI","MC","ID","JP","TH","VN","RO","IL","ZA","SA","AE","BH","QA","OM","KW","EG","MA","DZ","TN","LB","JO","PS","IN","BY","KZ","MD","UA","AL","BA","HR","ME","MK","RS","SI","KR","BD","PK","LK","GH","KE","NG","TZ","UG","AG","AM","BS","BB","BZ","BT","BW","BF","CV","CW","DM","FJ","GM","GE","GD","GW","GY","HT","JM","KI","LS","LR","MW","MV","ML","MH","FM","NA","NR","NE","PW","PG","PR","WS","SM","ST","SN","SC","SL","SB","KN","LC","VC","SR","TL","TO","TT","TV","VU","AZ","BN","BI","KH","CM","TD","KM","GQ","SZ","GA","GN","KG","LA","MO","MR","MN","NP","RW","TG","UZ","ZW","BJ","MG","MU","MZ","AO","CI","DJ","ZM","CD","CG","IQ","LY","TJ","VE","ET","XK"],"external_urls":{"spotify":"https://open.spotify.com/album/5tW4fJ6vnt4J1itpLtqRgl"},"href":"https://api.spotify.com/v1/albums/5tW4fJ6vnt4J1itpLtqRgl","id":"5tW4fJ6vnt4J1itpLtqRgl","images":[{"height":640,"url":"https://i.scdn.co/image/ab67616d0000b273a749ed142b8177cbdec949c9","width":640},{"height":300,"url":"https://i.scdn.co/image/ab67616d00001e02a749ed142b8177cbdec949c9","width":300},{"height":64,"url":"https://i.scdn.co/image/ab67616d00004851a749ed142b8177cbdec949c9","width":64}],"name":"Shining Strike","release_date":"2025-04-08","release_date_precision":"day","type":"album","uri":"spotify:album:5tW4fJ6vnt4J1itpLtqRgl","artists":[{"external_urls":{"spotify":"https://open.spotify.com/artist/1HBeN73z1CZ0E58rEIeozp"},"href":"https://api.spotify.com/v1/artists/1HBeN73z1CZ0E58rEIeozp","id":"1HBeN73z1CZ0E58rEIeozp","name":"Shin In Ryu","type":"artist","uri":"spotify:artist:1HBeN73z1CZ0E58rEIeozp"}]},{"album_type":"single","total_tracks":4,"available_markets":["KR"],"external_urls":{"spotify":"https://open.spotify.com/album/74yCI3yai5P3175eQFKOvY"},"href":"https://api.spotify.com/v1/albums/74yCI3yai5P3175eQFKOvY","id":"74yCI3yai5P3175eQFKOvY","images":[{"height":640,"url":"https://i.scdn.co/image/ab67616d0000b27393d51f7f0f785e32fd7abd49","width":640},{"height":300,"url":"https://i.scdn.co/image/ab67616d00001e0293d51f7f0f785e32fd7abd49","width":300},{"height":64,"url":"https://i.scdn.co/image/ab67616d0000485193d51f7f0f785e32fd7abd49","width":64}],"name":"잔혹한 천사의 테제 / 혼의 루프란","release_date":"2021-02-27","release_date_precision":"day","type":"album","uri":"spotify:album:74yCI3yai5P3175eQFKOvY","artists":[{"external_urls":{"spotify":"https://open.spotify.com/artist/2RSmBT9gH02j53dMSw982t"},"href":"https://api.spotify.com/v1/artists/2RSmBT9gH02j53dMSw982t","id":"2RSmBT9gH02j53dMSw982t","name":"Yoko Takahashi","type":"artist","uri":"spotify:artist:2RSmBT9gH02j53dMSw982t"}]},{"album_type":"album","total_tracks":8,"available_markets":["AR","AU","AT","BE","BO","BR","BG","CA","CL","CO","CR","CY","CZ","DK","DO","DE","EC","EE","SV","FI","FR","GR","GT","HN","HK","HU","IS","IE","IT","LV","LT","LU","MY","MT","MX","NL","NZ","NI","NO","PA","PY","PE","PH","PL","PT","SG","SK","ES","SE","CH","TW","TR","UY","US","GB","AD","LI","MC","ID","JP","TH","VN","RO","IL","ZA","SA","AE","BH","QA","OM","KW","EG","MA","DZ","TN","LB","JO","PS","IN","BY","KZ","MD","UA","AL","BA","HR","ME","MK","RS","SI","KR","BD","PK","LK","GH","KE","NG","TZ","UG","AG","AM","BS","BB","BZ","BT","BW","BF","CV","CW","DM","FJ","GM","GE","GD","GW","GY","HT","JM","KI","LS","LR","MW","MV","ML","MH","FM","NA","NR","NE","PW","PG","PR","WS","SM","ST","SN","SC","SL","SB","KN","LC","VC","SR","TL","TO","TT","TV","VU","AZ","BN","BI","KH","CM","TD","KM","GQ","SZ","GA","GN","KG","LA","MO","MR","MN","NP","RW","TG","UZ","ZW","BJ","MG","MU","MZ","AO","CI","DJ","ZM","CD","CG","IQ","LY","TJ","VE","ET","XK"],"external_urls":{"spotify":"https://open.spotify.com/album/2lACeDuJCgM0qOJWNq0scf"},"href":"https://api.spotify.com/v1/albums/2lACeDuJCgM0qOJWNq0scf","id":"2lACeDuJCgM0qOJWNq0scf","images":[{"height":640,"url":"https://i.scdn.co/image/ab67616d0000b273047f33d56f1ba83778dfbc7f","width":640},{"height":300,"url":"https://i.scdn.co/image/ab67616d00001e02047f33d56f1ba83778dfbc7f","width":300},{"height":64,"url":"https://i.scdn.co/image/ab67616d00004851047f33d56f1ba83778dfbc7f","width":64}],"name":"Wishes of The Youth","release_date":"2025-05-29","release_date_precision":"day","type":"album","uri":"spotify:album:2lACeDuJCgM0qOJWNq0scf","artists":[{"external_urls":{"spotify":"https://open.spotify.com/artist/1tzfeTq8ILjds06XDsB7S8"},"href":"https://api.spotify.com/v1/artists/1tzfeTq8ILjds06XDsB7S8","id":"1tzfeTq8ILjds06XDsB7S8","name":"UmYull","type":"artist","uri":"spotify:artist:1tzfeTq8ILjds06XDsB7S8"}]}]}}