{"albums":{"href":"https://api.spotify.com/v1/search?offset=0&limit=2&query=Music%20Has%20the%20Right%20to%20Children%20Boards%20of%20Canada&type=album","limit":2,"next":"https://api.spotify.com/v1/search?offset=2&limit=2&query=Music%20Has%20the%20Right%20to%20Children%20Boards%20of%20Canada&type=album","offset":0,"previous":null,"total":801,"items":[{"album_type":"album","total_tracks":18,"available_markets":["AR","AU","AT","BE","BO","BR","BG","CA","CL","CO","CR","CY","CZ","DK","DO","DE","EC","EE","SV","FI","FR","GR","GT","HN","HK","HU","IS","IE","IT","LV","LT","LU","MY","MT","MX","NL","NZ","NI","NO","PA","PY","PE","PH","PL","PT","SG","SK","ES","SE","CH","TW","TR","UY","US","GB","AD","LI","MC","ID","JP","TH","VN","RO","IL","ZA","SA","AE","BH","QA","OM","KW","EG","MA","DZ","TN","LB","JO","PS","IN","BY","KZ","MD","UA","AL","BA","HR","ME","MK","RS","SI","KR","BD","PK","LK","GH","KE","NG","TZ","UG","AG","AM","BS","BB","BZ","BT","BW","BF","CV","CW","DM","FJ","GM","GE","GD","GW","GY","HT","JM","KI","LS","LR","MW","MV","ML","MH","FM","NA","NR","NE","PW","PG","PR","WS","SM","ST","SN","SC","SL","SB","KN","LC","VC","SR","TL","TO","TT","TV","VU","AZ","BN","BI","KH","CM","TD","KM","GQ","SZ","GA","GN","KG","LA","MO","MR","MN","NP","RW","TG","UZ","ZW","BJ","MG","MU","MZ","AO","CI","DJ","ZM","CD","CG","IQ","LY","TJ","VE","ET","XK"],"external_urls":{"spotify":"https://open.spotify.com/album/6LZiNXaDvhzvnXUubVOmNU"},"href":"https://api.spotify.com/v1/albums/6LZiNXaDvhzvnXUubVOmNU","id":"6LZiNXaDvhzvnXUubVOmNU","images":[{"height":640,"url":"https://i.scdn.co/image/ab67616d0000b2739effb26eea559ce6f3fed751","width":640},{"height":300,"url":"https://i.scdn.co/image/ab67616d00001e029effb26eea559ce6f3fed751","width":300},{"height":64,"url":"https://i.scdn.co/image/ab67616d000048519effb26eea559ce6f3fed751","width":64}],"name":"Music Has The Right To Children","release_date":"1998-04-20","release_date_precision":"day","type":"album","uri":"spotify:album:6LZiNXaDvhzvnXUubVOmNU","artists":[{"external_urls":{"spotify":"https://open.spotify.com/artist/2VAvhf61GgLYmC6C8anyX1"},"href":"https://api.spotify.com/v1/artists/2VAvhf61GgLYmC6C8anyX1","id":"2VAvhf61GgLYmC6C8anyX1","name":"Boards of Canada","type":"artist","uri":"spotify:artist:2VAvhf61GgLYmC6C8anyX1"}]},{"album_type":"single","total_tracks":1,"available_markets":["AR","AU","AT","BE","BO","BR","BG","CA","CL","CO","CR","CY","CZ","DK","DO","DE","EC","EE","SV","FI","FR","GR","GT","HN","HK","HU","IS","IE","IT","LV","LT","LU","MY","MT","MX","NL","NZ","NI","NO","PA","PY","PE","PH","PL","PT","SG","SK","ES","SE","CH","TW","TR","UY","US","GB","AD","LI","MC","ID","JP","TH","VN","RO","IL","ZA","SA","AE","BH","QA","OM","KW","EG","MA","DZ","TN","LB","JO","PS","IN","BY","KZ","MD","UA","AL","BA","HR","ME","MK","RS","SI","BD","PK","LK","GH","KE","NG","TZ","UG","AG","AM","BS","BB","BZ","BT","BW","BF","CV","CW","DM","FJ","GM","GE","GD","GW","GY","HT","JM","KI","LS","LR","MW","MV","ML","MH","FM","NA","NR","NE","PW","PG","PR","WS","SM","ST","SN","SC","SL","SB","KN","LC","VC","SR","TL","TO","TT","TV","VU","AZ","BN","BI","KH","CM","TD","KM","GQ","SZ","GA","GN","KG","LA","MO","MR","MN","NP","RW","TG","UZ","ZW","BJ","MG","MU","MZ","AO","CI","DJ","ZM","CD","CG","IQ","LY","TJ","VE","ET","XK"],"external_urls":{"spotify":"https://open.spotify.com/album/5MuQTjOeSApez8vNGb94Ur"},"href":"https://api.spotify.com/v1/albums/5MuQTjOeSApez8vNGb94Ur","id":"5MuQTjOeSApez8vNGb94Ur","images":[{"height":640,"url":"https://i.scdn.co/image/ab67616d0000b27364eea0085a043b52217179cb","width":640},{"height":300,"url":"https://i.scdn.co/image/ab67616d00001e0264eea0085a043b52217179cb","width":300},{"height":64,"url":"https://i.scdn.co/image/ab67616d0000485164eea0085a043b52217179cb","width":64}],"name":"나무","release_date":"2019-04-16","release_date_precision":"day","restrictions":{"reason":"product"},"type":"album","uri":"spotify:album:5MuQTjOeSApez8vNGb94Ur","artists":[{"external_urls":{"spotify":"https://open.spotify.com/artist/7c1HgFDe8ogy5NOZ1ANCJQ"},"href":"https://api.spotify.com/v1/artists/7c1HgFDe8ogy5NOZ1ANCJQ","id":"7c1HgFDe8ogy5NOZ1ANCJQ","name":"Car, the garden","type":"artist","uri":"spotify:artist:7c1HgFDe8ogy5NOZ1ANCJQ"}]}]}}