{"tracks":{"href":"https://api.spotify.com/v1/search?offset=0&limit=2&query=Hard%20to%20Explain%20The%20Strokes&type=track","limit":2,"next":"https://api.spotify.com/v1/search?offset=2&limit=2&query=Hard%20to%20Explain%20The%20Strokes&type=track","offset":0,"previous":null,"total":5,"items":[{"album":{"album_type":"album","artists":[{"external_urls":{"spotify":"https://open.spotify.com/artist/0epOFNiUfyON9EYx7Tpr6V"},"href":"https://api.spotify.com/v1/artists/0epOFNiUfyON9EYx7Tpr6V","id":"0epOFNiUfyON9EYx7Tpr6V","name":"The Strokes","type":"artist","uri":"spotify:artist:0epOFNiUfyON9EYx7Tpr6V"}],"available_markets":["AR","AU","AT","BE","BO","BR","BG","CA","CL","CO","CR","CY","CZ","DK","DO","DE","EC","EE","SV","FI","FR","GR","GT","HN","HK","HU","IS","IE","IT","LV","LT","LU","MY","MT","MX","NL","NZ","NI","NO","PA","PY","PE","PH","PL","PT","SG","SK","ES","SE","CH","TW","TR","UY","GB","AD","LI","MC","ID","JP","TH","VN","RO","IL","ZA","SA","AE","BH","QA","OM","KW","EG","MA","DZ","TN","LB","JO","PS","IN","BY","KZ","MD","UA","AL","BA","HR","ME","MK","RS","SI","KR","BD","PK","LK","GH","KE","NG","TZ","UG","AG","AM","BS","BB","BZ","BT","BW","BF","CV","CW","DM","FJ","GM","GE","GD","GW","GY","HT","JM","KI","LS","LR","MW","MV","ML","MH","FM","NA","NR","NE","PW","PG","WS","SM","ST","SN","SC","SL","SB","KN","LC","VC","SR","TL","TO","TT","TV","VU","AZ","BN","BI","KH","CM","TD","KM","GQ","SZ","GA","GN","KG","LA","MO","MR","MN","NP","RW","TG","UZ","ZW","BJ","MG","MU","MZ","AO","CI","DJ","ZM","CD","CG","IQ","LY","TJ","VE","ET","XK"],"external_urls":{"spotify":"https://open.spotify.com/album/2yNaksHgeMQM9Quse463b5"},"href":"https://api.spotify.com/v1/albums/2yNaksHgeMQM9Quse463b5","id":"2yNaksHgeMQM9Quse463b5","images":[{"height":640,"width":640,"url":"https://i.scdn.co/image/ab67616d0000b273a388a3f20d1bf2123249cc79"},{"height":300,"width":300,"url":"https://i.scdn.co/image/ab67616d00001e02a388a3f20d1bf2123249cc79"},{"height":64,"width":64,"url":"https://i.scdn.co/image/ab67616d00004851a388a3f20d1bf2123249cc79"}],"is_playable":true,"name":"Is This It","release_date":"2001-07-30","release_date_precision":"day","total_tracks":11,"type":"album","uri":"spotify:album:2yNaksHgeMQM9Quse463b5"},"artists":[{"external_urls":{"spotify":"https://open.spotify.com/artist/0epOFNiUfyON9EYx7Tpr6V"},"href":"https://api.spotify.com/v1/artists/0epOFNiUfyON9EYx7Tpr6V","id":"0epOFNiUfyON9EYx7Tpr6V","name":"The Strokes","type":"artist","uri":"spotify:artist:0epOFNiUfyON9EYx7Tpr6V"}],"available_markets":["AR","AU","AT","BE","BO","BR","BG","CA","CL","CO","CR","CY","CZ","DK","DO","DE","EC","EE","SV","FI","FR","GR","GT","HN","HK","HU","IS","IE","IT","LV","LT","LU","MY","MT","MX","NL","NZ","NI","NO","PA","PY","PE","PH","PL","PT","SG","SK","ES","SE","CH","TW","TR","UY","GB","AD","LI","MC","ID","JP","TH","VN","RO","IL","ZA","SA","AE","BH","QA","OM","KW","EG","MA","DZ","TN","LB","JO","PS","IN","BY","KZ","MD","UA","AL","BA","HR","ME","MK","RS","SI","KR","BD","PK","LK","GH","KE","NG","TZ","UG","AG","AM","BS","BB","BZ","BT","BW","BF","CV","CW","DM","FJ","GM","GE","GD","GW","GY","HT","JM","KI","LS","LR","MW","MV","ML","MH","FM","NA","NR","NE","PW","PG","WS","SM","ST","SN","SC","SL","SB","KN","LC","VC","SR","TL","TO","TT","TV","VU","AZ","BN","BI","KH","CM","TD","KM","GQ","SZ","GA","GN","KG","LA","MO","MR","MN","NP","RW","TG","UZ","ZW","BJ","MG","MU","MZ","AO","CI","DJ","ZM","CD","CG","IQ","LY","TJ","VE","ET","XK"],"disc_number":1,"duration_ms":224426,"explicit":false,"external_ids":{"isrc":"USRC10100768"},"external_urls":{"spotify":"https://open.spotify.com/track/2LMloFiV7DHpBhITOaBSam"},"href":"https://api.spotify.com/v1/tracks/2LMloFiV7DHpBhITOaBSam","id":"2LMloFiV7DHpBhITOaBSam","is_local":false,"is_playable":true,"name":"Hard To Explain","popularity":65,"preview_url":null,"track_number":8,"type":"track","uri":"spotify:track:2LMloFiV7DHpBhITOaBSam"},{"album":{"album_type":"album","artists":[{"external_urls":{"spotify":"https://open.spotify.com/artist/0OdyJnU8VJc2ymKhTHbZ4c"},"href":"https://api.spotify.com/v1/artists/0OdyJnU8VJc2ymKhTHbZ4c","id":"0OdyJnU8VJc2ymKhTHbZ4c","name":"Mediumjay","type":"artist","uri":"spotify:artist:0OdyJnU8VJc2ymKhTHbZ4c"}],"available_markets":["AR","AU","AT","BE","BO","BR","BG","CA","CL","CO","CR","CY","CZ","DK","DO","DE","EC","EE","SV","FI","FR","GR","GT","HN","HK","HU","IS","IE","IT","LV","LT","LU","MY","MT","MX","NL","NZ","NI","NO","PA","PY","PE","PH","PL","PT","SG","SK","ES","SE","CH","TW","TR","UY","US","GB","AD","LI","MC","ID","JP","TH","VN","RO","IL","ZA","SA","AE","BH","QA","OM","KW","EG","MA","DZ","TN","LB","JO","PS","IN","BY","KZ","MD","UA","AL","BA","HR","ME","MK","RS","SI","KR","BD","PK","LK","GH","KE","NG","TZ","UG","AG","AM","BS","BB","BZ","BT","BW","BF","CV","CW","DM","FJ","GM","GE","GD","GW","GY","HT","JM","KI","LS","LR","MW","MV","ML","MH","FM","NA","NR","NE","PW","PG","PR","WS","SM","ST","SN","SC","SL","SB","KN","LC","VC","SR","TL","TO","TT","TV","VU","AZ","BN","BI","KH","CM","TD","KM","GQ","SZ","GA","GN","KG","LA","MO","MR","MN","NP","RW","TG","UZ","ZW","BJ","MG","MU","MZ","AO","CI","DJ","ZM","CD","CG","IQ","LY","TJ","VE","ET","XK"],"external_urls":{"spotify":"https://open.spotify.com/album/7sWgvifpdACJYyFKNSgSiW"},"href":"https://api.spotify.com/v1/albums/7sWgvifpdACJYyFKNSgSiW","id":"7sWgvifpdACJYyFKNSgSiW","images":[{"height":640,"width":640,"url":"https://i.scdn.co/image/ab67616d0000b27354cb5bc82b091a71e1b9655c"},{"height":300,"width":300,"url":"https://i.scdn.co/image/ab67616d00001e0254cb5bc82b091a71e1b9655c"},{"height":64,"width":64,"url":"https://i.scdn.co/image/ab67616d0000485154cb5bc82b091a71e1b9655c"}],"is_playable":true,"name":"The Medium Pill","release_date":"2025-07-28","release_date_precision":"day","total_tracks":26,"type":"album","uri":"spotify:album:7sWgvifpdACJYyFKNSgSiW"},"artists":[{"external_urls":{"spotify":"https://open.spotify.com/artist/0OdyJnU8VJc2ymKhTHbZ4c"},"href":"https://api.spotify.com/v1/artists/0OdyJnU8VJc2ymKhTHbZ4c","id":"0OdyJnU8VJc2ymKhTHbZ4c","name":"Mediumjay","type":"artist","uri":"spotify:artist:0OdyJnU8VJc2ymKhTHbZ4c"}],"available_markets":["AR","AU","AT","BE","BO","BR","BG","CA","CL","CO","CR","CY","CZ","DK","DO","DE","EC","EE","SV","FI","FR","GR","GT","HN","HK","HU","IS","IE","IT","LV","LT","LU","MY","MT","MX","NL","NZ","NI","NO","PA","PY","PE","PH","PL","PT","SG","SK","ES","SE","CH","TW","TR","UY","US","GB","AD","LI","MC","ID","JP","TH","VN","RO","IL","ZA","SA","AE","BH","QA","OM","KW","EG","MA","DZ","TN","LB","JO","PS","IN","BY","KZ","MD","UA","AL","BA","HR","ME","MK","RS","SI","KR","BD","PK","LK","GH","KE","NG","TZ","UG","AG","AM","BS","BB","BZ","BT","BW","BF","CV","CW","DM","FJ","GM","GE","GD","GW","GY","HT","JM","KI","LS","LR","MW","MV","ML","MH","FM","NA","NR","NE","PW","PG","PR","WS","SM","ST","SN","SC","SL","SB","KN","LC","VC","SR","TL","TO","TT","TV","VU","AZ","BN","BI","KH","CM","TD","KM","GQ","SZ","GA","GN","KG","LA","MO","MR","MN","NP","RW","TG","UZ","ZW","BJ","MG","MU","MZ","AO","CI","DJ","ZM","CD","CG","IQ","LY","TJ","VE","ET","XK"],"disc_number":1,"duration_ms":242048,"explicit":false,"external_ids":{"isrc":"QZTBF2504280"},"external_urls":{"spotify":"https://open.spotify.com/track/5XhEMoc7ewo9GjSobhhEhF"},"href":"https://api.spotify.com/v1/tracks/5XhEMoc7ewo9GjSobhhEhF","id":"5XhEMoc7ewo9GjSobhhEhF","is_local":false,"is_playable":true,"name":"Nervous","popularity":0,"preview_url":null,"track_number":6,"type":"track","uri":"spotify:track:5XhEMoc7ewo9GjSobhhEhF"}]}}