{"albums":{"href":"https://api.spotify.com/v1/search?offset=0&limit=2&query=Love%20The%20Cult&type=album","limit":2,"next":"https://api.spotify.com/v1/search?offset=2&limit=2&query=Love%20The%20Cult&type=album","offset":0,"previous":null,"total":4,"items":[{"album_type":"album","total_tracks":10,"available_markets":["AR","AU","AT","BE","BO","BR","BG","CA","CL","CO","CR","CY","CZ","DK","DO","DE","EC","EE","SV","FI","FR","GR","GT","HN","HK","HU","IS","IE","IT","LV","LT","LU","MY","MT","MX","NL","NZ","NI","NO","PA","PY","PE","PH","PL","PT","SG","SK","ES","SE","CH","TW","TR","UY","US","GB","AD","LI","MC","ID","JP","TH","VN","RO","IL","ZA","SA","AE","BH","QA","OM","KW","EG","MA","DZ","TN","LB","JO","PS","IN","BY","KZ","MD","UA","AL","BA","HR","ME","MK","RS","SI","KR","BD","PK","LK","GH","KE","NG","TZ","UG","AG","AM","BS","BB","BZ","BT","BW","BF","CV","CW","DM","FJ","GM","GE","GD","GW","GY","HT","JM","KI","LS","LR","MW","MV","ML","MH","FM","NA","NR","NE","PW","PG","PR","WS","SM","ST","SN","SC","SL","SB","KN","LC","VC","SR","TL","TO","TT","TV","VU","AZ","BN","BI","KH","CM","TD","KM","GQ","SZ","GA","GN","KG","LA","MO","MR","MN","NP","RW","TG","UZ","ZW","BJ","MG","MU","MZ","AO","CI","DJ","ZM","CD","CG","IQ","LY","TJ","VE","ET","XK"],"external_urls":{"spotify":"https://open.spotify.com/album/2hallpchkYldMa5lGGf1Ko"},"href":"https://api.spotify.com/v1/albums/2hallpchkYldMa5lGGf1Ko","id":"2hallpchkYldMa5lGGf1Ko","images":[{"height":640,"url":"https://i.scdn.co/image/ab67616d0000b2735c5dbd89210073351c9a6fdd","width":640},{"height":300,"url":"https://i.scdn.co/image/ab67616d00001e025c5dbd89210073351c9a6fdd","width":300},{"height":64,"url":"https://i.scdn.co/image/ab67616d000048515c5dbd89210073351c9a6fdd","width":64}],"name":"Love","release_date":"1985-10-18","release_date_precision":"day","type":"album","uri":"spotify:album:2hallpchkYldMa5lGGf1Ko","artists":[{"external_urls":{"spotify":"https://open.spotify.com/artist/49DW3KvkyjHO35mK1JnSyS"},"href":"https://api.spotify.com/v1/artists/49DW3KvkyjHO35mK1JnSyS","id":"49DW3KvkyjHO35mK1JnSyS","name":"The Cult","type":"artist","uri":"spotify:artist:49DW3KvkyjHO35mK1JnSyS"}]},{"album_type":"single","total_tracks":5,"available_markets":["AR","AU","AT","BE","BO","BR","BG","CA","CL","CO","CR","CY","CZ","DK","DO","DE","EC","EE","SV","FI","FR","GR","GT","HN","HK","HU","IS","IE","IT","LV","LT","LU","MY","MT","MX","NL","NZ","NI","NO","PA","PY","PE","PH","PL","PT","SG","SK","ES","SE","CH","TW","TR","UY","US","GB","AD","LI","MC","ID","JP","TH","VN","RO","IL","ZA","SA","AE","BH","QA","OM","KW","EG","MA","DZ","TN","LB","JO","PS","IN","BY","KZ","MD","UA","AL","BA","HR","ME","MK","RS","SI","KR","BD","PK","LK","GH","KE","NG","TZ","UG","AG","AM","BS","BB","BZ","BT","BW","BF","CV","CW","DM","FJ","GM","GE","GD","GW","GY","HT","JM","KI","LS","LR","MW","MV","ML","MH","FM","NA","NR","NE","PW","PG","PR","WS","SM","ST","SN","SC","SL","SB","KN","LC","VC","SR","TL","TO","TT","TV","VU","AZ","BN","BI","KH","CM","TD","KM","GQ","SZ","GA","GN","KG","LA","MO","MR","MN","NP","RW","TG","UZ","ZW","BJ","MG","MU","MZ","AO","CI","DJ","ZM","CD","CG","IQ","LY","TJ","VE","ET","XK"],"external_urls":{"spotify":"https://open.spotify.com/album/6LiwguLLtqcnOvLj7BEsAr"},"href":"https://api.spotify.com/v1/albums/6LiwguLLtqcnOvLj7BEsAr","id":"6LiwguLLtqcnOvLj7BEsAr","images":[{"height":640,"url":"https://i.scdn.co/image/ab67616d0000b273c924b9044827393eb3ea0224","width":640},{"height":300,"url":"https://i.scdn.co/image/ab67616d00001e02c924b9044827393eb3ea0224","width":300},{"height":64,"url":"https://i.scdn.co/image/ab67616d00004851c924b9044827393eb3ea0224","width":64}],"name":"The Theory of Happiness","release_date":"2023-06-07","release_date_precision":"day","type":"album","uri":"spotify:album:6LiwguLLtqcnOvLj7BEsAr","artists":[{"external_urls":{"spotify":"https://open.spotify.com/artist/1tzfeTq8ILjds06XDsB7S8"},"href":"https://api.spotify.com/v1/artists/1tzfeTq8ILjds06XDsB7S8","id":"1tzfeTq8ILjds06XDsB7S8","name":"UmYull","type":"artist","uri":"spotify:artist:1tzfeTq8ILjds06XDsB7S8"}]}]}}