{"tracks":{"href":"https://api.spotify.com/v1/search?offset=0&limit=2&query=I%20Feel%20for%20You%20Chaka%20Khan&type=track","limit":2,"next":"https://api.spotify.com/v1/search?offset=2&limit=2&query=I%20Feel%20for%20You%20Chaka%20Khan&type=track","offset":0,"previous":null,"total":6,"items":[{"album":{"album_type":"album","artists":[{"external_urls":{"spotify":"https://open.spotify.com/artist/6mQfAAqZGBzIfrmlZCeaYT"},"href":"https://api.spotify.com/v1/artists/6mQfAAqZGBzIfrmlZCeaYT","id":"6mQfAAqZGBzIfrmlZCeaYT","name":"Chaka Khan","type":"artist","uri":"spotify:artist:6mQfAAqZGBzIfrmlZCeaYT"}],"available_markets":["AR","AU","AT","BE","BO","BR","BG","CA","CL","CO","CR","CY","CZ","DK","DO","DE","EC","EE","SV","FI","FR","GR","GT","HN","HK","HU","IS","IE","IT","LV","LT","LU","MY","MT","MX","NL","NZ","NI","NO","PA","PY","PE","PH","PL","PT","SG","SK","ES","SE","CH","TW","TR","UY","US","GB","AD","LI","MC","ID","JP","TH","VN","RO","IL","ZA","SA","AE","BH","QA","OM","KW","EG","MA","DZ","TN","LB","JO","PS","IN","BY","KZ","MD","UA","AL","BA","HR","ME","MK","RS","SI","KR","BD","PK","LK","GH","KE","NG","TZ","UG","AG","AM","BS","BB","BZ","BT","BW","BF","CV","CW","DM","FJ","GM","GE","GD","GW","GY","HT","JM","KI","LS","LR","MW","MV","ML","MH","FM","NA","NR","NE","PW","PG","WS","SM","ST","SN","SC","SL","SB","KN","LC","VC","SR","TL","TO","TT","TV","VU","AZ","BN","BI","KH","CM","TD","KM","GQ","SZ","GA","GN","KG","LA","MO","MR","MN","NP","RW","TG","UZ","ZW","BJ","MG","MU","MZ","AO","CI","DJ","ZM","CD","CG","IQ","LY","TJ","VE","ET","XK"],"external_urls":{"spotify":"https://open.spotify.com/album/08yanJqA75TPyDowCXvvPU"},"href":"https://api.spotify.com/v1/albums/08yanJqA75TPyDowCXvvPU","id":"08yanJqA75TPyDowCXvvPU","images":[{"height":640,"width":640,"url":"https://i.scdn.co/image/ab67616d0000b2738be5f9356ee08a1f9e67ff87"},{"height":300,"width":300,"url":"https://i.scdn.co/image/ab67616d00001e028be5f9356ee08a1f9e67ff87"},{"height":64,"width":64,"url":"https://i.scdn.co/image/ab67616d000048518be5f9356ee08a1f9e67ff87"}],"is_playable":true,"name":"I Feel for You","release_date":"1984","release_date_precision":"year","total_tracks":10,"type":"album","uri":"spotify:album:08yanJqA75TPyDowCXvvPU"},"artists":[{"external_urls":{"spotify":"https://open.spotify.com/artist/6mQfAAqZGBzIfrmlZCeaYT"},"href":"https://api.spotify.com/v1/artists/6mQfAAqZGBzIfrmlZCeaYT","id":"6mQfAAqZGBzIfrmlZCeaYT","name":"Chaka Khan","type":"artist","uri":"spotify:artist:6mQfAAqZGBzIfrmlZCeaYT"}],"available_markets":["AR","AU","AT","BE","BO","BR","BG","CA","CL","CO","CR","CY","CZ","DK","DO","DE","EC","EE","SV","FI","FR","GR","GT","HN","HK","HU","IS","IE","IT","LV","LT","LU","MY","MT","MX","NL","NZ","NI","NO","PA","PY","PE","PH","PL","PT","SG","SK","ES","SE","CH","TW","TR","UY","US","GB","AD","LI","MC","ID","JP","TH","VN","RO","IL","ZA","SA","AE","BH","QA","OM","KW","EG","MA","DZ","TN","LB","JO","PS","IN","BY","KZ","MD","UA","AL","BA","HR","ME","MK","RS","SI","KR","BD","PK","LK","GH","KE","NG","TZ","UG","AG","AM","BS","BB","BZ","BT","BW","BF","CV","CW","DM","FJ","GM","GE","GD","GW","GY","HT","JM","KI","LS","LR","MW","MV","ML","MH","FM","NA","NR","NE","PW","PG","WS","SM","ST","SN","SC","SL","SB","KN","LC","VC","SR","TL","TO","TT","TV","VU","AZ","BN","BI","KH","CM","TD","KM","GQ","SZ","GA","GN","KG","LA","MO","MR","MN","NP","RW","TG","UZ","ZW","BJ","MG","MU","MZ","AO","CI","DJ","ZM","CD","CG","IQ","LY","TJ","VE","ET","XK"],"disc_number":1,"duration_ms":343400,"explicit":false,"external_ids":{"isrc":"USWB18400025"},"external_urls":{"spotify":"https://open.spotify.com/track/5yR9u8QiOt8hJaddv32oo7"},"href":"https://api.spotify.com/v1/tracks/5yR9u8QiOt8hJaddv32oo7","id":"5yR9u8QiOt8hJaddv32oo7","is_local":false,"is_playable":true,"name":"I Feel for You","popularity":64,"preview_url":null,"track_number":6,"type":"track","uri":"spotify:track:5yR9u8QiOt8hJaddv32oo7"},{"album":{"album_type":"album","artists":[{"external_urls":{"spotify":"https://open.spotify.com/artist/2APpFKqfXdzCHXnBVXerqQ"},"href":"https://api.spotify.com/v1/artists/2APpFKqfXdzCHXnBVXerqQ","id":"2APpFKqfXdzCHXnBVXerqQ","name":"Yoo Jae Ha","type":"artist","uri":"spotify:artist:2APpFKqfXdzCHXnBVXerqQ"}],"available_markets":["AR","AU","AT","BE","BO","BR","BG","CA","CL","CO","CR","CY","CZ","DK","DO","DE","EC","EE","SV","FI","FR","GR","GT","HN","HK","HU","IS","IE","IT","LV","LT","LU","MY","MT","MX","NL","NZ","NI","NO","PA","PY","PE","PH","PL","PT","SG","SK","ES","SE","CH","TW","TR","UY","US","GB","AD","LI","MC","ID","JP","TH","VN","RO","IL","ZA","SA","AE","BH","QA","OM","KW","EG","MA","DZ","TN","LB","JO","PS","IN","BY","KZ","MD","UA","AL","BA","HR","ME","MK","RS","SI","KR","BD","PK","LK","GH","KE","NG","TZ","UG","AG","AM","BS","BB","BZ","BT","BW","BF","CV","CW","DM","FJ","GM","GE","GD","GW","GY","HT","JM","KI","LS","LR","MW","MV","ML","MH","FM","NA","NR","NE","PW","PG","PR","WS","SM","ST","SN","SC","SL","SB","KN","LC","VC","SR","TL","TO","TT","TV","VU","AZ","BN","BI","KH","CM","TD","KM","GQ","SZ","GA","GN","KG","LA","MO","MR","MN","NP","RW","TG","UZ","ZW","BJ","MG","MU","MZ","AO","CI","DJ","ZM","CD","CG","IQ","LY","TJ","VE","ET","XK"],"external_urls":{"spotify":"https://open.spotify.com/album/2Kb78rmvg0suvhVPcjBtlm"},"href":"https://api.spotify.com/v1/albums/2Kb78rmvg0suvhVPcjBtlm","id":"2Kb78rmvg0suvhVPcjBtlm","images":[{"height":640,"width":640,"url":"https://i.scdn.co/image/ab67616d0000b2739f3f43e28de6f07f4efef76a"},{"height":300,"width":300,"url":"https://i.scdn.co/image/ab67616d00001e029f3f43e28de6f07f4efef76a"},{"height":64,"width":64,"url":"https://i.scdn.co/image/ab67616d000048519f3f43e28de6f07f4efef76a"}],"is_playable":true,"name":"사랑하기 때문에","release_date":"1987-08-20","release_date_precision":"day","total_tracks":9,"type":"album","uri":"spotify:album:2Kb78rmvg0suvhVPcjBtlm"},"artists":[{"external_urls":{"spotify":"https://open.spotify.com/artist/2APpFKqfXdzCHXnBVXerqQ"},"href":"https://api.spotify.com/v1/artists/2APpFKqfXdzCHXnBVXerqQ","id":"2APpFKqfXdzCHXnBVXerqQ","name":"Yoo Jae Ha","type":"artist","uri":"spotify:artist:2APpFKqfXdzCHXnBVXerqQ"}],"available_markets":["AR","AU","AT","BE","BO","BR","BG","CA","CL","CO","CR","CY","CZ","DK","DO","DE","EC","EE","SV","FI","FR","GR","GT","HN","HK","HU","IS","IE","IT","LV","LT","LU","MY","MT","MX","NL","NZ","NI","NO","PA","PY","PE","PH","PL","PT","SG","SK","ES","SE","CH","TW","TR","UY","US","GB","AD","LI","MC","ID","JP","TH","VN","RO","IL","ZA","SA","AE","BH","QA","OM","KW","EG","MA","DZ","TN","LB","JO","PS","IN","BY","KZ","MD","UA","AL","BA","HR","ME","MK","RS","SI","KR","BD","PK","LK","GH","KE","NG","TZ","UG","AG","AM","BS","BB","BZ","BT","BW","BF","CV","CW","DM","FJ","GM","GE","GD","GW","GY","HT","JM","KI","LS","LR","MW","MV","ML","MH","FM","NA","NR","NE","PW","PG","PR","WS","SM","ST","SN","SC","SL","SB","KN","LC","VC","SR","TL","TO","TT","TV","VU","AZ","BN","BI","KH","CM","TD","KM","GQ","SZ","GA","GN","KG","LA","MO","MR","MN","NP","RW","TG","UZ","ZW","BJ","MG","MU","MZ","AO","CI","DJ","ZM","CD","CG","IQ","LY","TJ","VE","ET","XK"],"disc_number":1,"duration_ms":314230,"explicit":false,"external_ids":{"isrc":"QZEKE2017703"},"external_urls":{"spotify":"https://open.spotify.com/track/1vGYF7tmd35FgZPC0t2G8r"},"href":"https://api.spotify.com/v1/tracks/1vGYF7tmd35FgZPC0t2G8r","id":"1vGYF7tmd35FgZPC0t2G8r","is_local":false,"is_playable":true,"name":"지난날","popularity":37,"preview_url":null,"track_number":7,"type":"track","uri":"spotify:track:1vGYF7tmd35FgZPC0t2G8r"}]}}