{"tracks":{"href":"https://api.spotify.com/v1/search?offset=0&limit=2&query=Cast%20No%20Shadow%20Oasis&type=track","limit":2,"next":"https://api.spotify.com/v1/search?offset=2&limit=2&query=Cast%20No%20Shadow%20Oasis&type=track","offset":0,"previous":null,"total":1000,"items":[{"album":{"album_type":"album","artists":[{"external_urls":{"spotify":"https://open.spotify.com/artist/2DaxqgrOhkeH0fpeiQq2f4"},"href":"https://api.spotify.com/v1/artists/2DaxqgrOhkeH0fpeiQq2f4","id":"2DaxqgrOhkeH0fpeiQq2f4","name":"Oasis","type":"artist","uri":"spotify:artist:2DaxqgrOhkeH0fpeiQq2f4"}],"available_markets":["AR","BO","BR","BG","CL","CO","CR","CY","CZ","DO","EC","SV","GR","GT","HN","HK","HU","MY","MT","MX","NI","PA","PY","PE","PH","PL","SG","SK","TW","TR","UY","AD","LI","MC","ID","TH","VN","RO","IL","ZA","SA","AE","BH","QA","OM","KW","EG","MA","DZ","TN","LB","JO","PS","IN","BY","KZ","MD","UA","AL","BA","HR","ME","MK","RS","SI","KR","BD","PK","LK","GH","KE","NG","TZ","UG","AG","AM","BS","BB","BZ","BT","BW","BF","CV","CW","DM","FJ","GM","GE","GD","GW","GY","HT","JM","KI","LS","LR","MW","MV","ML","MH","FM","NA","NR","NE","PW","PG","PR","WS","SM","ST","SN","SC","SL","SB","KN","LC","VC","SR","TL","TO","TT","TV","VU","AZ","BN","BI","KH","CM","TD","KM","GQ","SZ","GA","GN","KG","LA","MO","MR","MN","NP","RW","TG","UZ","ZW","BJ","MG","MU","MZ","AO","CI","DJ","ZM","CD","CG","IQ","LY","TJ","VE","ET","XK"],"external_urls":{"spotify":"https://open.spotify.com/album/1VW1MFNstaJuygaoTPkdCk"},"href":"https://api.spotify.com/v1/albums/1VW1MFNstaJuygaoTPkdCk","id":"1VW1MFNstaJuygaoTPkdCk","images":[{"height":640,"width":640,"url":"https://i.scdn.co/image/ab67616d0000b27385e5dcc05cc216a10f141480"},{"height":300,"width":300,"url":"https://i.scdn.co/image/ab67616d00001e0285e5dcc05cc216a10f141480"},{"height":64,"width":64,"url":"https://i.scdn.co/image/ab67616d0000485185e5dcc05cc216a10f141480"}],"is_playable":true,"name":"(What's The Story) Morning Glory? [Remastered]","release_date":"1995-10-02","release_date_precision":"day","total_tracks":40,"type":"album","uri":"spotify:album:1VW1MFNstaJuygaoTPkdCk"},"artists":[{"external_urls":{"spotify":"https://open.spotify.com/artist/2DaxqgrOhkeH0fpeiQq2f4"},"href":"https://api.spotify.com/v1/artists/2DaxqgrOhkeH0fpeiQq2f4","id":"2DaxqgrOhkeH0fpeiQq2f4","name":"Oasis","type":"artist","uri":"spotify:artist:2DaxqgrOhkeH0fpeiQq2f4"}],"available_markets":["AR","BO","BR","BG","CL","CO","CR","CY","CZ","DO","EC","SV","GR","GT","HN","HK","HU","MY","MT","MX","NI","PA","PY","PE","PH","PL","SG","SK","TW","TR","UY","AD","LI","MC","ID","TH","VN","RO","IL","ZA","SA","AE","BH","QA","OM","KW","EG","MA","DZ","TN","LB","JO","PS","IN","BY","KZ","MD","UA","AL","BA","HR","ME","MK","RS","SI","KR","BD","PK","LK","GH","KE","NG","TZ","UG","AG","AM","BS","BB","BZ","BT","BW","BF","CV","CW","DM","FJ","GM","GE","GD","GW","GY","HT","JM","KI","LS","LR","MW","MV","ML","MH","FM","NA","NR","NE","PW","PG","PR","WS","SM","ST","SN","SC","SL","SB","KN","LC","VC","SR","TL","TO","TT","TV","VU","AZ","BN","BI","KH","CM","TD","KM","GQ","SZ","GA","GN","KG","LA","MO","MR","MN","NP","RW","TG","UZ","ZW","BJ","MG","MU","MZ","AO","CI","DJ","ZM","CD","CG","IQ","LY","TJ","VE","ET","XK"],"disc_number":1,"duration_ms":294813,"explicit":false,"external_ids":{"isrc":"GBQCP1400114"},"external_urls":{"spotify":"https://open.spotify.com/track/6fnzVPHWtCxm4lxLyn5p4Q"},"href":"https://api.spotify.com/v1/tracks/6fnzVPHWtCxm4lxLyn5p4Q","id":"6fnzVPHWtCxm4lxLyn5p4Q","is_local":false,"is_playable":true,"name":"Cast No Shadow - Remastered","popularity":54,"preview_url":null,"track_number":8,"type":"track","uri":"spotify:track:6fnzVPHWtCxm4lxLyn5p4Q"},{"album":{"album_type":"album","artists":[{"external_urls":{"spotify":"https://open.spotify.com/artist/0hQTMC0zU4pFW0Lc7ExB6f"},"href":"https://api.spotify.com/v1/artists/0hQTMC0zU4pFW0Lc7ExB6f","id":"0hQTMC0zU4pFW0Lc7ExB6f","name":"KC","type":"artist","uri":"spotify:artist:0hQTMC0zU4pFW0Lc7ExB6f"},{"external_urls":{"spotify":"https://open.spotify.com/artist/5DIi2JWfQPTKffaVBlIYRn"},"href":"https://api.spotify.com/v1/artists/5DIi2JWfQPTKffaVBlIYRn","id":"5DIi2JWfQPTKffaVBlIYRn","name":"Sik-K","type":"artist","uri":"spotify:artist:5DIi2JWfQPTKffaVBlIYRn"},{"external_urls":{"spotify":"https://open.spotify.com/artist/2krUNMgFZYm5s4Nn0g91W9"},"href":"https://api.spotify.com/v1/artists/2krUNMgFZYm5s4Nn0g91W9","id":"2krUNMgFZYm5s4Nn0g91W9","name":"HAON","type":"artist","uri":"spotify:artist:2krUNMgFZYm5s4Nn0g91W9"},{"external_urls":{"spotify":"https://open.spotify.com/artist/6iXlk59DNP0FJWQPpUP4zo"},"href":"https://api.spotify.com/v1/artists/6iXlk59DNP0FJWQPpUP4zo","id":"6iXlk59DNP0FJWQPpUP4zo","name":"JMIN","type":"artist","uri":"spotify:artist:6iXlk59DNP0FJWQPpUP4zo"}],"available_markets":["AR","AU","AT","BE","BO","BR","BG","CA","CL","CO","CR","CY","CZ","DK","DO","DE","EC","EE","SV","FI","FR","GR","GT","HN","HK","HU","IS","IE","IT","LV","LT","LU","MY","MT","MX","NL","NZ","NI","NO","PA","PY","PE","PH","PL","PT","SG","SK","ES","SE","CH","TW","TR","UY","US","GB","AD","LI","MC","ID","JP","TH","VN","RO","IL","ZA","SA","AE","BH","QA","OM","KW","EG","MA","DZ","TN","LB","JO","PS","IN","BY","KZ","MD","UA","AL","BA","HR","ME","MK","RS","SI","KR","BD","PK","LK","GH","KE","NG","TZ","UG","AG","AM","BS","BB","BZ","BT","BW","BF","CV","CW","DM","FJ","GM","GE","GD","GW","GY","HT","JM","KI","LS","LR","MW","MV","ML","MH","FM","NA","NR","NE","PW","PG","PR","WS","SM","ST","SN","SC","SL","SB","KN","LC","VC","SR","TL","TO","TT","TV","VU","AZ","BN","BI","KH","CM","TD","KM","GQ","SZ","GA","GN","KG","LA","MO","MR","MN","NP","RW","TG","UZ","ZW","BJ","MG","MU","MZ","AO","CI","DJ","ZM","CD","CG","IQ","LY","TJ","VE","ET","XK"],"external_urls":{"spotify":"https://open.spotify.com/album/2m8rq4ip4MPBvceEHdgH5G"},"href":"https://api.spotify.com/v1/albums/2m8rq4ip4MPBvceEHdgH5G","id":"2m8rq4ip4MPBvceEHdgH5G","images":[{"height":640,"width":640,"url":"https://i.scdn.co/image/ab67616d0000b27322c5000f82eec6ba6e2aefb0"},{"height":300,"width":300,"url":"https://i.scdn.co/image/ab67616d00001e0222c5000f82eec6ba6e2aefb0"},{"height":64,"width":64,"url":"https://i.scdn.co/image/ab67616d0000485122c5000f82eec6ba6e2aefb0"}],"is_playable":true,"name":"KC3","release_date":"2025-11-27","release_date_precision":"day","total_tracks":10,"type":"album","uri":"spotify:album:2m8rq4ip4MPBvceEHdgH5G"},"artists":[{"external_urls":{"spotify":"https://open.spotify.com/artist/0hQTMC0zU4pFW0Lc7ExB6f"},"href":"https://api.spotify.com/v1/artists/0hQTMC0zU4pFW0Lc7ExB6f","id":"0hQTMC0zU4pFW0Lc7ExB6f","name":"KC","type":"artist","uri":"spotify:artist:0hQTMC0zU4pFW0Lc7ExB6f"},{"external_urls":{"spotify":"https://open.spotify.com/artist/5DIi2JWfQPTKffaVBlIYRn"},"href":"https://api.spotify.com/v1/artists/5DIi2JWfQPTKffaVBlIYRn","id":"5DIi2JWfQPTKffaVBlIYRn","name":"Sik-K","type":"artist","uri":"spotify:artist:5DIi2JWfQPTKffaVBlIYRn"},{"external_urls":{"spotify":"https://open.spotify.com/artist/2krUNMgFZYm5s4Nn0g91W9"},"href":"https://api.spotify.com/v1/artists/2krUNMgFZYm5s4Nn0g91W9","id":"2krUNMgFZYm5s4Nn0g91W9","name":"HAON","type":"artist","uri":"spotify:artist:2krUNMgFZYm5s4Nn0g91W9"},{"external_urls":{"spotify":"https://open.spotify.com/artist/66LxteaHD7NvxCnkQoyw2G"},"href":"https://api.spotify.com/v1/artists/66LxteaHD7NvxCnkQoyw2G","id":"66LxteaHD7NvxCnkQoyw2G","name":"NOWIMYOUNG","type":"artist","uri":"spotify:artist:66LxteaHD7NvxCnkQoyw2G"},{"external_urls":{"spotify":"https://open.spotify.com/artist/6kCvzOe6ifaAA9wkFmKLa2"},"href":"https://api.spotify.com/v1/artists/6kCvzOe6ifaAA9wkFmKLa2","id":"6kCvzOe6ifaAA9wkFmKLa2","name":"HIRA","type":"artist","uri":"spotify:artist:6kCvzOe6ifaAA9wkFmKLa2"}],"available_markets":["AR","AU","AT","BE","BO","BR","BG","CA","CL","CO","CR","CY","CZ","DK","DO","DE","EC","EE","SV","FI","FR","GR","GT","HN","HK","HU","IS","IE","IT","LV","LT","LU","MY","MT","MX","NL","NZ","NI","NO","PA","PY","PE","PH","PL","PT","SG","SK","ES","SE","CH","TW","TR","UY","US","GB","AD","LI","MC","ID","JP","TH","VN","RO","IL","ZA","SA","AE","BH","QA","OM","KW","EG","MA","DZ","TN","LB","JO","PS","IN","BY","KZ","MD","UA","AL","BA","HR","ME","MK","RS","SI","KR","BD","PK","LK","GH","KE","NG","TZ","UG","AG","AM","BS","BB","BZ","BT","BW","BF","CV","CW","DM","FJ","GM","GE","GD","GW","GY","HT","JM","KI","LS","LR","MW","MV","ML","MH","FM","NA","NR","NE","PW","PG","PR","WS","SM","ST","SN","SC","SL","SB","KN","LC","VC","SR","TL","TO","TT","TV","VU","AZ","BN","BI","KH","CM","TD","KM","GQ","SZ","GA","GN","KG","LA","MO","MR","MN","NP","RW","TG","UZ","ZW","BJ","MG","MU","MZ","AO","CI","DJ","ZM","CD","CG","IQ","LY","TJ","VE","ET","XK"],"disc_number":1,"duration_ms":207486,"explicit":false,"external_ids":{"isrc":"ZZA0P2523926"},"external_urls":{"spotify":"https://open.spotify.com/track/5ke7oRMl6To09sHJ9JzWfc"},"href":"https://api.spotify.com/v1/tracks/5ke7oRMl6To09sHJ9JzWfc","id":"5ke7oRMl6To09sHJ9JzWfc","is_local":false,"is_playable":true,"name":"KOCAINE CASTLE","popularity":49,"preview_url":null,"track_number":2,"type":"track","uri":"spotify:track:5ke7oRMl6To09sHJ9JzWfc"}]}}