{"albums":{"href":"https://api.spotify.com/v1/search?offset=0&limit=3&query=Beatles%20A%20Hard%20Days%20Night&type=album","limit":3,"next":"https://api.spotify.com/v1/search?offset=3&limit=3&query=Beatles%20A%20Hard%20Days%20Night&type=album","offset":0,"previous":null,"total":818,"items":[{"album_type":"album","total_tracks":13,"available_markets":["AR","AU","AT","BE","BO","BR","BG","CA","CL","CO","CR","CY","CZ","DK","DO","DE","EC","EE","SV","FI","FR","GR","GT","HN","HK","HU","IS","IE","IT","LV","LT","LU","MY","MT","MX","NL","NZ","NI","NO","PA","PY","PE","PH","PL","PT","SG","SK","ES","SE","CH","TW","TR","UY","US","GB","AD","LI","MC","ID","JP","TH","VN","RO","IL","ZA","SA","AE","BH","QA","OM","KW","EG","MA","DZ","TN","LB","JO","PS","IN","BY","KZ","MD","UA","AL","BA","HR","ME","MK","RS","SI","KR","BD","PK","LK","GH","KE","NG","TZ","UG","AG","AM","BS","BB","BZ","BT","BW","BF","CV","CW","DM","FJ","GM","GE","GD","GW","GY","HT","JM","KI","LS","LR","MW","MV","ML","MH","FM","NA","NR","NE","PW","PG","WS","SM","ST","SN","SC","SL","SB","KN","LC","VC","SR","TL","TO","TT","TV","VU","AZ","BN","BI","KH","CM","TD","KM","GQ","SZ","GA","GN","KG","LA","MO","MR","MN","NP","RW","TG","UZ","ZW","BJ","MG","MU","MZ","AO","CI","DJ","ZM","CD","CG","IQ","LY","TJ","VE","ET","XK"],"external_urls":{"spotify":"https://open.spotify.com/album/6wCttLq0ADzkPgtRnUihLV"},"href":"https://api.spotify.com/v1/albums/6wCttLq0ADzkPgtRnUihLV","id":"6wCttLq0ADzkPgtRnUihLV","images":[{"height":640,"url":"https://i.scdn.co/image/ab67616d0000b273e230f303815e82a86713eedd","width":640},{"height":300,"url":"https://i.scdn.co/image/ab67616d00001e02e230f303815e82a86713eedd","width":300},{"height":64,"url":"https://i.scdn.co/image/ab67616d00004851e230f303815e82a86713eedd","width":64}],"name":"A Hard Day's Night (Remastered)","release_date":"1964-07-10","release_date_precision":"day","type":"album","uri":"spotify:album:6wCttLq0ADzkPgtRnUihLV","artists":[{"external_urls":{"spotify":"https://open.spotify.com/artist/3WrFJ7ztbogyGnTHbHJFl2"},"href":"https://api.spotify.com/v1/artists/3WrFJ7ztbogyGnTHbHJFl2","id":"3WrFJ7ztbogyGnTHbHJFl2","name":"The Beatles","type":"artist","uri":"spotify:artist:3WrFJ7ztbogyGnTHbHJFl2"}]},{"album_type":"album","total_tracks":14,"available_markets":["AR","AU","AT","BE","BO","BR","BG","CA","CL","CO","CR","CY","CZ","DK","DO","DE","EC","EE","SV","FI","FR","GR","GT","HN","HK","HU","IS","IE","IT","LV","LT","LU","MY","MT","MX","NL","NZ","NI","NO","PA","PY","PE","PH","PL","PT","SG","SK","ES","SE","CH","TW","TR","UY","US","GB","AD","LI","MC","ID","JP","TH","VN","RO","IL","ZA","SA","AE","BH","QA","OM","KW","EG","MA","DZ","TN","LB","JO","PS","IN","BY","KZ","MD","UA","AL","BA","HR","ME","MK","RS","SI","KR","BD","PK","LK","GH","KE","NG","TZ","UG","AG","AM","BS","BB","BZ","BT","BW","BF","CV","CW","DM","FJ","GM","GE","GD","GW","GY","HT","JM","KI","LS","LR","MW","MV","ML","MH","FM","NA","NR","NE","PW","PG","PR","WS","SM","ST","SN","SC","SL","SB","KN","LC","VC","SR","TL","TO","TT","TV","VU","AZ","BN","BI","KH","CM","TD","KM","GQ","SZ","GA","GN","KG","LA","MO","MR","MN","NP","RW","TG","UZ","ZW","BJ","MG","MU","MZ","AO","CI","DJ","ZM","CD","CG","IQ","LY","TJ","VE","ET","XK"],"external_urls":{"spotify":"https://open.spotify.com/album/3VoYVleI2ng0FzxNqAykdM"},"href":"https://api.spotify.com/v1/albums/3VoYVleI2ng0FzxNqAykdM","id":"3VoYVleI2ng0FzxNqAykdM","images":[{"height":640,"url":"https://i.scdn.co/image/ab67616d0000b273b6c560d5a0f715e38872c5f9","width":640},{"height":300,"url":"https://i.scdn.co/image/ab67616d00001e02b6c560d5a0f715e38872c5f9","width":300},{"height":64,"url":"https://i.scdn.co/image/ab67616d00004851b6c560d5a0f715e38872c5f9","width":64}],"name":"A Hard Days Night","release_date":"2020-07-25","release_date_precision":"day","type":"album","uri":"spotify:album:3VoYVleI2ng0FzxNqAykdM","artists":[{"external_urls":{"spotify":"https://open.spotify.com/artist/5o723EMxNulM5ydXRh7Qkk"},"href":"https://api.spotify.com/v1/artists/5o723EMxNulM5ydXRh7Qkk","id":"5o723EMxNulM5ydXRh7Qkk","name":"The Beatles Complete On Ukulele","type":"artist","uri":"spotify:artist:5o723EMxNulM5ydXRh7Qkk"}]},{"album_type":"album","total_tracks":14,"available_markets":["AR","AU","AT","BE","BO","BR","BG","CA","CL","CO","CR","CY","CZ","DK","DO","DE","EC","EE","SV","FI","FR","GR","GT","HN","HK","HU","IS","IE","IT","LV","LT","LU","MY","MT","MX","NL","NZ","NI","NO","PA","PY","PE","PH","PL","PT","SG","SK","ES","SE","CH","TW","TR","UY","US","GB","AD","LI","MC","ID","JP","TH","VN","RO","IL","ZA","SA","AE","BH","QA","OM","KW","EG","MA","DZ","TN","LB","JO","PS","IN","BY","KZ","MD","UA","AL","BA","HR","ME","MK","RS","SI","KR","BD","PK","LK","GH","KE","NG","TZ","UG","AG","AM","BS","BB","BZ","BT","BW","BF","CV","CW","DM","FJ","GM","GE","GD","GW","GY","HT","JM","KI","LS","LR","MW","MV","ML","MH","FM","NA","NR","NE","PW","PG","WS","SM","ST","SN","SC","SL","SB","KN","LC","VC","SR","TL","TO","TT","TV","VU","AZ","BN","BI","KH","CM","TD","KM","GQ","SZ","GA","GN","KG","LA","MO","MR","MN","NP","RW","TG","UZ","ZW","BJ","MG","MU","MZ","AO","CI","DJ","ZM","CD","CG","IQ","LY","TJ","VE","ET","XK"],"external_urls":{"spotify":"https://open.spotify.com/album/0PT5m6hwPRrpBwIHVnvbFX"},"href":"https://api.spotify.com/v1/albums/0PT5m6hwPRrpBwIHVnvbFX","id":"0PT5m6hwPRrpBwIHVnvbFX","images":[{"height":640,"url":"https://i.scdn.co/image/ab67616d0000b273e3e3b64cea45265469d4cafa","width":640},{"height":300,"url":"https://i.scdn.co/image/ab67616d00001e02e3e3b64cea45265469d4cafa","width":300},{"height":64,"url":"https://i.scdn.co/image/ab67616d00004851e3e3b64cea45265469d4cafa","width":64}],"name":"Help! (Remastered)","release_date":"1965-08-06","release_date_precision":"day","type":"album","uri":"spotify:album:0PT5m6hwPRrpBwIHVnvbFX","artists":[{"external_urls":{"spotify":"https://open.spotify.com/artist/3WrFJ7ztbogyGnTHbHJFl2"},"href":"https://api.spotify.com/v1/artists/3WrFJ7ztbogyGnTHbHJFl2","id":"3WrFJ7ztbogyGnTHbHJFl2","name":"The Beatles","type":"artist","uri":"spotify:artist:3WrFJ7ztbogyGnTHbHJFl2"}]}]}}