{"tracks":{"href":"https://api.spotify.com/v1/search?offset=0&limit=5&query=Schumann%20Album%20for%20the%20Young%20Merry%20Peasant&type=track","limit":5,"next":"https://api.spotify.com/v1/search?offset=5&limit=5&query=Schumann%20Album%20for%20the%20Young%20Merry%20Peasant&type=track","offset":0,"previous":null,"total":1000,"items":[{"album":{"album_type":"album","artists":[{"external_urls":{"spotify":"https://open.spotify.com/artist/6DPYiyq5kWVQS4RGwxzPC7"},"href":"https://api.spotify.com/v1/artists/6DPYiyq5kWVQS4RGwxzPC7","id":"6DPYiyq5kWVQS4RGwxzPC7","name":"Dr. Dre","type":"artist","uri":"spotify:artist:6DPYiyq5kWVQS4RGwxzPC7"}],"available_markets":["AR","AU","AT","BE","BO","BR","BG","CA","CL","CO","CR","CY","CZ","DK","DO","DE","EC","EE","SV","FI","FR","GR","GT","HN","HK","HU","IS","IE","IT","LV","LT","LU","MY","MT","MX","NL","NZ","NI","NO","PA","PY","PE","PH","PL","PT","SG","SK","ES","SE","CH","TW","TR","UY","US","GB","AD","LI","MC","ID","JP","TH","VN","RO","IL","ZA","SA","AE","BH","QA","OM","KW","EG","MA","DZ","TN","LB","JO","PS","IN","BY","KZ","MD","UA","AL","BA","HR","ME","MK","RS","SI","KR","BD","PK","LK","GH","KE","NG","TZ","UG","AG","AM","BS","BB","BZ","BT","BW","BF","CV","CW","DM","FJ","GM","GE","GD","GW","GY","HT","JM","KI","LS","LR","MW","MV","ML","MH","FM","NA","NR","NE","PW","PG","WS","SM","ST","SN","SC","SL","SB","KN","LC","VC","SR","TL","TO","TT","TV","VU","AZ","BN","BI","KH","CM","TD","KM","GQ","SZ","GA","GN","KG","LA","MO","MR","MN","NP","RW","TG","UZ","ZW","BJ","MG","MU","MZ","AO","CI","DJ","ZM","CD","CG","IQ","LY","TJ","VE","ET","XK"],"external_urls":{"spotify":"https://open.spotify.com/album/7q2B4M5EiBkqrlsNW8lB7N"},"href":"https://api.spotify.com/v1/albums/7q2B4M5EiBkqrlsNW8lB7N","id":"7q2B4M5EiBkqrlsNW8lB7N","images":[{"height":640,"width":640,"url":"https://i.scdn.co/image/ab67616d0000b2739b19c107109de740bad72df5"},{"height":300,"width":300,"url":"https://i.scdn.co/image/ab67616d00001e029b19c107109de740bad72df5"},{"height":64,"width":64,"url":"https://i.scdn.co/image/ab67616d000048519b19c107109de740bad72df5"}],"is_playable":true,"name":"2001","release_date":"1999-11-16","release_date_precision":"day","total_tracks":23,"type":"album","uri":"spotify:album:7q2B4M5EiBkqrlsNW8lB7N"},"artists":[{"external_urls":{"spotify":"https://open.spotify.com/artist/6DPYiyq5kWVQS4RGwxzPC7"},"href":"https://api.spotify.com/v1/artists/6DPYiyq5kWVQS4RGwxzPC7","id":"6DPYiyq5kWVQS4RGwxzPC7","name":"Dr. Dre","type":"artist","uri":"spotify:artist:6DPYiyq5kWVQS4RGwxzPC7"},{"external_urls":{"spotify":"https://open.spotify.com/artist/7hJcb9fa4alzcOq3EaNPoG"},"href":"https://api.spotify.com/v1/artists/7hJcb9fa4alzcOq3EaNPoG","id":"7hJcb9fa4alzcOq3EaNPoG","name":"Snoop Dogg","type":"artist","uri":"spotify:artist:7hJcb9fa4alzcOq3EaNPoG"}],"available_markets":["AR","AU","AT","BE","BO","BR","BG","CA","CL","CO","CR","CY","CZ","DK","DO","DE","EC","EE","SV","FI","FR","GR","GT","HN","HK","HU","IS","IE","IT","LV","LT","LU","MY","MT","MX","NL","NZ","NI","NO","PA","PY","PE","PH","PL","PT","SG","SK","ES","SE","CH","TW","TR","UY","US","GB","AD","LI","MC","ID","JP","TH","VN","RO","IL","ZA","SA","AE","BH","QA","OM","KW","EG","MA","DZ","TN","LB","JO","PS","IN","BY","KZ","MD","UA","AL","BA","HR","ME","MK","RS","SI","KR","BD","PK","LK","GH","KE","NG","TZ","UG","AG","AM","BS","BB","BZ","BT","BW","BF","CV","CW","DM","FJ","GM","GE","GD","GW","GY","HT","JM","KI","LS","LR","MW","MV","ML","MH","FM","NA","NR","NE","PW","PG","WS","SM","ST","SN","SC","SL","SB","KN","LC","VC","SR","TL","TO","TT","TV","VU","AZ","BN","BI","KH","CM","TD","KM","GQ","SZ","GA","GN","KG","LA","MO","MR","MN","NP","RW","TG","UZ","ZW","BJ","MG","MU","MZ","AO","CI","DJ","ZM","CD","CG","IQ","LY","TJ","VE","ET","XK"],"disc_number":1,"duration_ms":270586,"explicit":false,"external_ids":{"isrc":"USIR19905031"},"external_urls":{"spotify":"https://open.spotify.com/track/503OTo2dSqe7qk76rgsbep"},"href":"https://api.spotify.com/v1/tracks/503OTo2dSqe7qk76rgsbep","id":"503OTo2dSqe7qk76rgsbep","is_local":false,"is_playable":true,"name":"Still D.R.E.","popularity":84,"preview_url":null,"track_number":4,"type":"track","uri":"spotify:track:503OTo2dSqe7qk76rgsbep"},{"album":{"album_type":"compilation","artists":[{"external_urls":{"spotify":"https://open.spotify.com/artist/0LyfQWJT6nXafLPZqxe9Of"},"href":"https://api.spotify.com/v1/artists/0LyfQWJT6nXafLPZqxe9Of","id":"0LyfQWJT6nXafLPZqxe9Of","name":"Various Artists","type":"artist","uri":"spotify:artist:0LyfQWJT6nXafLPZqxe9Of"}],"available_markets":["AR","AU","AT","BE","BO","BR","BG","CA","CL","CO","CR","CY","CZ","DK","DO","DE","EC","EE","SV","FI","FR","GR","GT","HN","HK","HU","IS","IE","IT","LV","LT","LU","MY","MT","MX","NL","NZ","NI","NO","PA","PY","PE","PH","PL","PT","SG","SK","ES","SE","CH","TW","TR","UY","US","GB","AD","LI","MC","ID","JP","TH","VN","RO","IL","ZA","SA","AE","BH","QA","OM","KW","EG","MA","DZ","TN","LB","JO","PS","IN","BY","KZ","MD","UA","AL","BA","HR","ME","MK","RS","SI","KR","BD","PK","LK","GH","KE","NG","TZ","UG","AG","AM","BS","BB","BZ","BT","BW","BF","CV","CW","DM","FJ","GM","GE","GD","GW","GY","HT","JM","KI","LS","LR","MW","MV","ML","MH","FM","NA","NR","NE","PW","PG","PR","WS","SM","ST","SN","SC","SL","SB","KN","LC","VC","SR","TL","TO","TT","TV","VU","AZ","BN","BI","KH","CM","TD","KM","GQ","SZ","GA","GN","KG","LA","MO","MR","MN","NP","RW","TG","UZ","ZW","BJ","MG","MU","MZ","AO","CI","DJ","ZM","CD","CG","IQ","LY","TJ","VE","ET","XK"],"external_urls":{"spotify":"https://open.spotify.com/album/4RZYI50ZoSPDuLCJ4JtGCl"},"href":"https://api.spotify.com/v1/albums/4RZYI50ZoSPDuLCJ4JtGCl","id":"4RZYI50ZoSPDuLCJ4JtGCl","images":[{"height":640,"width":640,"url":"https://i.scdn.co/image/ab67616d0000b2736f0816203aae1d0a18735de5"},{"height":300,"width":300,"url":"https://i.scdn.co/image/ab67616d00001e026f0816203aae1d0a18735de5"},{"height":64,"width":64,"url":"https://i.scdn.co/image/ab67616d000048516f0816203aae1d0a18735de5"}],"is_playable":true,"name":"Autobahn Classics, Vol. 4 (Classical Music Remastered for a Noisy Environment)","release_date":"2014-05-09","release_date_precision":"day","total_tracks":30,"type":"album","uri":"spotify:album:4RZYI50ZoSPDuLCJ4JtGCl"},"artists":[{"external_urls":{"spotify":"https://open.spotify.com/artist/2UqjDAXnDxejEyE0CzfUrZ"},"href":"https://api.spotify.com/v1/artists/2UqjDAXnDxejEyE0CzfUrZ","id":"2UqjDAXnDxejEyE0CzfUrZ","name":"Robert Schumann","type":"artist","uri":"spotify:artist:2UqjDAXnDxejEyE0CzfUrZ"},{"external_urls":{"spotify":"https://open.spotify.com/artist/1hb37blG5qyFSK6qkL6ykg"},"href":"https://api.spotify.com/v1/artists/1hb37blG5qyFSK6qkL6ykg","id":"1hb37blG5qyFSK6qkL6ykg","name":"Peter Frankl","type":"artist","uri":"spotify:artist:1hb37blG5qyFSK6qkL6ykg"}],"available_markets":["AR","AU","AT","BE","BO","BR","BG","CA","CL","CO","CR","CY","CZ","DK","DO","DE","EC","EE","SV","FI","FR","GR","GT","HN","HK","HU","IS","IE","IT","LV","LT","LU","MY","MT","MX","NL","NZ","NI","NO","PA","PY","PE","PH","PL","PT","SG","SK","ES","SE","CH","TW","TR","UY","US","GB","AD","LI","MC","ID","JP","TH","VN","RO","IL","ZA","SA","AE","BH","QA","OM","KW","EG","MA","DZ","TN","LB","JO","PS","IN","BY","KZ","MD","UA","AL","BA","HR","ME","MK","RS","SI","KR","BD","PK","LK","GH","KE","NG","TZ","UG","AG","AM","BS","BB","BZ","BT","BW","BF","CV","CW","DM","FJ","GM","GE","GD","GW","GY","HT","JM","KI","LS","LR","MW","MV","ML","MH","FM","NA","NR","NE","PW","PG","PR","WS","SM","ST","SN","SC","SL","SB","KN","LC","VC","SR","TL","TO","TT","TV","VU","AZ","BN","BI","KH","CM","TD","KM","GQ","SZ","GA","GN","KG","LA","MO","MR","MN","NP","RW","TG","UZ","ZW","BJ","MG","MU","MZ","AO","CI","DJ","ZM","CD","CG","IQ","LY","TJ","VE","ET","XK"],"disc_number":1,"duration_ms":38426,"explicit":false,"external_ids":{"isrc":"USZGD1400042"},"external_urls":{"spotify":"https://open.spotify.com/track/15ZDYoP4CXi83OhtqrbaXf"},"href":"https://api.spotify.com/v1/tracks/15ZDYoP4CXi83OhtqrbaXf","id":"15ZDYoP4CXi83OhtqrbaXf","is_local":false,"is_playable":true,"name":"Album for the Young, Op. 68: X. The Merry Peasant","popularity":0,"preview_url":null,"track_number":7,"type":"track","uri":"spotify:track:15ZDYoP4CXi83OhtqrbaXf"},{"album":{"album_type":"album","artists":[{"external_urls":{"spotify":"https://open.spotify.com/artist/0OOvYV3rKjZjOgVjuYcxeB"},"href":"https://api.spotify.com/v1/artists/0OOvYV3rKjZjOgVjuYcxeB","id":"0OOvYV3rKjZjOgVjuYcxeB","name":"Kristin Thielemann","type":"artist","uri":"spotify:artist:0OOvYV3rKjZjOgVjuYcxeB"}],"available_markets":["AR","AU","AT","BE","BO","BR","BG","CA","CL","CO","CR","CY","CZ","DK","DO","DE","EC","EE","SV","FI","FR","GR","GT","HN","HK","HU","IS","IE","IT","LV","LT","LU","MY","MT","MX","NL","NZ","NI","NO","PA","PY","PE","PH","PL","PT","SG","SK","ES","SE","CH","TW","TR","UY","US","GB","AD","LI","MC","ID","JP","TH","VN","RO","IL","ZA","SA","AE","BH","QA","OM","KW","EG","MA","DZ","TN","LB","JO","PS","IN","BY","KZ","MD","UA","AL","BA","HR","ME","MK","RS","SI","KR","BD","PK","LK","GH","KE","NG","TZ","UG","AG","AM","BS","BB","BZ","BT","BW","BF","CV","CW","DM","FJ","GM","GE","GD","GW","GY","HT","JM","KI","LS","LR","MW","MV","ML","MH","FM","NA","NR","NE","PW","PG","PR","WS","SM","ST","SN","SC","SL","SB","KN","LC","VC","SR","TL","TO","TT","TV","VU","AZ","BN","BI","KH","CM","TD","KM","GQ","SZ","GA","GN","KG","LA","MO","MR","MN","NP","RW","TG","UZ","ZW","BJ","MG","MU","MZ","AO","CI","DJ","ZM","CD","CG","IQ","LY","TJ","VE","ET","XK"],"external_urls":{"spotify":"https://open.spotify.com/album/3QEXIFByTiLWf8YPZk8NaM"},"href":"https://api.spotify.com/v1/albums/3QEXIFByTiLWf8YPZk8NaM","id":"3QEXIFByTiLWf8YPZk8NaM","images":[{"height":640,"width":640,"url":"https://i.scdn.co/image/ab67616d0000b273a55f34326294070d61c4b50e"},{"height":300,"width":300,"url":"https://i.scdn.co/image/ab67616d00001e02a55f34326294070d61c4b50e"},{"height":64,"width":64,"url":"https://i.scdn.co/image/ab67616d00004851a55f34326294070d61c4b50e"}],"is_playable":true,"name":"Easy Concert Pieces for Trumpet and Piano 3","release_date":"2019-03-21","release_date_precision":"day","total_tracks":45,"type":"album","uri":"spotify:album:3QEXIFByTiLWf8YPZk8NaM"},"artists":[{"external_urls":{"spotify":"https://open.spotify.com/artist/0OOvYV3rKjZjOgVjuYcxeB"},"href":"https://api.spotify.com/v1/artists/0OOvYV3rKjZjOgVjuYcxeB","id":"0OOvYV3rKjZjOgVjuYcxeB","name":"Kristin Thielemann","type":"artist","uri":"spotify:artist:0OOvYV3rKjZjOgVjuYcxeB"},{"external_urls":{"spotify":"https://open.spotify.com/artist/2UqjDAXnDxejEyE0CzfUrZ"},"href":"https://api.spotify.com/v1/artists/2UqjDAXnDxejEyE0CzfUrZ","id":"2UqjDAXnDxejEyE0CzfUrZ","name":"Robert Schumann","type":"artist","uri":"spotify:artist:2UqjDAXnDxejEyE0CzfUrZ"}],"available_markets":["AR","AU","AT","BE","BO","BR","BG","CA","CL","CO","CR","CY","CZ","DK","DO","DE","EC","EE","SV","FI","FR","GR","GT","HN","HK","HU","IS","IE","IT","LV","LT","LU","MY","MT","MX","NL","NZ","NI","NO","PA","PY","PE","PH","PL","PT","SG","SK","ES","SE","CH","TW","TR","UY","US","GB","AD","LI","MC","ID","JP","TH","VN","RO","IL","ZA","SA","AE","BH","QA","OM","KW","EG","MA","DZ","TN","LB","JO","PS","IN","BY","KZ","MD","UA","AL","BA","HR","ME","MK","RS","SI","KR","BD","PK","LK","GH","KE","NG","TZ","UG","AG","AM","BS","BB","BZ","BT","BW","BF","CV","CW","DM","FJ","GM","GE","GD","GW","GY","HT","JM","KI","LS","LR","MW","MV","ML","MH","FM","NA","NR","NE","PW","PG","PR","WS","SM","ST","SN","SC","SL","SB","KN","LC","VC","SR","TL","TO","TT","TV","VU","AZ","BN","BI","KH","CM","TD","KM","GQ","SZ","GA","GN","KG","LA","MO","MR","MN","NP","RW","TG","UZ","ZW","BJ","MG","MU","MZ","AO","CI","DJ","ZM","CD","CG","IQ","LY","TJ","VE","ET","XK"],"disc_number":1,"duration_ms":47653,"explicit":false,"external_ids":{"isrc":"QM6N22570434"},"external_urls":{"spotify":"https://open.spotify.com/track/7ApbhbdUznnD7y6fCZ9MRr"},"href":"https://api.spotify.com/v1/tracks/7ApbhbdUznnD7y6fCZ9MRr","id":"7ApbhbdUznnD7y6fCZ9MRr","is_local":false,"is_playable":true,"name":"Album for the Young, Op. 68: No. 10, The Merry Peasant","popularity":0,"preview_url":null,"track_number":14,"type":"track","uri":"spotify:track:7ApbhbdUznnD7y6fCZ9MRr"},{"album":{"album_type":"album","artists":[{"external_urls":{"spotify":"https://open.spotify.com/artist/6l3HvQ5sa6mXTsMTB19rO5"},"href":"https://api.spotify.com/v1/artists/6l3HvQ5sa6mXTsMTB19rO5","id":"6l3HvQ5sa6mXTsMTB19rO5","name":"J. Cole","type":"artist","uri":"spotify:artist:6l3HvQ5sa6mXTsMTB19rO5"}],"available_markets":["AR","AU","AT","BE","BO","BR","BG","CA","CL","CO","CR","CY","CZ","DK","DO","DE","EC","EE","SV","FI","FR","GR","GT","HN","HK","HU","IS","IE","IT","LV","LT","LU","MY","MT","MX","NL","NZ","NI","NO","PA","PY","PE","PH","PL","PT","SG","SK","ES","SE","CH","TW","TR","UY","US","GB","AD","LI","MC","ID","JP","TH","VN","RO","IL","ZA","SA","AE","BH","QA","OM","KW","EG","MA","DZ","TN","LB","JO","PS","IN","BY","KZ","MD","UA","AL","BA","HR","ME","MK","RS","SI","KR","BD","PK","LK","GH","KE","NG","TZ","UG","AG","AM","BS","BB","BZ","BT","BW","BF","CV","CW","DM","FJ","GM","GE","GD","GW","GY","HT","JM","KI","LS","LR","MW","MV","ML","MH","FM","NA","NR","NE","PW","PG","WS","SM","ST","SN","SC","SL","SB","KN","LC","VC","SR","TL","TO","TT","TV","VU","AZ","BN","BI","KH","CM","TD","KM","GQ","SZ","GA","GN","KG","LA","MO","MR","MN","NP","RW","TG","UZ","ZW","BJ","MG","MU","MZ","AO","CI","DJ","ZM","CD","CG","IQ","LY","TJ","VE","ET","XK"],"external_urls":{"spotify":"https://open.spotify.com/album/3CCnGldVQ90c26aFATC1PW"},"href":"https://api.spotify.com/v1/albums/3CCnGldVQ90c26aFATC1PW","id":"3CCnGldVQ90c26aFATC1PW","images":[{"height":640,"width":640,"url":"https://i.scdn.co/image/ab67616d0000b273f4ca75192df162f78a24023e"},{"height":300,"width":300,"url":"https://i.scdn.co/image/ab67616d00001e02f4ca75192df162f78a24023e"},{"height":64,"width":64,"url":"https://i.scdn.co/image/ab67616d00004851f4ca75192df162f78a24023e"}],"is_playable":true,"name":"4 Your Eyez Only","release_date":"2016-12-09","release_date_precision":"day","total_tracks":10,"type":"album","uri":"spotify:album:3CCnGldVQ90c26aFATC1PW"},"artists":[{"external_urls":{"spotify":"https://open.spotify.com/artist/6l3HvQ5sa6mXTsMTB19rO5"},"href":"https://api.spotify.com/v1/artists/6l3HvQ5sa6mXTsMTB19rO5","id":"6l3HvQ5sa6mXTsMTB19rO5","name":"J. Cole","type":"artist","uri":"spotify:artist:6l3HvQ5sa6mXTsMTB19rO5"}],"available_markets":["AR","AU","AT","BE","BO","BR","BG","CA","CL","CO","CR","CY","CZ","DK","DO","DE","EC","EE","SV","FI","FR","GR","GT","HN","HK","HU","IS","IE","IT","LV","LT","LU","MY","MT","MX","NL","NZ","NI","NO","PA","PY","PE","PH","PL","PT","SG","SK","ES","SE","CH","TW","TR","UY","US","GB","AD","LI","MC","ID","JP","TH","VN","RO","IL","ZA","SA","AE","BH","QA","OM","KW","EG","MA","DZ","TN","LB","JO","PS","IN","BY","KZ","MD","UA","AL","BA","HR","ME","MK","RS","SI","KR","BD","PK","LK","GH","KE","NG","TZ","UG","AG","AM","BS","BB","BZ","BT","BW","BF","CV","CW","DM","FJ","GM","GE","GD","GW","GY","HT","JM","KI","LS","LR","MW","MV","ML","MH","FM","NA","NR","NE","PW","PG","WS","SM","ST","SN","SC","SL","SB","KN","LC","VC","SR","TL","TO","TT","TV","VU","AZ","BN","BI","KH","CM","TD","KM","GQ","SZ","GA","GN","KG","LA","MO","MR","MN","NP","RW","TG","UZ","ZW","BJ","MG","MU","MZ","AO","CI","DJ","ZM","CD","CG","IQ","LY","TJ","VE","ET","XK"],"disc_number":1,"duration_ms":530253,"explicit":false,"external_ids":{"isrc":"QMJMT1601094"},"external_urls":{"spotify":"https://open.spotify.com/track/1vvnYpYEMVB4aq9I6tHIEB"},"href":"https://api.spotify.com/v1/tracks/1vvnYpYEMVB4aq9I6tHIEB","id":"1vvnYpYEMVB4aq9I6tHIEB","is_local":false,"is_playable":true,"name":"4 Your Eyez Only","popularity":67,"preview_url":null,"track_number":10,"type":"track","uri":"spotify:track:1vvnYpYEMVB4aq9I6tHIEB"},{"album":{"album_type":"album","artists":[{"external_urls":{"spotify":"https://open.spotify.com/artist/1385hLNbrnbCJGokfH2ac2"},"href":"https://api.spotify.com/v1/artists/1385hLNbrnbCJGokfH2ac2","id":"1385hLNbrnbCJGokfH2ac2","name":"Franz Liszt","type":"artist","uri":"spotify:artist:1385hLNbrnbCJGokfH2ac2"},{"external_urls":{"spotify":"https://open.spotify.com/artist/5gTLttJUFVyUlYPsoK0dUN"},"href":"https://api.spotify.com/v1/artists/5gTLttJUFVyUlYPsoK0dUN","id":"5gTLttJUFVyUlYPsoK0dUN","name":"Eunyoung Choi","type":"artist","uri":"spotify:artist:5gTLttJUFVyUlYPsoK0dUN"}],"available_markets":["AR","AU","AT","BE","BO","BR","BG","CA","CL","CO","CR","CY","CZ","DK","DO","DE","EC","EE","SV","FI","FR","GR","GT","HN","HK","HU","IS","IE","IT","LV","LT","LU","MY","MT","MX","NL","NZ","NI","NO","PA","PY","PE","PH","PL","PT","SG","SK","ES","SE","CH","TW","TR","UY","US","GB","AD","LI","MC","ID","JP","TH","VN","RO","IL","ZA","SA","AE","BH","QA","OM","KW","EG","MA","DZ","TN","LB","JO","PS","IN","BY","KZ","MD","UA","AL","BA","HR","ME","MK","RS","SI","KR","BD","PK","LK","GH","KE","NG","TZ","UG","AG","AM","BS","BB","BZ","BT","BW","BF","CV","CW","DM","FJ","GM","GE","GD","GW","GY","HT","JM","KI","LS","LR","MW","MV","ML","MH","FM","NA","NR","NE","PW","PG","PR","WS","SM","ST","SN","SC","SL","SB","KN","LC","VC","SR","TL","TO","TT","TV","VU","AZ","BN","BI","KH","CM","TD","KM","GQ","SZ","GA","GN","KG","LA","MO","MR","MN","NP","RW","TG","UZ","ZW","BJ","MG","MU","MZ","AO","CI","DJ","ZM","CD","CG","IQ","LY","TJ","VE","ET","XK"],"external_urls":{"spotify":"https://open.spotify.com/album/6ohF9mDosGUWhvoFqg0MaQ"},"href":"https://api.spotify.com/v1/albums/6ohF9mDosGUWhvoFqg0MaQ","id":"6ohF9mDosGUWhvoFqg0MaQ","images":[{"height":640,"width":640,"url":"https://i.scdn.co/image/ab67616d0000b2734c3b11301496237723b8c0c1"},{"height":300,"width":300,"url":"https://i.scdn.co/image/ab67616d00001e024c3b11301496237723b8c0c1"},{"height":64,"width":64,"url":"https://i.scdn.co/image/ab67616d000048514c3b11301496237723b8c0c1"}],"is_playable":true,"name":"A Virtuoso on the Keyboard, Liszt (Live)","release_date":"2026-02-04","release_date_precision":"day","total_tracks":7,"type":"album","uri":"spotify:album:6ohF9mDosGUWhvoFqg0MaQ"},"artists":[{"external_urls":{"spotify":"https://open.spotify.com/artist/1385hLNbrnbCJGokfH2ac2"},"href":"https://api.spotify.com/v1/artists/1385hLNbrnbCJGokfH2ac2","id":"1385hLNbrnbCJGokfH2ac2","name":"Franz Liszt","type":"artist","uri":"spotify:artist:1385hLNbrnbCJGokfH2ac2"},{"external_urls":{"spotify":"https://open.spotify.com/artist/5gTLttJUFVyUlYPsoK0dUN"},"href":"https://api.spotify.com/v1/artists/5gTLttJUFVyUlYPsoK0dUN","id":"5gTLttJUFVyUlYPsoK0dUN","name":"Eunyoung Choi","type":"artist","uri":"spotify:artist:5gTLttJUFVyUlYPsoK0dUN"}],"available_markets":["AR","AU","AT","BE","BO","BR","BG","CA","CL","CO","CR","CY","CZ","DK","DO","DE","EC","EE","SV","FI","FR","GR","GT","HN","HK","HU","IS","IE","IT","LV","LT","LU","MY","MT","MX","NL","NZ","NI","NO","PA","PY","PE","PH","PL","PT","SG","SK","ES","SE","CH","TW","TR","UY","US","GB","AD","LI","MC","ID","JP","TH","VN","RO","IL","ZA","SA","AE","BH","QA","OM","KW","EG","MA","DZ","TN","LB","JO","PS","IN","BY","KZ","MD","UA","AL","BA","HR","ME","MK","RS","SI","KR","BD","PK","LK","GH","KE","NG","TZ","UG","AG","AM","BS","BB","BZ","BT","BW","BF","CV","CW","DM","FJ","GM","GE","GD","GW","GY","HT","JM","KI","LS","LR","MW","MV","ML","MH","FM","NA","NR","NE","PW","PG","PR","WS","SM","ST","SN","SC","SL","SB","KN","LC","VC","SR","TL","TO","TT","TV","VU","AZ","BN","BI","KH","CM","TD","KM","GQ","SZ","GA","GN","KG","LA","MO","MR","MN","NP","RW","TG","UZ","ZW","BJ","MG","MU","MZ","AO","CI","DJ","ZM","CD","CG","IQ","LY","TJ","VE","ET","XK"],"disc_number":1,"duration_ms":418000,"explicit":false,"external_ids":{"isrc":"USB8U2504728"},"external_urls":{"spotify":"https://open.spotify.com/track/0pz206RphArlTs3BfZ5ca0"},"href":"https://api.spotify.com/v1/tracks/0pz206RphArlTs3BfZ5ca0","id":"0pz206RphArlTs3BfZ5ca0","is_local":false,"is_playable":true,"name":"Harmonies poétiques et religieuses, S. 173: No. 2, Ave Maria - Live","popularity":0,"preview_url":null,"track_number":6,"type":"track","uri":"spotify:track:0pz206RphArlTs3BfZ5ca0"}]}}