{"tracks":{"href":"https://api.spotify.com/v1/search?offset=0&limit=1&query=We%27ll%20Sweep%20Out%20The%20Ashes%20In%20The%20Morning%20Gram%20Parsons&type=track","limit":1,"next":"https://api.spotify.com/v1/search?offset=1&limit=1&query=We%27ll%20Sweep%20Out%20The%20Ashes%20In%20The%20Morning%20Gram%20Parsons&type=track","offset":0,"previous":null,"total":1000,"items":[{"album":{"album_type":"album","artists":[{"external_urls":{"spotify":"https://open.spotify.com/artist/1KA3WXYMPLxomNuoE22LYd"},"href":"https://api.spotify.com/v1/artists/1KA3WXYMPLxomNuoE22LYd","id":"1KA3WXYMPLxomNuoE22LYd","name":"Gram Parsons","type":"artist","uri":"spotify:artist:1KA3WXYMPLxomNuoE22LYd"}],"available_markets":["AR","AU","AT","BE","BO","BR","BG","CA","CL","CO","CR","CY","CZ","DK","DO","DE","EC","EE","SV","FI","FR","GR","GT","HN","HK","HU","IS","IE","IT","LV","LT","LU","MY","MT","MX","NL","NZ","NI","NO","PA","PY","PE","PH","PL","PT","SG","SK","ES","SE","CH","TW","TR","UY","US","GB","AD","LI","MC","ID","JP","TH","VN","RO","IL","ZA","SA","AE","BH","QA","OM","KW","EG","MA","DZ","TN","LB","JO","PS","IN","BY","KZ","MD","UA","AL","BA","HR","ME","MK","RS","SI","KR","BD","PK","LK","GH","KE","NG","TZ","UG","AG","AM","BS","BB","BZ","BT","BW","BF","CV","CW","DM","FJ","GM","GE","GD","GW","GY","HT","JM","KI","LS","LR","MW","MV","ML","MH","FM","NA","NR","NE","PW","PG","WS","SM","ST","SN","SC","SL","SB","KN","LC","VC","SR","TL","TO","TT","TV","VU","AZ","BN","BI","KH","CM","TD","KM","GQ","SZ","GA","GN","KG","LA","MO","MR","MN","NP","RW","TG","UZ","ZW","BJ","MG","MU","MZ","AO","CI","DJ","ZM","CD","CG","IQ","LY","TJ","VE","ET","XK"],"external_urls":{"spotify":"https://open.spotify.com/album/1PtpuplCBaViRQsJFAdWRf"},"href":"https://api.spotify.com/v1/albums/1PtpuplCBaViRQsJFAdWRf","id":"1PtpuplCBaViRQsJFAdWRf","images":[{"height":640,"width":640,"url":"https://i.scdn.co/image/ab67616d0000b2735bd94a7c1d651fe144dc2872"},{"height":300,"width":300,"url":"https://i.scdn.co/image/ab67616d00001e025bd94a7c1d651fe144dc2872"},{"height":64,"width":64,"url":"https://i.scdn.co/image/ab67616d000048515bd94a7c1d651fe144dc2872"}],"is_playable":true,"name":"GP","release_date":"1973","release_date_precision":"year","total_tracks":11,"type":"album","uri":"spotify:album:1PtpuplCBaViRQsJFAdWRf"},"artists":[{"external_urls":{"spotify":"https://open.spotify.com/artist/1KA3WXYMPLxomNuoE22LYd"},"href":"https://api.spotify.com/v1/artists/1KA3WXYMPLxomNuoE22LYd","id":"1KA3WXYMPLxomNuoE22LYd","name":"Gram Parsons","type":"artist","uri":"spotify:artist:1KA3WXYMPLxomNuoE22LYd"}],"available_markets":["AR","AU","AT","BE","BO","BR","BG","CA","CL","CO","CR","CY","CZ","DK","DO","DE","EC","EE","SV","FI","FR","GR","GT","HN","HK","HU","IS","IE","IT","LV","LT","LU","MY","MT","MX","NL","NZ","NI","NO","PA","PY","PE","PH","PL","PT","SG","SK","ES","SE","CH","TW","TR","UY","US","GB","AD","LI","MC","ID","JP","TH","VN","RO","IL","ZA","SA","AE","BH","QA","OM","KW","EG","MA","DZ","TN","LB","JO","PS","IN","BY","KZ","MD","UA","AL","BA","HR","ME","MK","RS","SI","KR","BD","PK","LK","GH","KE","NG","TZ","UG","AG","AM","BS","BB","BZ","BT","BW","BF","CV","CW","DM","FJ","GM","GE","GD","GW","GY","HT","JM","KI","LS","LR","MW","MV","ML","MH","FM","NA","NR","NE","PW","PG","WS","SM","ST","SN","SC","SL","SB","KN","LC","VC","SR","TL","TO","TT","TV","VU","AZ","BN","BI","KH","CM","TD","KM","GQ","SZ","GA","GN","KG","LA","MO","MR","MN","NP","RW","TG","UZ","ZW","BJ","MG","MU","MZ","AO","CI","DJ","ZM","CD","CG","IQ","LY","TJ","VE","ET","XK"],"disc_number":1,"duration_ms":194933,"explicit":false,"external_ids":{"isrc":"USRE10700763"},"external_urls":{"spotify":"https://open.spotify.com/track/3JsEYcCdBXiDUsuDqcZpaa"},"href":"https://api.spotify.com/v1/tracks/3JsEYcCdBXiDUsuDqcZpaa","id":"3JsEYcCdBXiDUsuDqcZpaa","is_local":false,"is_playable":true,"name":"We'll Sweep out the Ashes in the Morning - 2007 Remaster","popularity":33,"preview_url":null,"track_number":2,"type":"track","uri":"spotify:track:3JsEYcCdBXiDUsuDqcZpaa"}]}}