{"albums":{"href":"https://api.spotify.com/v1/search?offset=0&limit=1&query=Miles%20Davis%20Kind%20of%20Blue&type=album","limit":1,"next":"https://api.spotify.com/v1/search?offset=1&limit=1&query=Miles%20Davis%20Kind%20of%20Blue&type=album","offset":0,"previous":null,"total":807,"items":[{"album_type":"album","total_tracks":5,"available_markets":["AR","AU","AT","BE","BO","BR","BG","CA","CL","CO","CR","CY","CZ","DK","DO","DE","EC","EE","SV","FI","FR","GR","GT","HN","HK","HU","IS","IE","IT","LV","LT","LU","MY","MT","MX","NL","NZ","NI","NO","PA","PY","PE","PH","PL","PT","SG","SK","ES","SE","CH","TW","TR","UY","US","GB","AD","LI","MC","ID","JP","TH","VN","RO","IL","ZA","SA","AE","BH","QA","OM","KW","EG","MA","DZ","TN","LB","JO","PS","IN","BY","KZ","MD","UA","AL","BA","HR","ME","MK","RS","SI","KR","BD","PK","LK","GH","KE","NG","TZ","UG","AG","AM","BS","BB","BZ","BT","BW","BF","CV","CW","DM","FJ","GM","GE","GD","GW","GY","HT","JM","KI","LS","LR","MW","MV","ML","MH","FM","NA","NR","NE","PW","PG","PR","WS","SM","ST","SN","SC","SL","SB","KN","LC","VC","SR","TL","TO","TT","TV","VU","AZ","BN","BI","KH","CM","TD","KM","GQ","SZ","GA","GN","KG","LA","MO","MR","MN","NP","RW","TG","UZ","ZW","BJ","MG","MU","MZ","AO","CI","DJ","ZM","CD","CG","IQ","LY","TJ","VE","ET","XK"],"external_urls":{"spotify":"https://open.spotify.com/album/1weenld61qoidwYuZ1GESA"},"href":"https://api.spotify.com/v1/albums/1weenld61qoidwYuZ1GESA","id":"1weenld61qoidwYuZ1GESA","images":[{"height":640,"url":"https://i.scdn.co/image/ab67616d0000b273387a29c90de3b2398c29c34f","width":640},{"height":300,"url":"https://i.scdn.co/image/ab67616d00001e02387a29c90de3b2398c29c34f","width":300},{"height":64,"url":"https://i.scdn.co/image/ab67616d00004851387a29c90de3b2398c29c34f","width":64}],"name":"Kind Of Blue","release_date":"1959-08-17","release_date_precision":"day","type":"album","uri":"spotify:album:1weenld61qoidwYuZ1GESA","artists":[{"external_urls":{"spotify":"https://open.spotify.com/artist/0kbYTNQb4Pb1rPbbaF0pT4"},"href":"https://api.spotify.com/v1/artists/0kbYTNQb4Pb1rPbbaF0pT4","id":"0kbYTNQb4Pb1rPbbaF0pT4","name":"Miles Davis","type":"artist","uri":"spotify:artist:0kbYTNQb4Pb1rPbbaF0pT4"}]}]}}