{"tracks":{"href":"https://api.spotify.com/v1/search?offset=0&limit=1&query=Love%20Hurts%20Gram%20Parsons&type=track","limit":1,"next":"https://api.spotify.com/v1/search?offset=1&limit=1&query=Love%20Hurts%20Gram%20Parsons&type=track","offset":0,"previous":null,"total":1000,"items":[{"album":{"album_type":"album","artists":[{"external_urls":{"spotify":"https://open.spotify.com/artist/1KA3WXYMPLxomNuoE22LYd"},"href":"https://api.spotify.com/v1/artists/1KA3WXYMPLxomNuoE22LYd","id":"1KA3WXYMPLxomNuoE22LYd","name":"Gram Parsons","type":"artist","uri":"spotify:artist:1KA3WXYMPLxomNuoE22LYd"}],"available_markets":["AR","AU","AT","BE","BO","BR","BG","CA","CL","CO","CR","CY","CZ","DK","DO","DE","EC","EE","SV","FI","FR","GR","GT","HN","HK","HU","IS","IE","IT","LV","LT","LU","MY","MT","MX","NL","NZ","NI","NO","PA","PY","PE","PH","PL","PT","SG","SK","ES","SE","CH","TW","TR","UY","US","GB","AD","LI","MC","ID","JP","TH","VN","RO","IL","ZA","SA","AE","BH","QA","OM","KW","EG","MA","DZ","TN","LB","JO","PS","IN","BY","KZ","MD","UA","AL","BA","HR","ME","MK","RS","SI","KR","BD","PK","LK","GH","KE","NG","TZ","UG","AG","AM","BS","BB","BZ","BT","BW","BF","CV","CW","DM","FJ","GM","GE","GD","GW","GY","HT","JM","KI","LS","LR","MW","MV","ML","MH","FM","NA","NR","NE","PW","PG","WS","SM","ST","SN","SC","SL","SB","KN","LC","VC","SR","TL","TO","TT","TV","VU","AZ","BN","BI","KH","CM","TD","KM","GQ","SZ","GA","GN","KG","LA","MO","MR","MN","NP","RW","TG","UZ","ZW","BJ","MG","MU","MZ","AO","CI","DJ","ZM","CD","CG","IQ","LY","TJ","VE","ET","XK"],"external_urls":{"spotify":"https://open.spotify.com/album/6UQujMGmR5MbFsML9amCuN"},"href":"https://api.spotify.com/v1/albums/6UQujMGmR5MbFsML9amCuN","id":"6UQujMGmR5MbFsML9amCuN","images":[{"height":640,"width":640,"url":"https://i.scdn.co/image/ab67616d0000b2734c5fedbe6cf1a65f70d5c30e"},{"height":300,"width":300,"url":"https://i.scdn.co/image/ab67616d00001e024c5fedbe6cf1a65f70d5c30e"},{"height":64,"width":64,"url":"https://i.scdn.co/image/ab67616d000048514c5fedbe6cf1a65f70d5c30e"}],"is_playable":true,"name":"Grievous Angel","release_date":"1974","release_date_precision":"year","total_tracks":9,"type":"album","uri":"spotify:album:6UQujMGmR5MbFsML9amCuN"},"artists":[{"external_urls":{"spotify":"https://open.spotify.com/artist/1KA3WXYMPLxomNuoE22LYd"},"href":"https://api.spotify.com/v1/artists/1KA3WXYMPLxomNuoE22LYd","id":"1KA3WXYMPLxomNuoE22LYd","name":"Gram Parsons","type":"artist","uri":"spotify:artist:1KA3WXYMPLxomNuoE22LYd"}],"available_markets":["AR","AU","AT","BE","BO","BR","BG","CA","CL","CO","CR","CY","CZ","DK","DO","DE","EC","EE","SV","FI","FR","GR","GT","HN","HK","HU","IS","IE","IT","LV","LT","LU","MY","MT","MX","NL","NZ","NI","NO","PA","PY","PE","PH","PL","PT","SG","SK","ES","SE","CH","TW","TR","UY","US","GB","AD","LI","MC","ID","JP","TH","VN","RO","IL","ZA","SA","AE","BH","QA","OM","KW","EG","MA","DZ","TN","LB","JO","PS","IN","BY","KZ","MD","UA","AL","BA","HR","ME","MK","RS","SI","KR","BD","PK","LK","GH","KE","NG","TZ","UG","AG","AM","BS","BB","BZ","BT","BW","BF","CV","CW","DM","FJ","GM","GE","GD","GW","GY","HT","JM","KI","LS","LR","MW","MV","ML","MH","FM","NA","NR","NE","PW","PG","WS","SM","ST","SN","SC","SL","SB","KN","LC","VC","SR","TL","TO","TT","TV","VU","AZ","BN","BI","KH","CM","TD","KM","GQ","SZ","GA","GN","KG","LA","MO","MR","MN","NP","RW","TG","UZ","ZW","BJ","MG","MU","MZ","AO","CI","DJ","ZM","CD","CG","IQ","LY","TJ","VE","ET","XK"],"disc_number":1,"duration_ms":222293,"explicit":false,"external_ids":{"isrc":"USRE10700771"},"external_urls":{"spotify":"https://open.spotify.com/track/72DefuF22C6aPKrWhRFCBS"},"href":"https://api.spotify.com/v1/tracks/72DefuF22C6aPKrWhRFCBS","id":"72DefuF22C6aPKrWhRFCBS","is_local":false,"is_playable":true,"name":"Love Hurts - 2007 Remaster","popularity":51,"preview_url":null,"track_number":7,"type":"track","uri":"spotify:track:72DefuF22C6aPKrWhRFCBS"}]}}