{"tracks":{"href":"https://api.spotify.com/v1/search?offset=0&limit=1&query=In%20The%20Meantime%20Spacehog&type=track","limit":1,"next":"https://api.spotify.com/v1/search?offset=1&limit=1&query=In%20The%20Meantime%20Spacehog&type=track","offset":0,"previous":null,"total":1000,"items":[{"album":{"album_type":"album","artists":[{"external_urls":{"spotify":"https://open.spotify.com/artist/3NZE8jDD2cCzd4vUyZ5CQQ"},"href":"https://api.spotify.com/v1/artists/3NZE8jDD2cCzd4vUyZ5CQQ","id":"3NZE8jDD2cCzd4vUyZ5CQQ","name":"Spacehog","type":"artist","uri":"spotify:artist:3NZE8jDD2cCzd4vUyZ5CQQ"}],"available_markets":["AR","AU","AT","BE","BO","BR","BG","CA","CL","CO","CR","CY","CZ","DK","DO","DE","EC","EE","SV","FI","FR","GR","GT","HN","HK","HU","IS","IE","IT","LV","LT","LU","MY","MT","MX","NL","NZ","NI","NO","PA","PY","PE","PH","PL","PT","SG","SK","ES","SE","CH","TW","TR","UY","US","GB","AD","LI","MC","ID","JP","TH","VN","RO","IL","ZA","SA","AE","BH","QA","OM","KW","EG","MA","DZ","TN","LB","JO","PS","IN","BY","KZ","MD","UA","AL","BA","HR","ME","MK","RS","SI","KR","BD","PK","LK","GH","KE","NG","TZ","UG","AG","AM","BS","BB","BZ","BT","BW","BF","CV","CW","DM","FJ","GM","GE","GD","GW","GY","HT","JM","KI","LS","LR","MW","MV","ML","MH","FM","NA","NR","NE","PW","PG","WS","SM","ST","SN","SC","SL","SB","KN","LC","VC","SR","TL","TO","TT","TV","VU","AZ","BN","BI","KH","CM","TD","KM","GQ","SZ","GA","GN","KG","LA","MO","MR","MN","NP","RW","TG","UZ","ZW","BJ","MG","MU","MZ","AO","CI","DJ","ZM","CD","CG","IQ","LY","TJ","VE","ET","XK"],"external_urls":{"spotify":"https://open.spotify.com/album/6vOmA5zWeFeKvuRBxaO59A"},"href":"https://api.spotify.com/v1/albums/6vOmA5zWeFeKvuRBxaO59A","id":"6vOmA5zWeFeKvuRBxaO59A","images":[{"height":640,"width":640,"url":"https://i.scdn.co/image/ab67616d0000b2739511e3a2fc113eae0dd111dd"},{"height":300,"width":300,"url":"https://i.scdn.co/image/ab67616d00001e029511e3a2fc113eae0dd111dd"},{"height":64,"width":64,"url":"https://i.scdn.co/image/ab67616d000048519511e3a2fc113eae0dd111dd"}],"is_playable":true,"name":"Resident Alien","release_date":"1995","release_date_precision":"year","total_tracks":13,"type":"album","uri":"spotify:album:6vOmA5zWeFeKvuRBxaO59A"},"artists":[{"external_urls":{"spotify":"https://open.spotify.com/artist/3NZE8jDD2cCzd4vUyZ5CQQ"},"href":"https://api.spotify.com/v1/artists/3NZE8jDD2cCzd4vUyZ5CQQ","id":"3NZE8jDD2cCzd4vUyZ5CQQ","name":"Spacehog","type":"artist","uri":"spotify:artist:3NZE8jDD2cCzd4vUyZ5CQQ"}],"available_markets":["AR","AU","AT","BE","BO","BR","BG","CA","CL","CO","CR","CY","CZ","DK","DO","DE","EC","EE","SV","FI","FR","GR","GT","HN","HK","HU","IS","IE","IT","LV","LT","LU","MY","MT","MX","NL","NZ","NI","NO","PA","PY","PE","PH","PL","PT","SG","SK","ES","SE","CH","TW","TR","UY","US","GB","AD","LI","MC","ID","JP","TH","VN","RO","IL","ZA","SA","AE","BH","QA","OM","KW","EG","MA","DZ","TN","LB","JO","PS","IN","BY","KZ","MD","UA","AL","BA","HR","ME","MK","RS","SI","KR","BD","PK","LK","GH","KE","NG","TZ","UG","AG","AM","BS","BB","BZ","BT","BW","BF","CV","CW","DM","FJ","GM","GE","GD","GW","GY","HT","JM","KI","LS","LR","MW","MV","ML","MH","FM","NA","NR","NE","PW","PG","WS","SM","ST","SN","SC","SL","SB","KN","LC","VC","SR","TL","TO","TT","TV","VU","AZ","BN","BI","KH","CM","TD","KM","GQ","SZ","GA","GN","KG","LA","MO","MR","MN","NP","RW","TG","UZ","ZW","BJ","MG","MU","MZ","AO","CI","DJ","ZM","CD","CG","IQ","LY","TJ","VE","ET","XK"],"disc_number":1,"duration_ms":299506,"explicit":false,"external_ids":{"isrc":"USEE10250270"},"external_urls":{"spotify":"https://open.spotify.com/track/02lTDOxHeXTHsdwXoz6lpC"},"href":"https://api.spotify.com/v1/tracks/02lTDOxHeXTHsdwXoz6lpC","id":"02lTDOxHeXTHsdwXoz6lpC","is_local":false,"is_playable":true,"name":"In the Meantime","popularity":66,"preview_url":null,"track_number":1,"type":"track","uri":"spotify:track:02lTDOxHeXTHsdwXoz6lpC"}]}}