{"albums":{"href":"https://api.spotify.com/v1/search?offset=0&limit=1&query=The%20National%20Boxer&type=album","limit":1,"next":"https://api.spotify.com/v1/search?offset=1&limit=1&query=The%20National%20Boxer&type=album","offset":0,"previous":null,"total":802,"items":[{"album_type":"album","total_tracks":12,"available_markets":["AR","AU","AT","BE","BO","BR","BG","CA","CL","CO","CR","CY","CZ","DK","DO","DE","EC","EE","SV","FI","FR","GR","GT","HN","HK","HU","IS","IE","IT","LV","LT","LU","MY","MT","MX","NL","NZ","NI","NO","PA","PY","PE","PH","PL","PT","SG","SK","ES","SE","CH","TW","TR","UY","GB","AD","LI","MC","ID","JP","TH","VN","RO","IL","ZA","SA","AE","BH","QA","OM","KW","EG","MA","DZ","TN","LB","JO","PS","IN","BY","KZ","MD","UA","AL","BA","HR","ME","MK","RS","SI","KR","BD","PK","LK","GH","KE","NG","TZ","UG","AG","AM","BS","BB","BZ","BT","BW","BF","CV","CW","DM","FJ","GM","GE","GD","GW","GY","HT","JM","KI","LS","LR","MW","MV","ML","MH","FM","NA","NR","NE","PW","PG","WS","SM","ST","SN","SC","SL","SB","KN","LC","VC","SR","TL","TO","TT","TV","VU","AZ","BN","BI","KH","CM","TD","KM","GQ","SZ","GA","GN","KG","LA","MO","MR","MN","NP","RW","TG","UZ","ZW","BJ","MG","MU","MZ","AO","CI","DJ","ZM","CD","CG","IQ","LY","TJ","VE","ET","XK"],"external_urls":{"spotify":"https://open.spotify.com/album/3Td1c2eAXaFzU4F8QCbFbp"},"href":"https://api.spotify.com/v1/albums/3Td1c2eAXaFzU4F8QCbFbp","id":"3Td1c2eAXaFzU4F8QCbFbp","images":[{"height":640,"url":"https://i.scdn.co/image/ab67616d0000b273c7a2d8675f75bc64fbf137d2","width":640},{"height":300,"url":"https://i.scdn.co/image/ab67616d00001e02c7a2d8675f75bc64fbf137d2","width":300},{"height":64,"url":"https://i.scdn.co/image/ab67616d00004851c7a2d8675f75bc64fbf137d2","width":64}],"name":"Boxer","release_date":"2007-05-21","release_date_precision":"day","type":"album","uri":"spotify:album:3Td1c2eAXaFzU4F8QCbFbp","artists":[{"external_urls":{"spotify":"https://open.spotify.com/artist/2cCUtGK9sDU2EoElnk0GNB"},"href":"https://api.spotify.com/v1/artists/2cCUtGK9sDU2EoElnk0GNB","id":"2cCUtGK9sDU2EoElnk0GNB","name":"The National","type":"artist","uri":"spotify:artist:2cCUtGK9sDU2EoElnk0GNB"}]}]}}