{"tracks":{"href":"https://api.spotify.com/v1/search?offset=0&limit=3&query=Sibelius%20Swan%20of%20Tuonela&type=track","limit":3,"next":"https://api.spotify.com/v1/search?offset=3&limit=3&query=Sibelius%20Swan%20of%20Tuonela&type=track","offset":0,"previous":null,"total":1000,"items":[{"album":{"album_type":"album","artists":[{"external_urls":{"spotify":"https://open.spotify.com/artist/7jzR5qj8vFnSu5JHaXgFEr"},"href":"https://api.spotify.com/v1/artists/7jzR5qj8vFnSu5JHaXgFEr","id":"7jzR5qj8vFnSu5JHaXgFEr","name":"Jean Sibelius","type":"artist","uri":"spotify:artist:7jzR5qj8vFnSu5JHaXgFEr"},{"external_urls":{"spotify":"https://open.spotify.com/artist/5cp6B8bMNsXdQKgE6exdzx"},"href":"https://api.spotify.com/v1/artists/5cp6B8bMNsXdQKgE6exdzx","id":"5cp6B8bMNsXdQKgE6exdzx","name":"Oslo Philharmonic Orchestra","type":"artist","uri":"spotify:artist:5cp6B8bMNsXdQKgE6exdzx"},{"external_urls":{"spotify":"https://open.spotify.com/artist/6iGHnrxEjBwhHsZ65HVUiE"},"href":"https://api.spotify.com/v1/artists/6iGHnrxEjBwhHsZ65HVUiE","id":"6iGHnrxEjBwhHsZ65HVUiE","name":"Klaus M채kel채","type":"artist","uri":"spotify:artist:6iGHnrxEjBwhHsZ65HVUiE"}],"available_markets":["AR","AU","AT","BE","BO","BR","BG","CA","CL","CO","CR","CY","CZ","DK","DO","DE","EC","EE","SV","FI","FR","GR","GT","HN","HK","HU","IS","IE","IT","LV","LT","LU","MY","MT","MX","NL","NZ","NI","NO","PA","PY","PE","PH","PL","PT","SG","SK","ES","SE","CH","TW","TR","UY","US","GB","AD","LI","MC","ID","JP","TH","VN","RO","IL","ZA","SA","AE","BH","QA","OM","KW","EG","MA","DZ","TN","LB","JO","PS","IN","KZ","MD","UA","AL","BA","HR","ME","MK","RS","SI","KR","BD","PK","LK","GH","KE","NG","TZ","UG","AG","AM","BS","BB","BZ","BT","BW","BF","CV","CW","DM","FJ","GM","GE","GD","GW","GY","HT","JM","KI","LS","LR","MW","MV","ML","MH","FM","NA","NR","NE","PW","PG","WS","SM","ST","SN","SC","SL","SB","KN","LC","VC","SR","TL","TO","TT","TV","VU","AZ","BN","BI","KH","CM","TD","KM","GQ","SZ","GA","GN","KG","LA","MO","MR","MN","NP","RW","TG","UZ","ZW","BJ","MG","MU","MZ","AO","CI","DJ","ZM","CD","CG","IQ","LY","TJ","VE","ET","XK"],"external_urls":{"spotify":"https://open.spotify.com/album/7uGbWBY2KSfC4t5Ek6yfXP"},"href":"https://api.spotify.com/v1/albums/7uGbWBY2KSfC4t5Ek6yfXP","id":"7uGbWBY2KSfC4t5Ek6yfXP","images":[{"height":640,"width":640,"url":"https://i.scdn.co/image/ab67616d0000b27314576659d7ae20555c191c44"},{"height":300,"width":300,"url":"https://i.scdn.co/image/ab67616d00001e0214576659d7ae20555c191c44"},{"height":64,"width":64,"url":"https://i.scdn.co/image/ab67616d0000485114576659d7ae20555c191c44"}],"is_playable":true,"name":"Sibelius: Symphonies 1-7; Tapiola; 3 Late Fragments","release_date":"2022-03-25","release_date_precision":"day","total_tracks":30,"type":"album","uri":"spotify:album:7uGbWBY2KSfC4t5Ek6yfXP"},"artists":[{"external_urls":{"spotify":"https://open.spotify.com/artist/7jzR5qj8vFnSu5JHaXgFEr"},"href":"https://api.spotify.com/v1/artists/7jzR5qj8vFnSu5JHaXgFEr","id":"7jzR5qj8vFnSu5JHaXgFEr","name":"Jean Sibelius","type":"artist","uri":"spotify:artist:7jzR5qj8vFnSu5JHaXgFEr"},{"external_urls":{"spotify":"https://open.spotify.com/artist/5cp6B8bMNsXdQKgE6exdzx"},"href":"https://api.spotify.com/v1/artists/5cp6B8bMNsXdQKgE6exdzx","id":"5cp6B8bMNsXdQKgE6exdzx","name":"Oslo Philharmonic Orchestra","type":"artist","uri":"spotify:artist:5cp6B8bMNsXdQKgE6exdzx"},{"external_urls":{"spotify":"https://open.spotify.com/artist/6iGHnrxEjBwhHsZ65HVUiE"},"href":"https://api.spotify.com/v1/artists/6iGHnrxEjBwhHsZ65HVUiE","id":"6iGHnrxEjBwhHsZ65HVUiE","name":"Klaus M채kel채","type":"artist","uri":"spotify:artist:6iGHnrxEjBwhHsZ65HVUiE"}],"available_markets":["AR","AU","AT","BE","BO","BR","BG","CA","CL","CO","CR","CY","CZ","DK","DO","DE","EC","EE","SV","FI","FR","GR","GT","HN","HK","HU","IS","IE","IT","LV","LT","LU","MY","MT","MX","NL","NZ","NI","NO","PA","PY","PE","PH","PL","PT","SG","SK","ES","SE","CH","TW","TR","UY","US","GB","AD","LI","MC","ID","JP","TH","VN","RO","IL","ZA","SA","AE","BH","QA","OM","KW","EG","MA","DZ","TN","LB","JO","PS","IN","KZ","MD","UA","AL","BA","HR","ME","MK","RS","SI","KR","BD","PK","LK","GH","KE","NG","TZ","UG","AG","AM","BS","BB","BZ","BT","BW","BF","CV","CW","DM","FJ","GM","GE","GD","GW","GY","HT","JM","KI","LS","LR","MW","MV","ML","MH","FM","NA","NR","NE","PW","PG","WS","SM","ST","SN","SC","SL","SB","KN","LC","VC","SR","TL","TO","TT","TV","VU","AZ","BN","BI","KH","CM","TD","KM","GQ","SZ","GA","GN","KG","LA","MO","MR","MN","NP","RW","TG","UZ","ZW","BJ","MG","MU","MZ","AO","CI","DJ","ZM","CD","CG","IQ","LY","TJ","VE","ET","XK"],"disc_number":1,"duration_ms":869546,"explicit":false,"external_ids":{"isrc":"GBBBC2100803"},"external_urls":{"spotify":"https://open.spotify.com/track/23hshi7pOIhCDGkxmog4B1"},"href":"https://api.spotify.com/v1/tracks/23hshi7pOIhCDGkxmog4B1","id":"23hshi7pOIhCDGkxmog4B1","is_local":false,"is_playable":true,"name":"Symphony No. 2 in D Major, Op. 43: IV. Finale. Allegro moderato","popularity":16,"preview_url":null,"track_number":8,"type":"track","uri":"spotify:track:23hshi7pOIhCDGkxmog4B1"},{"album":{"album_type":"album","artists":[{"external_urls":{"spotify":"https://open.spotify.com/artist/7jzR5qj8vFnSu5JHaXgFEr"},"href":"https://api.spotify.com/v1/artists/7jzR5qj8vFnSu5JHaXgFEr","id":"7jzR5qj8vFnSu5JHaXgFEr","name":"Jean Sibelius","type":"artist","uri":"spotify:artist:7jzR5qj8vFnSu5JHaXgFEr"},{"external_urls":{"spotify":"https://open.spotify.com/artist/6uRJnvQ3f8whVnmeoecv5Z"},"href":"https://api.spotify.com/v1/artists/6uRJnvQ3f8whVnmeoecv5Z","id":"6uRJnvQ3f8whVnmeoecv5Z","name":"Berliner Philharmoniker","type":"artist","uri":"spotify:artist:6uRJnvQ3f8whVnmeoecv5Z"},{"external_urls":{"spotify":"https://open.spotify.com/artist/5zCaQxjl110XTrm4LQ1CxY"},"href":"https://api.spotify.com/v1/artists/5zCaQxjl110XTrm4LQ1CxY","id":"5zCaQxjl110XTrm4LQ1CxY","name":"Herbert von Karajan","type":"artist","uri":"spotify:artist:5zCaQxjl110XTrm4LQ1CxY"}],"available_markets":["AR","AU","AT","BE","BO","BR","BG","CA","CL","CO","CR","CY","CZ","DK","DO","DE","EC","EE","SV","FI","FR","GR","GT","HN","HK","HU","IS","IE","IT","LV","LT","LU","MY","MT","MX","NL","NZ","NI","NO","PA","PY","PE","PH","PL","PT","SG","SK","ES","SE","CH","TW","TR","UY","US","GB","AD","LI","MC","ID","JP","TH","VN","RO","IL","ZA","SA","AE","EG","TN","PS","IN","BY","KZ","MD","UA","AL","BA","HR","ME","MK","RS","SI","KR","PK","LK","GH","KE","NG","TZ","UG","AG","AM","BS","BB","BZ","BT","BW","BF","CV","CW","DM","FJ","GM","GD","GW","GY","JM","KI","LS","LR","MW","MV","ML","MH","FM","NA","NR","NE","PW","PG","WS","ST","SN","SC","SL","SB","KN","LC","VC","SR","TL","TO","TT","TV","AZ","BN","BI","KH","CM","TD","KM","GQ","SZ","GA","GN","KG","LA","MO","MR","MN","NP","RW","TG","UZ","ZW","BJ","MG","MU","MZ","AO","CI","DJ","ZM","CD","CG","TJ","VE","XK"],"external_urls":{"spotify":"https://open.spotify.com/album/4EHR0kyDonVmJw4FeHUsWi"},"href":"https://api.spotify.com/v1/albums/4EHR0kyDonVmJw4FeHUsWi","id":"4EHR0kyDonVmJw4FeHUsWi","images":[{"height":640,"width":640,"url":"https://i.scdn.co/image/ab67616d0000b2731c6cc2475c8320a617fdd460"},{"height":300,"width":300,"url":"https://i.scdn.co/image/ab67616d00001e021c6cc2475c8320a617fdd460"},{"height":64,"width":64,"url":"https://i.scdn.co/image/ab67616d000048511c6cc2475c8320a617fdd460"}],"is_playable":true,"name":"Sibelius: Finlandia; Valse triste; Tapiola; The Swan of Tuonela","release_date":"1984-01-01","release_date_precision":"day","total_tracks":4,"type":"album","uri":"spotify:album:4EHR0kyDonVmJw4FeHUsWi"},"artists":[{"external_urls":{"spotify":"https://open.spotify.com/artist/7jzR5qj8vFnSu5JHaXgFEr"},"href":"https://api.spotify.com/v1/artists/7jzR5qj8vFnSu5JHaXgFEr","id":"7jzR5qj8vFnSu5JHaXgFEr","name":"Jean Sibelius","type":"artist","uri":"spotify:artist:7jzR5qj8vFnSu5JHaXgFEr"},{"external_urls":{"spotify":"https://open.spotify.com/artist/5MJwYM3Vhag5bidEzROpK7"},"href":"https://api.spotify.com/v1/artists/5MJwYM3Vhag5bidEzROpK7","id":"5MJwYM3Vhag5bidEzROpK7","name":"Gerhard Stempnik","type":"artist","uri":"spotify:artist:5MJwYM3Vhag5bidEzROpK7"},{"external_urls":{"spotify":"https://open.spotify.com/artist/6uRJnvQ3f8whVnmeoecv5Z"},"href":"https://api.spotify.com/v1/artists/6uRJnvQ3f8whVnmeoecv5Z","id":"6uRJnvQ3f8whVnmeoecv5Z","name":"Berliner Philharmoniker","type":"artist","uri":"spotify:artist:6uRJnvQ3f8whVnmeoecv5Z"},{"external_urls":{"spotify":"https://open.spotify.com/artist/5zCaQxjl110XTrm4LQ1CxY"},"href":"https://api.spotify.com/v1/artists/5zCaQxjl110XTrm4LQ1CxY","id":"5zCaQxjl110XTrm4LQ1CxY","name":"Herbert von Karajan","type":"artist","uri":"spotify:artist:5zCaQxjl110XTrm4LQ1CxY"}],"available_markets":["AR","AU","AT","BE","BO","BR","BG","CA","CL","CO","CR","CY","CZ","DK","DO","DE","EC","EE","SV","FI","FR","GR","GT","HN","HK","HU","IS","IE","IT","LV","LT","LU","MY","MT","MX","NL","NZ","NI","NO","PA","PY","PE","PH","PL","PT","SG","SK","ES","SE","CH","TW","TR","UY","US","GB","AD","LI","MC","ID","JP","TH","VN","RO","IL","ZA","SA","AE","EG","TN","PS","IN","BY","KZ","MD","UA","AL","BA","HR","ME","MK","RS","SI","KR","PK","LK","GH","KE","NG","TZ","UG","AG","AM","BS","BB","BZ","BT","BW","BF","CV","CW","DM","FJ","GM","GD","GW","GY","JM","KI","LS","LR","MW","MV","ML","MH","FM","NA","NR","NE","PW","PG","WS","ST","SN","SC","SL","SB","KN","LC","VC","SR","TL","TO","TT","TV","AZ","BN","BI","KH","CM","TD","KM","GQ","SZ","GA","GN","KG","LA","MO","MR","MN","NP","RW","TG","UZ","ZW","BJ","MG","MU","MZ","AO","CI","DJ","ZM","CD","CG","TJ","VE","XK"],"disc_number":1,"duration_ms":480266,"explicit":false,"external_ids":{"isrc":"DEF058400040"},"external_urls":{"spotify":"https://open.spotify.com/track/1AW2b6VM2W8ibiBYdn67kf"},"href":"https://api.spotify.com/v1/tracks/1AW2b6VM2W8ibiBYdn67kf","id":"1AW2b6VM2W8ibiBYdn67kf","is_local":false,"is_playable":true,"name":"The Swan of Tuonela, Op. 22 No. 2","popularity":31,"preview_url":null,"track_number":2,"type":"track","uri":"spotify:track:1AW2b6VM2W8ibiBYdn67kf"},{"album":{"album_type":"album","artists":[{"external_urls":{"spotify":"https://open.spotify.com/artist/7jzR5qj8vFnSu5JHaXgFEr"},"href":"https://api.spotify.com/v1/artists/7jzR5qj8vFnSu5JHaXgFEr","id":"7jzR5qj8vFnSu5JHaXgFEr","name":"Jean Sibelius","type":"artist","uri":"spotify:artist:7jzR5qj8vFnSu5JHaXgFEr"},{"external_urls":{"spotify":"https://open.spotify.com/artist/6uRJnvQ3f8whVnmeoecv5Z"},"href":"https://api.spotify.com/v1/artists/6uRJnvQ3f8whVnmeoecv5Z","id":"6uRJnvQ3f8whVnmeoecv5Z","name":"Berliner Philharmoniker","type":"artist","uri":"spotify:artist:6uRJnvQ3f8whVnmeoecv5Z"},{"external_urls":{"spotify":"https://open.spotify.com/artist/5zCaQxjl110XTrm4LQ1CxY"},"href":"https://api.spotify.com/v1/artists/5zCaQxjl110XTrm4LQ1CxY","id":"5zCaQxjl110XTrm4LQ1CxY","name":"Herbert von Karajan","type":"artist","uri":"spotify:artist:5zCaQxjl110XTrm4LQ1CxY"}],"available_markets":["AR","AU","AT","BE","BO","BR","BG","CA","CL","CO","CR","CY","CZ","DK","DO","DE","EC","EE","SV","FI","FR","GR","GT","HN","HK","HU","IS","IE","IT","LV","LT","LU","MY","MT","MX","NL","NZ","NI","NO","PA","PY","PE","PH","PL","PT","SG","SK","ES","SE","CH","TW","TR","UY","US","GB","AD","LI","MC","ID","JP","TH","VN","RO","IL","ZA","SA","AE","EG","TN","PS","IN","BY","KZ","MD","UA","AL","BA","HR","ME","MK","RS","SI","KR","PK","LK","GH","KE","NG","TZ","UG","AG","AM","BS","BB","BZ","BT","BW","BF","CV","CW","DM","FJ","GM","GD","GW","GY","JM","KI","LS","LR","MW","MV","ML","MH","FM","NA","NR","NE","PW","PG","WS","ST","SN","SC","SL","SB","KN","LC","VC","SR","TL","TO","TT","TV","AZ","BN","BI","KH","CM","TD","KM","GQ","SZ","GA","GN","KG","LA","MO","MR","MN","NP","RW","TG","UZ","ZW","BJ","MG","MU","MZ","AO","CI","DJ","ZM","CD","CG","TJ","VE","XK"],"external_urls":{"spotify":"https://open.spotify.com/album/4EHR0kyDonVmJw4FeHUsWi"},"href":"https://api.spotify.com/v1/albums/4EHR0kyDonVmJw4FeHUsWi","id":"4EHR0kyDonVmJw4FeHUsWi","images":[{"height":640,"width":640,"url":"https://i.scdn.co/image/ab67616d0000b2731c6cc2475c8320a617fdd460"},{"height":300,"width":300,"url":"https://i.scdn.co/image/ab67616d00001e021c6cc2475c8320a617fdd460"},{"height":64,"width":64,"url":"https://i.scdn.co/image/ab67616d000048511c6cc2475c8320a617fdd460"}],"is_playable":true,"name":"Sibelius: Finlandia; Valse triste; Tapiola; The Swan of Tuonela","release_date":"1984-01-01","release_date_precision":"day","total_tracks":4,"type":"album","uri":"spotify:album:4EHR0kyDonVmJw4FeHUsWi"},"artists":[{"external_urls":{"spotify":"https://open.spotify.com/artist/7jzR5qj8vFnSu5JHaXgFEr"},"href":"https://api.spotify.com/v1/artists/7jzR5qj8vFnSu5JHaXgFEr","id":"7jzR5qj8vFnSu5JHaXgFEr","name":"Jean Sibelius","type":"artist","uri":"spotify:artist:7jzR5qj8vFnSu5JHaXgFEr"},{"external_urls":{"spotify":"https://open.spotify.com/artist/6uRJnvQ3f8whVnmeoecv5Z"},"href":"https://api.spotify.com/v1/artists/6uRJnvQ3f8whVnmeoecv5Z","id":"6uRJnvQ3f8whVnmeoecv5Z","name":"Berliner Philharmoniker","type":"artist","uri":"spotify:artist:6uRJnvQ3f8whVnmeoecv5Z"},{"external_urls":{"spotify":"https://open.spotify.com/artist/5zCaQxjl110XTrm4LQ1CxY"},"href":"https://api.spotify.com/v1/artists/5zCaQxjl110XTrm4LQ1CxY","id":"5zCaQxjl110XTrm4LQ1CxY","name":"Herbert von Karajan","type":"artist","uri":"spotify:artist:5zCaQxjl110XTrm4LQ1CxY"}],"available_markets":["AR","AU","AT","BE","BO","BR","BG","CA","CL","CO","CR","CY","CZ","DK","DO","DE","EC","EE","SV","FI","FR","GR","GT","HN","HK","HU","IS","IE","IT","LV","LT","LU","MY","MT","MX","NL","NZ","NI","NO","PA","PY","PE","PH","PL","PT","SG","SK","ES","SE","CH","TW","TR","UY","US","GB","AD","LI","MC","ID","JP","TH","VN","RO","IL","ZA","SA","AE","EG","TN","PS","IN","BY","KZ","MD","UA","AL","BA","HR","ME","MK","RS","SI","KR","PK","LK","GH","KE","NG","TZ","UG","AG","AM","BS","BB","BZ","BT","BW","BF","CV","CW","DM","FJ","GM","GD","GW","GY","JM","KI","LS","LR","MW","MV","ML","MH","FM","NA","NR","NE","PW","PG","WS","ST","SN","SC","SL","SB","KN","LC","VC","SR","TL","TO","TT","TV","AZ","BN","BI","KH","CM","TD","KM","GQ","SZ","GA","GN","KG","LA","MO","MR","MN","NP","RW","TG","UZ","ZW","BJ","MG","MU","MZ","AO","CI","DJ","ZM","CD","CG","TJ","VE","XK"],"disc_number":1,"duration_ms":368933,"explicit":false,"external_ids":{"isrc":"DEF058400050"},"external_urls":{"spotify":"https://open.spotify.com/track/7Br8VQqZs2KJESjzCTfezZ"},"href":"https://api.spotify.com/v1/tracks/7Br8VQqZs2KJESjzCTfezZ","id":"7Br8VQqZs2KJESjzCTfezZ","is_local":false,"is_playable":true,"name":"Valse triste, Op. 44 No. 1","popularity":47,"preview_url":null,"track_number":3,"type":"track","uri":"spotify:track:7Br8VQqZs2KJESjzCTfezZ"}]}}