{"albums":{"href":"https://api.spotify.com/v1/search?offset=0&limit=3&query=Roy%20Orbison%20The%20All-Time%20Greatest%20Hits&type=album","limit":3,"next":"https://api.spotify.com/v1/search?offset=3&limit=3&query=Roy%20Orbison%20The%20All-Time%20Greatest%20Hits&type=album","offset":0,"previous":null,"total":800,"items":[{"album_type":"compilation","total_tracks":40,"available_markets":["AR","AU","AT","BE","BO","BR","BG","CA","CL","CO","CR","CY","CZ","DK","DO","DE","EC","EE","SV","FI","FR","GR","GT","HN","HK","HU","IS","IE","IT","LV","LT","LU","MY","MT","MX","NL","NZ","NI","NO","PA","PY","PE","PH","PL","PT","SG","SK","ES","SE","CH","TW","TR","UY","US","GB","AD","LI","MC","ID","JP","TH","VN","RO","IL","ZA","SA","AE","BH","QA","OM","KW","EG","MA","DZ","TN","LB","JO","PS","IN","BY","KZ","MD","UA","AL","BA","HR","ME","MK","RS","SI","KR","BD","PK","LK","GH","KE","NG","TZ","UG","AG","AM","BS","BB","BZ","BT","BW","BF","CV","CW","DM","FJ","GM","GE","GD","GW","GY","HT","JM","KI","LS","LR","MW","MV","ML","MH","FM","NA","NR","NE","PW","PG","PR","WS","SM","ST","SN","SC","SL","SB","KN","LC","VC","SR","TL","TO","TT","TV","VU","AZ","BN","BI","KH","CM","TD","KM","GQ","SZ","GA","GN","KG","LA","MO","MR","MN","NP","RW","TG","UZ","ZW","BJ","MG","MU","MZ","AO","CI","DJ","ZM","CD","CG","IQ","LY","TJ","VE","ET","XK"],"external_urls":{"spotify":"https://open.spotify.com/album/48CvRZSBT0FbOHKLFfHy0n"},"href":"https://api.spotify.com/v1/albums/48CvRZSBT0FbOHKLFfHy0n","id":"48CvRZSBT0FbOHKLFfHy0n","images":[{"height":640,"url":"https://i.scdn.co/image/ab67616d0000b2734516a5d74bac51f3afcba85a","width":640},{"height":300,"url":"https://i.scdn.co/image/ab67616d00001e024516a5d74bac51f3afcba85a","width":300},{"height":64,"url":"https://i.scdn.co/image/ab67616d000048514516a5d74bac51f3afcba85a","width":64}],"name":"The Essential Roy Orbison","release_date":"2006-03-28","release_date_precision":"day","type":"album","uri":"spotify:album:48CvRZSBT0FbOHKLFfHy0n","artists":[{"external_urls":{"spotify":"https://open.spotify.com/artist/0JDkhL4rjiPNEp92jAgJnS"},"href":"https://api.spotify.com/v1/artists/0JDkhL4rjiPNEp92jAgJnS","id":"0JDkhL4rjiPNEp92jAgJnS","name":"Roy Orbison","type":"artist","uri":"spotify:artist:0JDkhL4rjiPNEp92jAgJnS"}]},{"album_type":"single","total_tracks":2,"available_markets":["AR","AU","AT","BE","BO","BR","BG","CA","CL","CO","CR","CY","CZ","DK","DO","DE","EC","EE","SV","FI","FR","GR","GT","HN","HK","HU","IS","IE","IT","LV","LT","LU","MY","MT","MX","NL","NZ","NI","NO","PA","PY","PE","PH","PL","PT","SG","SK","ES","SE","CH","TW","TR","UY","US","GB","AD","LI","MC","ID","JP","TH","VN","RO","IL","ZA","SA","AE","BH","QA","OM","KW","EG","MA","DZ","TN","LB","JO","PS","IN","BY","KZ","MD","UA","AL","BA","HR","ME","MK","RS","SI","KR","BD","PK","LK","GH","KE","NG","TZ","UG","AG","AM","BS","BB","BZ","BT","BW","BF","CV","CW","DM","FJ","GM","GE","GD","GW","GY","HT","JM","KI","LS","LR","MW","MV","ML","MH","FM","NA","NR","NE","PW","PG","PR","WS","SM","ST","SN","SC","SL","SB","KN","LC","VC","SR","TL","TO","TT","TV","VU","AZ","BN","BI","KH","CM","TD","KM","GQ","SZ","GA","GN","KG","LA","MO","MR","MN","NP","RW","TG","UZ","ZW","BJ","MG","MU","MZ","AO","CI","DJ","ZM","CD","CG","IQ","LY","TJ","VE","ET","XK"],"external_urls":{"spotify":"https://open.spotify.com/album/4erAMXv1Uin2wnf1vW4Eqq"},"href":"https://api.spotify.com/v1/albums/4erAMXv1Uin2wnf1vW4Eqq","id":"4erAMXv1Uin2wnf1vW4Eqq","images":[{"height":640,"url":"https://i.scdn.co/image/ab67616d0000b27393a05a82c2ffd70df7beb4ba","width":640},{"height":300,"url":"https://i.scdn.co/image/ab67616d00001e0293a05a82c2ffd70df7beb4ba","width":300},{"height":64,"url":"https://i.scdn.co/image/ab67616d0000485193a05a82c2ffd70df7beb4ba","width":64}],"name":"Only Then","release_date":"2018-02-12","release_date_precision":"day","type":"album","uri":"spotify:album:4erAMXv1Uin2wnf1vW4Eqq","artists":[{"external_urls":{"spotify":"https://open.spotify.com/artist/3ErHVJMsxTq2lLSmnONBm9"},"href":"https://api.spotify.com/v1/artists/3ErHVJMsxTq2lLSmnONBm9","id":"3ErHVJMsxTq2lLSmnONBm9","name":"Roy Kim","type":"artist","uri":"spotify:artist:3ErHVJMsxTq2lLSmnONBm9"}]},{"album_type":"single","total_tracks":2,"available_markets":["AR","AU","AT","BE","BO","BR","BG","CA","CL","CO","CR","CY","CZ","DK","DO","DE","EC","EE","SV","FI","FR","GR","GT","HN","HK","HU","IS","IE","IT","LV","LT","LU","MY","MT","MX","NL","NZ","NI","NO","PA","PY","PE","PH","PL","PT","SG","SK","ES","SE","CH","TW","TR","UY","US","GB","AD","LI","MC","ID","JP","TH","VN","RO","IL","ZA","SA","AE","BH","QA","OM","KW","EG","MA","DZ","TN","LB","JO","PS","IN","BY","KZ","MD","UA","AL","BA","HR","ME","MK","RS","SI","KR","BD","PK","LK","GH","KE","NG","TZ","UG","AG","AM","BS","BB","BZ","BT","BW","BF","CV","CW","DM","FJ","GM","GE","GD","GW","GY","HT","JM","KI","LS","LR","MW","MV","ML","MH","FM","NA","NR","NE","PW","PG","PR","WS","SM","ST","SN","SC","SL","SB","KN","LC","VC","SR","TL","TO","TT","TV","VU","AZ","BN","BI","KH","CM","TD","KM","GQ","SZ","GA","GN","KG","LA","MO","MR","MN","NP","RW","TG","UZ","ZW","BJ","MG","MU","MZ","AO","CI","DJ","ZM","CD","CG","IQ","LY","TJ","VE","ET","XK"],"external_urls":{"spotify":"https://open.spotify.com/album/2d96sKtYbxVpOQVFetsaOr"},"href":"https://api.spotify.com/v1/albums/2d96sKtYbxVpOQVFetsaOr","id":"2d96sKtYbxVpOQVFetsaOr","images":[{"height":640,"url":"https://i.scdn.co/image/ab67616d0000b273c5826db3eb0a26bfb497a408","width":640},{"height":300,"url":"https://i.scdn.co/image/ab67616d00001e02c5826db3eb0a26bfb497a408","width":300},{"height":64,"url":"https://i.scdn.co/image/ab67616d00004851c5826db3eb0a26bfb497a408","width":64}],"name":"No Words Can Say","release_date":"2025-10-27","release_date_precision":"day","type":"album","uri":"spotify:album:2d96sKtYbxVpOQVFetsaOr","artists":[{"external_urls":{"spotify":"https://open.spotify.com/artist/3ErHVJMsxTq2lLSmnONBm9"},"href":"https://api.spotify.com/v1/artists/3ErHVJMsxTq2lLSmnONBm9","id":"3ErHVJMsxTq2lLSmnONBm9","name":"Roy Kim","type":"artist","uri":"spotify:artist:3ErHVJMsxTq2lLSmnONBm9"}]}]}}