{"albums":{"href":"https://api.spotify.com/v1/search?offset=0&limit=1&query=Roy%20Orbison%20Greatest%20Hits&type=album","limit":1,"next":"https://api.spotify.com/v1/search?offset=1&limit=1&query=Roy%20Orbison%20Greatest%20Hits&type=album","offset":0,"previous":null,"total":801,"items":[{"album_type":"compilation","total_tracks":8,"available_markets":["AR","AU","AT","BE","BO","BR","BG","CA","CL","CO","CR","CY","CZ","DK","DO","DE","EC","EE","SV","FI","FR","GR","GT","HN","HK","HU","IS","IE","IT","LV","LT","LU","MY","MT","MX","NL","NZ","NI","NO","PA","PY","PE","PH","PL","PT","SG","SK","ES","SE","CH","TW","TR","UY","US","GB","AD","LI","MC","ID","JP","TH","VN","RO","IL","ZA","SA","AE","BH","QA","OM","KW","EG","MA","DZ","TN","LB","JO","PS","IN","BY","KZ","MD","UA","AL","BA","HR","ME","MK","RS","SI","KR","BD","PK","LK","GH","KE","NG","TZ","UG","AG","AM","BS","BB","BZ","BT","BW","BF","CV","CW","DM","FJ","GM","GE","GD","GW","GY","HT","JM","KI","LS","LR","MW","MV","ML","MH","FM","NA","NR","NE","PW","PG","PR","WS","SM","ST","SN","SC","SL","SB","KN","LC","VC","SR","TL","TO","TT","TV","VU","AZ","BN","BI","KH","CM","TD","KM","GQ","SZ","GA","GN","KG","LA","MO","MR","MN","NP","RW","TG","UZ","ZW","BJ","MG","MU","MZ","AO","CI","DJ","ZM","CD","CG","IQ","LY","TJ","VE","ET","XK"],"external_urls":{"spotify":"https://open.spotify.com/album/5s0Ru9v1r6kzW5KDBIMmdC"},"href":"https://api.spotify.com/v1/albums/5s0Ru9v1r6kzW5KDBIMmdC","id":"5s0Ru9v1r6kzW5KDBIMmdC","images":[{"height":640,"url":"https://i.scdn.co/image/ab67616d0000b2731aa8248d483d98f21e630801","width":640},{"height":300,"url":"https://i.scdn.co/image/ab67616d00001e021aa8248d483d98f21e630801","width":300},{"height":64,"url":"https://i.scdn.co/image/ab67616d000048511aa8248d483d98f21e630801","width":64}],"name":"Greatest Hits Karaoke: Roy Orbison","release_date":"2014-12-15","release_date_precision":"day","type":"album","uri":"spotify:album:5s0Ru9v1r6kzW5KDBIMmdC","artists":[{"external_urls":{"spotify":"https://open.spotify.com/artist/7dYZoYIoFYmSvzDKZxNVO0"},"href":"https://api.spotify.com/v1/artists/7dYZoYIoFYmSvzDKZxNVO0","id":"7dYZoYIoFYmSvzDKZxNVO0","name":"Cooltone Karaoke","type":"artist","uri":"spotify:artist:7dYZoYIoFYmSvzDKZxNVO0"}]}]}}